%!PS-Adobe-3.0 EPSF-3.0
%%Title: conv_BEE_b.eps
%%Creator: matplotlib version 1.5.1, http://matplotlib.org/
%%CreationDate: Sun Nov 11 19:45:57 2018
%%Orientation: portrait
%%BoundingBox: 46 183 565 608
%%EndComments
%%BeginProlog
/mpldict 8 dict def
mpldict begin
/m { moveto } bind def
/l { lineto } bind def
/r { rlineto } bind def
/c { curveto } bind def
/cl { closepath } bind def
/box {
m
1 index 0 r
0 exch r
neg 0 r
cl
} bind def
/clipbox {
box
clip
newpath
} bind def
%!PS-Adobe-3.0 Resource-Font
%%Title: Bitstream Vera Sans
%%Copyright: Copyright (c) 2003 by Bitstream, Inc. All Rights Reserved.
%%Creator: Converted from TrueType to type 3 by PPR
25 dict begin
/_d{bind def}bind def
/_m{moveto}_d
/_l{lineto}_d
/_cl{closepath eofill}_d
/_c{curveto}_d
/_sc{7 -1 roll{setcachedevice}{pop pop pop pop pop pop}ifelse}_d
/_e{exec}_d
/FontName /BitstreamVeraSans-Roman def
/PaintType 0 def
/FontMatrix[.001 0 0 .001 0 0]def
/FontBBox[-183 -236 1287 928]def
/FontType 3 def
/Encoding [ /space /comma /period /zero /one /two /three /four /five /six /seven /eight /B /C /E /F /I /a /c /d /e /f /g /i /k /n /o /r /s /t /v /w ] def
/FontInfo 10 dict dup begin
/FamilyName (Bitstream Vera Sans) def
/FullName (Bitstream Vera Sans) def
/Notice (Copyright (c) 2003 by Bitstream, Inc. All Rights Reserved. Bitstream Vera is a trademark of Bitstream, Inc.) def
/Weight (Roman) def
/Version (Release 1.10) def
/ItalicAngle 0.0 def
/isFixedPitch false def
/UnderlinePosition -213 def
/UnderlineThickness 143 def
end readonly def
/CharStrings 32 dict dup begin
/space{318 0 0 0 0 0 _sc
}_d
/comma{318 0 77 -115 220 124 _sc
117 124 _m
220 124 _l
220 40 _l
140 -115 _l
77 -115 _l
117 40 _l
117 124 _l
_cl}_d
/period{318 0 107 0 210 124 _sc
107 124 _m
210 124 _l
210 0 _l
107 0 _l
107 124 _l
_cl}_d
/zero{636 0 66 -13 570 742 _sc
318 664 _m
267 664 229 639 203 589 _c
177 539 165 464 165 364 _c
165 264 177 189 203 139 _c
229 89 267 64 318 64 _c
369 64 407 89 433 139 _c
458 189 471 264 471 364 _c
471 464 458 539 433 589 _c
407 639 369 664 318 664 _c
318 742 _m
399 742 461 709 505 645 _c
548 580 570 486 570 364 _c
570 241 548 147 505 83 _c
461 19 399 -13 318 -13 _c
236 -13 173 19 130 83 _c
87 147 66 241 66 364 _c
66 486 87 580 130 645 _c
173 709 236 742 318 742 _c
_cl}_d
/one{636 0 110 0 544 729 _sc
124 83 _m
285 83 _l
285 639 _l
110 604 _l
110 694 _l
284 729 _l
383 729 _l
383 83 _l
544 83 _l
544 0 _l
124 0 _l
124 83 _l
_cl}_d
/two{{636 0 73 0 536 742 _sc
192 83 _m
536 83 _l
536 0 _l
73 0 _l
73 83 _l
110 121 161 173 226 239 _c
290 304 331 346 348 365 _c
380 400 402 430 414 455 _c
426 479 433 504 433 528 _c
433 566 419 598 392 622 _c
365 646 330 659 286 659 _c
255 659 222 653 188 643 _c
154 632 117 616 78 594 _c
78 694 _l
118 710 155 722 189 730 _c
223 738 255 742 284 742 _c
}_e{359 742 419 723 464 685 _c
509 647 532 597 532 534 _c
532 504 526 475 515 449 _c
504 422 484 390 454 354 _c
446 344 420 317 376 272 _c
332 227 271 164 192 83 _c
_cl}_e}_d
/three{{636 0 76 -13 556 742 _sc
406 393 _m
453 383 490 362 516 330 _c
542 298 556 258 556 212 _c
556 140 531 84 482 45 _c
432 6 362 -13 271 -13 _c
240 -13 208 -10 176 -4 _c
144 1 110 10 76 22 _c
76 117 _l
103 101 133 89 166 81 _c
198 73 232 69 268 69 _c
330 69 377 81 409 105 _c
441 129 458 165 458 212 _c
458 254 443 288 413 312 _c
383 336 341 349 287 349 _c
}_e{202 349 _l
202 430 _l
291 430 _l
339 430 376 439 402 459 _c
428 478 441 506 441 543 _c
441 580 427 609 401 629 _c
374 649 336 659 287 659 _c
260 659 231 656 200 650 _c
169 644 135 635 98 623 _c
98 711 _l
135 721 170 729 203 734 _c
235 739 266 742 296 742 _c
370 742 429 725 473 691 _c
517 657 539 611 539 553 _c
539 513 527 479 504 451 _c
481 423 448 403 406 393 _c
_cl}_e}_d
/four{636 0 49 0 580 729 _sc
378 643 _m
129 254 _l
378 254 _l
378 643 _l
352 729 _m
476 729 _l
476 254 _l
580 254 _l
580 172 _l
476 172 _l
476 0 _l
378 0 _l
378 172 _l
49 172 _l
49 267 _l
352 729 _l
_cl}_d
/five{{636 0 77 -13 549 729 _sc
108 729 _m
495 729 _l
495 646 _l
198 646 _l
198 467 _l
212 472 227 476 241 478 _c
255 480 270 482 284 482 _c
365 482 429 459 477 415 _c
525 370 549 310 549 234 _c
549 155 524 94 475 51 _c
426 8 357 -13 269 -13 _c
238 -13 207 -10 175 -6 _c
143 -1 111 6 77 17 _c
77 116 _l
106 100 136 88 168 80 _c
199 72 232 69 267 69 _c
}_e{323 69 368 83 401 113 _c
433 143 450 183 450 234 _c
450 284 433 324 401 354 _c
368 384 323 399 267 399 _c
241 399 214 396 188 390 _c
162 384 135 375 108 363 _c
108 729 _l
_cl}_e}_d
/six{{636 0 70 -13 573 742 _sc
330 404 _m
286 404 251 388 225 358 _c
199 328 186 286 186 234 _c
186 181 199 139 225 109 _c
251 79 286 64 330 64 _c
374 64 409 79 435 109 _c
461 139 474 181 474 234 _c
474 286 461 328 435 358 _c
409 388 374 404 330 404 _c
526 713 _m
526 623 _l
501 635 476 644 451 650 _c
425 656 400 659 376 659 _c
310 659 260 637 226 593 _c
}_e{192 549 172 482 168 394 _c
187 422 211 444 240 459 _c
269 474 301 482 336 482 _c
409 482 467 459 509 415 _c
551 371 573 310 573 234 _c
573 159 550 99 506 54 _c
462 9 403 -13 330 -13 _c
246 -13 181 19 137 83 _c
92 147 70 241 70 364 _c
70 479 97 571 152 639 _c
206 707 280 742 372 742 _c
396 742 421 739 447 735 _c
472 730 498 723 526 713 _c
_cl}_e}_d
/seven{636 0 82 0 551 729 _sc
82 729 _m
551 729 _l
551 687 _l
286 0 _l
183 0 _l
432 646 _l
82 646 _l
82 729 _l
_cl}_d
/eight{{636 0 68 -13 568 742 _sc
318 346 _m
271 346 234 333 207 308 _c
180 283 167 249 167 205 _c
167 161 180 126 207 101 _c
234 76 271 64 318 64 _c
364 64 401 76 428 102 _c
455 127 469 161 469 205 _c
469 249 455 283 429 308 _c
402 333 365 346 318 346 _c
219 388 _m
177 398 144 418 120 447 _c
96 476 85 511 85 553 _c
85 611 105 657 147 691 _c
188 725 245 742 318 742 _c
}_e{390 742 447 725 489 691 _c
530 657 551 611 551 553 _c
551 511 539 476 515 447 _c
491 418 459 398 417 388 _c
464 377 501 355 528 323 _c
554 291 568 251 568 205 _c
568 134 546 80 503 43 _c
459 5 398 -13 318 -13 _c
237 -13 175 5 132 43 _c
89 80 68 134 68 205 _c
68 251 81 291 108 323 _c
134 355 171 377 219 388 _c
183 544 _m
183 506 194 476 218 455 _c
}_e{242 434 275 424 318 424 _c
360 424 393 434 417 455 _c
441 476 453 506 453 544 _c
453 582 441 611 417 632 _c
393 653 360 664 318 664 _c
275 664 242 653 218 632 _c
194 611 183 582 183 544 _c
_cl}_e}_d
/B{{686 0 98 0 615 729 _sc
197 348 _m
197 81 _l
355 81 _l
408 81 447 92 473 114 _c
498 136 511 169 511 215 _c
511 260 498 293 473 315 _c
447 337 408 348 355 348 _c
197 348 _l
197 648 _m
197 428 _l
343 428 _l
391 428 426 437 450 455 _c
474 473 486 500 486 538 _c
486 574 474 602 450 620 _c
426 638 391 648 343 648 _c
197 648 _l
98 729 _m
350 729 _l
}_e{425 729 483 713 524 682 _c
564 650 585 606 585 549 _c
585 504 574 468 553 442 _c
532 416 502 399 462 393 _c
510 382 548 360 575 327 _c
601 294 615 253 615 204 _c
615 138 592 88 548 53 _c
504 17 441 0 360 0 _c
98 0 _l
98 729 _l
_cl}_e}_d
/C{{698 0 56 -13 644 742 _sc
644 673 _m
644 569 _l
610 599 575 622 537 638 _c
499 653 460 661 418 661 _c
334 661 270 635 226 584 _c
182 533 160 460 160 364 _c
160 268 182 194 226 143 _c
270 92 334 67 418 67 _c
460 67 499 74 537 90 _c
575 105 610 128 644 159 _c
644 56 _l
609 32 572 15 534 4 _c
496 -7 455 -13 412 -13 _c
302 -13 215 20 151 87 _c
}_e{87 154 56 246 56 364 _c
56 481 87 573 151 641 _c
215 708 302 742 412 742 _c
456 742 497 736 535 725 _c
573 713 610 696 644 673 _c
_cl}_e}_d
/E{632 0 98 0 568 729 _sc
98 729 _m
559 729 _l
559 646 _l
197 646 _l
197 430 _l
544 430 _l
544 347 _l
197 347 _l
197 83 _l
568 83 _l
568 0 _l
98 0 _l
98 729 _l
_cl}_d
/F{575 0 98 0 517 729 _sc
98 729 _m
517 729 _l
517 646 _l
197 646 _l
197 431 _l
486 431 _l
486 348 _l
197 348 _l
197 0 _l
98 0 _l
98 729 _l
_cl}_d
/I{295 0 98 0 197 729 _sc
98 729 _m
197 729 _l
197 0 _l
98 0 _l
98 729 _l
_cl}_d
/a{{613 0 60 -13 522 560 _sc
343 275 _m
270 275 220 266 192 250 _c
164 233 150 205 150 165 _c
150 133 160 107 181 89 _c
202 70 231 61 267 61 _c
317 61 357 78 387 114 _c
417 149 432 196 432 255 _c
432 275 _l
343 275 _l
522 312 _m
522 0 _l
432 0 _l
432 83 _l
411 49 385 25 355 10 _c
325 -5 287 -13 243 -13 _c
187 -13 142 2 109 33 _c
76 64 60 106 60 159 _c
}_e{60 220 80 266 122 298 _c
163 329 224 345 306 345 _c
432 345 _l
432 354 _l
432 395 418 427 391 450 _c
364 472 326 484 277 484 _c
245 484 215 480 185 472 _c
155 464 127 453 100 439 _c
100 522 _l
132 534 164 544 195 550 _c
226 556 256 560 286 560 _c
365 560 424 539 463 498 _c
502 457 522 395 522 312 _c
_cl}_e}_d
/c{{550 0 55 -13 488 560 _sc
488 526 _m
488 442 _l
462 456 437 466 411 473 _c
385 480 360 484 334 484 _c
276 484 230 465 198 428 _c
166 391 150 339 150 273 _c
150 206 166 154 198 117 _c
230 80 276 62 334 62 _c
360 62 385 65 411 72 _c
437 79 462 90 488 104 _c
488 21 _l
462 9 436 0 410 -5 _c
383 -10 354 -13 324 -13 _c
242 -13 176 12 128 64 _c
}_e{79 115 55 185 55 273 _c
55 362 79 432 128 483 _c
177 534 244 560 330 560 _c
358 560 385 557 411 551 _c
437 545 463 537 488 526 _c
_cl}_e}_d
/d{{635 0 55 -13 544 760 _sc
454 464 _m
454 760 _l
544 760 _l
544 0 _l
454 0 _l
454 82 _l
435 49 411 25 382 10 _c
353 -5 319 -13 279 -13 _c
213 -13 159 13 117 65 _c
75 117 55 187 55 273 _c
55 359 75 428 117 481 _c
159 533 213 560 279 560 _c
319 560 353 552 382 536 _c
411 520 435 496 454 464 _c
148 273 _m
148 207 161 155 188 117 _c
215 79 253 61 301 61 _c
}_e{348 61 385 79 413 117 _c
440 155 454 207 454 273 _c
454 339 440 390 413 428 _c
385 466 348 485 301 485 _c
253 485 215 466 188 428 _c
161 390 148 339 148 273 _c
_cl}_e}_d
/e{{615 0 55 -13 562 560 _sc
562 296 _m
562 252 _l
149 252 _l
153 190 171 142 205 110 _c
238 78 284 62 344 62 _c
378 62 412 66 444 74 _c
476 82 509 95 541 113 _c
541 28 _l
509 14 476 3 442 -3 _c
408 -9 373 -13 339 -13 _c
251 -13 182 12 131 62 _c
80 112 55 181 55 268 _c
55 357 79 428 127 481 _c
175 533 241 560 323 560 _c
397 560 455 536 498 489 _c
}_e{540 441 562 377 562 296 _c
472 322 _m
471 371 457 410 431 440 _c
404 469 368 484 324 484 _c
274 484 234 469 204 441 _c
174 413 156 373 152 322 _c
472 322 _l
_cl}_e}_d
/f{352 0 23 0 371 760 _sc
371 760 _m
371 685 _l
285 685 _l
253 685 230 678 218 665 _c
205 652 199 629 199 595 _c
199 547 _l
347 547 _l
347 477 _l
199 477 _l
199 0 _l
109 0 _l
109 477 _l
23 477 _l
23 547 _l
109 547 _l
109 585 _l
109 645 123 690 151 718 _c
179 746 224 760 286 760 _c
371 760 _l
_cl}_d
/g{{635 0 55 -207 544 560 _sc
454 280 _m
454 344 440 395 414 431 _c
387 467 349 485 301 485 _c
253 485 215 467 188 431 _c
161 395 148 344 148 280 _c
148 215 161 165 188 129 _c
215 93 253 75 301 75 _c
349 75 387 93 414 129 _c
440 165 454 215 454 280 _c
544 68 _m
544 -24 523 -93 482 -139 _c
440 -184 377 -207 292 -207 _c
260 -207 231 -204 203 -200 _c
175 -195 147 -188 121 -178 _c
}_e{121 -91 _l
147 -105 173 -115 199 -122 _c
225 -129 251 -133 278 -133 _c
336 -133 380 -117 410 -87 _c
439 -56 454 -10 454 52 _c
454 96 _l
435 64 411 40 382 24 _c
353 8 319 0 279 0 _c
211 0 157 25 116 76 _c
75 127 55 195 55 280 _c
55 364 75 432 116 483 _c
157 534 211 560 279 560 _c
319 560 353 552 382 536 _c
411 520 435 496 454 464 _c
454 547 _l
544 547 _l
}_e{544 68 _l
_cl}_e}_d
/i{278 0 94 0 184 760 _sc
94 547 _m
184 547 _l
184 0 _l
94 0 _l
94 547 _l
94 760 _m
184 760 _l
184 646 _l
94 646 _l
94 760 _l
_cl}_d
/k{579 0 91 0 576 760 _sc
91 760 _m
181 760 _l
181 311 _l
449 547 _l
564 547 _l
274 291 _l
576 0 _l
459 0 _l
181 267 _l
181 0 _l
91 0 _l
91 760 _l
_cl}_d
/n{634 0 91 0 549 560 _sc
549 330 _m
549 0 _l
459 0 _l
459 327 _l
459 379 448 417 428 443 _c
408 469 378 482 338 482 _c
289 482 251 466 223 435 _c
195 404 181 362 181 309 _c
181 0 _l
91 0 _l
91 547 _l
181 547 _l
181 462 _l
202 494 227 519 257 535 _c
286 551 320 560 358 560 _c
420 560 468 540 500 501 _c
532 462 549 405 549 330 _c
_cl}_d
/o{612 0 55 -13 557 560 _sc
306 484 _m
258 484 220 465 192 427 _c
164 389 150 338 150 273 _c
150 207 163 156 191 118 _c
219 80 257 62 306 62 _c
354 62 392 80 420 118 _c
448 156 462 207 462 273 _c
462 337 448 389 420 427 _c
392 465 354 484 306 484 _c
306 560 _m
384 560 445 534 490 484 _c
534 433 557 363 557 273 _c
557 183 534 113 490 63 _c
445 12 384 -13 306 -13 _c
227 -13 165 12 121 63 _c
77 113 55 183 55 273 _c
55 363 77 433 121 484 _c
165 534 227 560 306 560 _c
_cl}_d
/r{411 0 91 0 411 560 _sc
411 463 _m
401 469 390 473 378 476 _c
366 478 353 480 339 480 _c
288 480 249 463 222 430 _c
194 397 181 350 181 288 _c
181 0 _l
91 0 _l
91 547 _l
181 547 _l
181 462 _l
199 495 224 520 254 536 _c
284 552 321 560 365 560 _c
371 560 378 559 386 559 _c
393 558 401 557 411 555 _c
411 463 _l
_cl}_d
/s{{521 0 54 -13 472 560 _sc
443 531 _m
443 446 _l
417 458 391 468 364 475 _c
336 481 308 485 279 485 _c
234 485 200 478 178 464 _c
156 450 145 430 145 403 _c
145 382 153 366 169 354 _c
185 342 217 330 265 320 _c
296 313 _l
360 299 405 279 432 255 _c
458 230 472 195 472 151 _c
472 100 452 60 412 31 _c
372 1 316 -13 246 -13 _c
216 -13 186 -10 154 -5 _c
}_e{122 0 89 8 54 20 _c
54 113 _l
87 95 120 82 152 74 _c
184 65 216 61 248 61 _c
290 61 323 68 346 82 _c
368 96 380 117 380 144 _c
380 168 371 187 355 200 _c
339 213 303 226 247 238 _c
216 245 _l
160 257 119 275 95 299 _c
70 323 58 356 58 399 _c
58 450 76 490 112 518 _c
148 546 200 560 268 560 _c
301 560 332 557 362 552 _c
391 547 418 540 443 531 _c
}_e{_cl}_e}_d
/t{392 0 27 0 368 702 _sc
183 702 _m
183 547 _l
368 547 _l
368 477 _l
183 477 _l
183 180 _l
183 135 189 106 201 94 _c
213 81 238 75 276 75 _c
368 75 _l
368 0 _l
276 0 _l
206 0 158 13 132 39 _c
106 65 93 112 93 180 _c
93 477 _l
27 477 _l
27 547 _l
93 547 _l
93 702 _l
183 702 _l
_cl}_d
/v{592 0 30 0 562 547 _sc
30 547 _m
125 547 _l
296 88 _l
467 547 _l
562 547 _l
357 0 _l
235 0 _l
30 547 _l
_cl}_d
/w{818 0 42 0 776 547 _sc
42 547 _m
132 547 _l
244 120 _l
356 547 _l
462 547 _l
574 120 _l
686 547 _l
776 547 _l
633 0 _l
527 0 _l
409 448 _l
291 0 _l
185 0 _l
42 547 _l
_cl}_d
end readonly def

/BuildGlyph
 {exch begin
 CharStrings exch
 2 copy known not{pop /.notdef}if
 true 3 1 roll get exec
 end}_d

/BuildChar {
 1 index /Encoding get exch get
 1 index /BuildGlyph get exec
}_d

FontName currentdict end definefont pop
end
%%EndProlog
mpldict begin
46.186 183.415 translate
519.628 425.171 0 0 clipbox
100000 setmiterlimit
gsave
0 0 m
519.628125 0 l
519.628125 425.170625 l
0 425.170625 l
cl
1.000 setgray
fill
grestore
gsave
66.028125 39.45 m
512.428125 39.45 l
512.428125 385.05 l
66.028125 385.05 l
cl
1.000 setgray
fill
grestore
1.000 setlinewidth
1 setlinejoin
2 setlinecap
[] 0 setdash
0.000 0.000 1.000 setrgbcolor
gsave
446.4 345.6 66.03 39.45 clipbox
66.028125 365.347061 m
70.537216 316.432142 l
75.046307 259.290749 l
79.555398 249.433392 l
84.064489 243.963788 l
88.57358 238.678357 l
93.08267 238.678357 l
97.591761 238.678357 l
102.100852 238.678357 l
106.609943 238.678357 l
111.119034 238.678357 l
115.628125 213.96068 l
120.137216 213.96068 l
124.646307 170.887092 l
129.155398 169.419459 l
133.664489 148.4117 l
138.17358 148.4117 l
142.68267 148.033622 l
147.191761 148.033622 l
151.700852 148.033622 l
156.209943 148.033622 l
160.719034 146.195055 l
165.228125 146.195055 l
169.737216 146.195055 l
174.246307 146.195055 l
178.755398 145.528815 l
183.264489 145.528815 l
187.77358 145.528815 l
192.28267 145.528815 l
196.791761 145.528815 l
201.300852 139.238463 l
205.809943 137.119271 l
210.319034 137.042908 l
214.828125 132.820455 l
219.337216 132.820455 l
223.846307 127.732599 l
228.355398 127.732599 l
232.864489 124.203745 l
237.37358 112.355823 l
241.88267 112.355823 l
246.391761 112.355823 l
250.900852 112.355823 l
255.409943 112.355823 l
259.919034 112.355823 l
264.428125 112.355823 l
268.937216 112.355823 l
273.446307 112.355823 l
277.955398 112.355823 l
282.464489 112.355823 l
286.97358 112.355823 l
291.48267 110.437575 l
295.991761 110.437575 l
300.500852 110.437575 l
305.009943 103.016121 l
309.519034 102.353668 l
314.028125 102.353551 l
318.537216 102.353551 l
323.046307 102.353551 l
327.555398 102.058657 l
332.064489 102.058657 l
336.57358 102.058657 l
341.08267 98.551146 l
345.591761 98.551146 l
350.100852 96.047726 l
354.609943 93.980745 l
359.119034 82.250746 l
363.628125 82.250746 l
368.137216 82.250746 l
372.646307 80.796519 l
377.155398 80.149975 l
381.664489 80.149975 l
386.17358 80.149975 l
390.68267 80.149975 l
395.191761 80.149975 l
399.700852 80.149975 l
404.209943 80.149975 l
408.719034 80.149975 l
413.228125 80.149975 l
417.737216 80.149975 l
422.246307 80.147251 l
426.755398 80.146518 l
431.264489 80.146518 l
435.77358 80.146518 l
440.28267 80.146518 l
444.791761 80.146518 l
449.300852 80.146518 l
453.809943 80.146518 l
458.319034 80.146518 l
462.828125 80.146518 l
467.337216 80.146518 l
471.846307 80.146518 l
476.355398 80.146518 l
480.864489 80.146518 l
485.37358 80.146518 l
489.88267 80.146518 l
494.391761 80.146518 l
498.900852 80.146518 l
503.409943 80.146518 l
507.919034 80.146518 l
512.428125 80.145722 l
stroke
grestore
0.000 0.500 0.000 setrgbcolor
gsave
446.4 345.6 66.03 39.45 clipbox
66.028125 288.347842 m
70.537216 288.347842 l
75.046307 259.091564 l
79.555398 259.091564 l
84.064489 259.091564 l
88.57358 209.391271 l
93.08267 207.465899 l
97.591761 188.262259 l
102.100852 188.262259 l
106.609943 173.836961 l
111.119034 173.836961 l
115.628125 150.013788 l
120.137216 150.013788 l
124.646307 132.812021 l
129.155398 132.812021 l
133.664489 132.812021 l
138.17358 126.618274 l
142.68267 126.618274 l
147.191761 126.618274 l
151.700852 126.618274 l
156.209943 123.457946 l
160.719034 123.457946 l
165.228125 123.457946 l
169.737216 123.333328 l
174.246307 121.784564 l
178.755398 121.784564 l
183.264489 121.784564 l
187.77358 121.614748 l
192.28267 121.614748 l
196.791761 121.614748 l
201.300852 118.541196 l
205.809943 118.541196 l
210.319034 118.541196 l
214.828125 118.541196 l
219.337216 118.541196 l
223.846307 118.541196 l
228.355398 114.409478 l
232.864489 114.409478 l
237.37358 114.4001 l
241.88267 114.4001 l
246.391761 114.398162 l
250.900852 114.398162 l
255.409943 114.398162 l
259.919034 114.398162 l
264.428125 113.407097 l
268.937216 107.14268 l
273.446307 107.14268 l
277.955398 107.14268 l
282.464489 107.14268 l
286.97358 103.530284 l
291.48267 103.52796 l
295.991761 101.176574 l
300.500852 101.176574 l
305.009943 101.116136 l
309.519034 101.116136 l
314.028125 101.116136 l
318.537216 101.116136 l
323.046307 101.065128 l
327.555398 101.065128 l
332.064489 101.065128 l
336.57358 96.756494 l
341.08267 94.855924 l
345.591761 94.855924 l
350.100852 93.375919 l
354.609943 93.375919 l
359.119034 93.375919 l
363.628125 93.375919 l
368.137216 93.375919 l
372.646307 93.375919 l
377.155398 93.375919 l
381.664489 92.919482 l
386.17358 92.919482 l
390.68267 92.919482 l
395.191761 92.310566 l
399.700852 92.285921 l
404.209943 92.285747 l
408.719034 92.28544 l
413.228125 92.28544 l
417.737216 92.209292 l
422.246307 91.784148 l
426.755398 91.635756 l
431.264489 91.635756 l
435.77358 85.104677 l
440.28267 85.104677 l
444.791761 85.104677 l
449.300852 85.104677 l
453.809943 85.104677 l
458.319034 85.104677 l
462.828125 85.104677 l
467.337216 85.104677 l
471.846307 85.104677 l
476.355398 85.104677 l
480.864489 85.104677 l
485.37358 85.104677 l
489.88267 85.104677 l
494.391761 85.104677 l
498.900852 84.782521 l
503.409943 84.782521 l
507.919034 84.782521 l
512.428125 84.782521 l
stroke
grestore
1.000 0.000 0.000 setrgbcolor
gsave
446.4 345.6 66.03 39.45 clipbox
66.028125 795.590144 m
68.990058 426.170625 m
70.537216 233.205234 l
75.046307 233.205234 l
79.555398 233.205234 l
84.064489 220.098416 l
88.57358 214.27676 l
93.08267 214.27676 l
97.591761 214.27676 l
102.100852 214.27676 l
106.609943 189.649267 l
111.119034 189.649267 l
115.628125 189.649267 l
120.137216 189.649267 l
124.646307 189.647322 l
129.155398 182.121987 l
133.664489 182.121965 l
138.17358 182.121965 l
142.68267 182.121965 l
147.191761 182.121965 l
151.700852 182.121965 l
156.209943 154.89897 l
160.719034 148.034576 l
165.228125 133.971196 l
169.737216 133.971196 l
174.246307 133.878151 l
178.755398 133.878151 l
183.264489 133.878151 l
187.77358 133.878151 l
192.28267 120.83346 l
196.791761 120.83346 l
201.300852 120.83346 l
205.809943 120.83346 l
210.319034 107.59993 l
214.828125 107.59993 l
219.337216 107.59993 l
223.846307 107.59993 l
228.355398 107.59993 l
232.864489 107.59993 l
237.37358 107.599213 l
241.88267 107.599213 l
246.391761 106.024649 l
250.900852 106.024649 l
255.409943 106.024649 l
259.919034 105.62682 l
264.428125 105.62682 l
268.937216 105.62682 l
273.446307 105.62682 l
277.955398 105.62682 l
282.464489 105.62682 l
286.97358 105.62682 l
291.48267 105.62682 l
295.991761 105.62682 l
300.500852 105.62682 l
305.009943 105.62682 l
309.519034 105.62682 l
314.028125 102.926784 l
318.537216 102.926784 l
323.046307 102.51698 l
327.555398 102.51698 l
332.064489 100.568559 l
336.57358 98.784168 l
341.08267 98.784168 l
345.591761 98.784168 l
350.100852 98.784168 l
354.609943 98.784168 l
359.119034 98.565468 l
363.628125 98.565468 l
368.137216 98.248777 l
372.646307 98.248777 l
377.155398 98.248777 l
381.664489 98.187209 l
386.17358 98.187209 l
390.68267 98.111359 l
395.191761 98.111359 l
399.700852 98.111359 l
404.209943 98.111342 l
408.719034 93.756968 l
413.228125 93.756968 l
417.737216 93.756968 l
422.246307 93.756968 l
426.755398 93.428388 l
431.264489 93.428388 l
435.77358 93.428388 l
440.28267 93.428388 l
444.791761 93.428388 l
449.300852 93.362404 l
453.809943 92.401636 l
458.319034 92.401636 l
462.828125 92.401088 l
467.337216 92.401088 l
471.846307 92.401088 l
476.355398 91.517643 l
480.864489 91.517643 l
485.37358 91.293025 l
489.88267 91.293025 l
494.391761 91.293025 l
498.900852 91.293025 l
503.409943 91.293025 l
507.919034 91.293025 l
512.428125 91.293025 l
stroke
grestore
0.000 0.750 0.750 setrgbcolor
gsave
446.4 345.6 66.03 39.45 clipbox
66.028125 334.786675 m
70.537216 256.318822 l
75.046307 250.838741 l
79.555398 250.838741 l
84.064489 250.838741 l
88.57358 241.143206 l
93.08267 201.141823 l
97.591761 180.267934 l
102.100852 177.946071 l
106.609943 177.946071 l
111.119034 177.946071 l
115.628125 174.775616 l
120.137216 174.775616 l
124.646307 174.775616 l
129.155398 174.775616 l
133.664489 171.935694 l
138.17358 168.88459 l
142.68267 159.705512 l
147.191761 159.705512 l
151.700852 159.705512 l
156.209943 158.539683 l
160.719034 158.539683 l
165.228125 157.808643 l
169.737216 134.635527 l
174.246307 134.635527 l
178.755398 134.635527 l
183.264489 134.635527 l
187.77358 134.635527 l
192.28267 134.635527 l
196.791761 134.635527 l
201.300852 134.635527 l
205.809943 134.13825 l
210.319034 134.13825 l
214.828125 134.13825 l
219.337216 133.333041 l
223.846307 133.333041 l
228.355398 133.333041 l
232.864489 124.376334 l
237.37358 124.376334 l
241.88267 122.91246 l
246.391761 122.91246 l
250.900852 120.070908 l
255.409943 120.070908 l
259.919034 120.070908 l
264.428125 120.069218 l
268.937216 118.124883 l
273.446307 101.986311 l
277.955398 101.986311 l
282.464489 101.986311 l
286.97358 100.627041 l
291.48267 100.627041 l
295.991761 100.627041 l
300.500852 100.627041 l
305.009943 100.627041 l
309.519034 100.627041 l
314.028125 100.627041 l
318.537216 100.627041 l
323.046307 99.208252 l
327.555398 99.208252 l
332.064489 99.208252 l
336.57358 99.208252 l
341.08267 98.516083 l
345.591761 98.516083 l
350.100852 98.516083 l
354.609943 98.516083 l
359.119034 98.516083 l
363.628125 98.516083 l
368.137216 94.907369 l
372.646307 94.907369 l
377.155398 91.876511 l
381.664489 91.876511 l
386.17358 91.876511 l
390.68267 91.876511 l
395.191761 89.783553 l
399.700852 89.783553 l
404.209943 86.24743 l
408.719034 86.24743 l
413.228125 86.24743 l
417.737216 85.789078 l
422.246307 85.789078 l
426.755398 85.789078 l
431.264489 85.789078 l
435.77358 85.789078 l
440.28267 85.788025 l
444.791761 85.788025 l
449.300852 85.788025 l
453.809943 85.788025 l
458.319034 85.788025 l
462.828125 85.788025 l
467.337216 85.788025 l
471.846307 85.788025 l
476.355398 85.788025 l
480.864489 85.606286 l
485.37358 85.606286 l
489.88267 85.606286 l
494.391761 85.452471 l
498.900852 85.452471 l
503.409943 85.452471 l
507.919034 85.452471 l
512.428125 85.452471 l
stroke
grestore
0.750 0.000 0.750 setrgbcolor
gsave
446.4 345.6 66.03 39.45 clipbox
66.028125 290.164278 m
70.537216 290.164278 l
75.046307 270.086105 l
79.555398 259.502394 l
84.064489 259.502394 l
88.57358 249.290675 l
93.08267 230.904367 l
97.591761 230.904367 l
102.100852 230.904367 l
106.609943 230.904367 l
111.119034 207.125712 l
115.628125 207.125712 l
120.137216 207.071835 l
124.646307 167.418407 l
129.155398 167.418407 l
133.664489 167.418407 l
138.17358 167.418407 l
142.68267 167.418407 l
147.191761 167.418407 l
151.700852 167.418407 l
156.209943 166.033793 l
160.719034 163.569154 l
165.228125 151.482564 l
169.737216 151.482564 l
174.246307 151.482564 l
178.755398 123.984654 l
183.264489 123.984654 l
187.77358 109.739718 l
192.28267 109.739718 l
196.791761 109.739718 l
201.300852 109.739718 l
205.809943 109.739718 l
210.319034 109.717241 l
214.828125 109.717241 l
219.337216 96.651611 l
223.846307 96.651611 l
228.355398 96.651611 l
232.864489 95.649595 l
237.37358 95.05248 l
241.88267 92.473387 l
246.391761 92.473387 l
250.900852 91.908809 l
255.409943 91.908809 l
259.919034 91.908809 l
264.428125 91.164776 l
268.937216 91.164776 l
273.446307 91.164776 l
277.955398 91.164776 l
282.464489 91.164776 l
286.97358 91.164776 l
291.48267 91.164776 l
295.991761 91.164776 l
300.500852 91.164776 l
305.009943 91.164776 l
309.519034 91.164776 l
314.028125 91.164776 l
318.537216 91.164776 l
323.046307 91.164776 l
327.555398 90.986528 l
332.064489 90.986528 l
336.57358 90.986528 l
341.08267 90.986528 l
345.591761 90.986528 l
350.100852 90.986528 l
354.609943 90.986528 l
359.119034 90.986528 l
363.628125 90.986528 l
368.137216 90.986528 l
372.646307 90.986528 l
377.155398 90.986528 l
381.664489 90.986528 l
386.17358 90.986528 l
390.68267 90.986528 l
395.191761 90.986528 l
399.700852 90.986528 l
404.209943 90.986528 l
408.719034 90.986456 l
413.228125 90.986456 l
417.737216 90.986456 l
422.246307 90.986456 l
426.755398 90.785417 l
431.264489 90.785417 l
435.77358 90.785417 l
440.28267 90.785417 l
444.791761 90.785417 l
449.300852 90.785417 l
453.809943 89.679963 l
458.319034 88.997006 l
462.828125 88.997006 l
467.337216 88.997006 l
471.846307 88.269523 l
476.355398 88.269523 l
480.864489 87.427248 l
485.37358 86.315822 l
489.88267 84.908894 l
494.391761 84.90817 l
498.900852 84.90817 l
503.409943 84.90817 l
507.919034 84.90817 l
512.428125 84.90817 l
stroke
grestore
0.750 0.750 0.000 setrgbcolor
gsave
446.4 345.6 66.03 39.45 clipbox
66.028125 344.949356 m
70.537216 344.949356 l
75.046307 344.20263 l
79.555398 262.591382 l
84.064489 238.828483 l
88.57358 217.989542 l
93.08267 182.942476 l
97.591761 147.300917 l
102.100852 145.766649 l
106.609943 145.673158 l
111.119034 145.673158 l
115.628125 133.335063 l
120.137216 133.335063 l
124.646307 133.335063 l
129.155398 133.335063 l
133.664489 133.014708 l
138.17358 130.817509 l
142.68267 130.817509 l
147.191761 130.817509 l
151.700852 129.317566 l
156.209943 126.64234 l
160.719034 126.64234 l
165.228125 126.64234 l
169.737216 126.64234 l
174.246307 125.536045 l
178.755398 124.648475 l
183.264489 124.648475 l
187.77358 124.648475 l
192.28267 124.052425 l
196.791761 124.052425 l
201.300852 124.052425 l
205.809943 124.052425 l
210.319034 124.052425 l
214.828125 124.052425 l
219.337216 124.052425 l
223.846307 124.052425 l
228.355398 124.052425 l
232.864489 124.052425 l
237.37358 115.795893 l
241.88267 115.795893 l
246.391761 115.795893 l
250.900852 115.795893 l
255.409943 115.795893 l
259.919034 100.347782 l
264.428125 100.347782 l
268.937216 100.225866 l
273.446307 100.225866 l
277.955398 100.225866 l
282.464489 100.225866 l
286.97358 100.225866 l
291.48267 100.225866 l
295.991761 100.1736 l
300.500852 99.826668 l
305.009943 95.334637 l
309.519034 95.334637 l
314.028125 95.334637 l
318.537216 95.334637 l
323.046307 95.321249 l
327.555398 95.321249 l
332.064489 95.321249 l
336.57358 95.321249 l
341.08267 95.321249 l
345.591761 95.321249 l
350.100852 95.317043 l
354.609943 95.317043 l
359.119034 95.284188 l
363.628125 95.28289 l
368.137216 95.276484 l
372.646307 95.276484 l
377.155398 95.276484 l
381.664489 95.276484 l
386.17358 95.106721 l
390.68267 90.837396 l
395.191761 90.837312 l
399.700852 90.837312 l
404.209943 90.830734 l
408.719034 90.780945 l
413.228125 90.780945 l
417.737216 90.63686 l
422.246307 86.285915 l
426.755398 86.285915 l
431.264489 83.924599 l
435.77358 83.924599 l
440.28267 83.924599 l
444.791761 83.924599 l
449.300852 83.924599 l
453.809943 83.924599 l
458.319034 83.924599 l
462.828125 83.91874 l
467.337216 83.91874 l
471.846307 83.91874 l
476.355398 83.918732 l
480.864489 83.918732 l
485.37358 78.139699 l
489.88267 78.139699 l
494.391761 78.139699 l
498.900852 78.139699 l
503.409943 78.139699 l
507.919034 78.139699 l
512.428125 78.135119 l
stroke
grestore
0.000 setgray
gsave
446.4 345.6 66.03 39.45 clipbox
66.028125 302.423637 m
70.537216 302.423637 l
75.046307 302.423637 l
79.555398 292.871405 l
84.064489 271.508148 l
88.57358 264.064057 l
93.08267 263.507086 l
97.591761 262.666667 l
102.100852 255.338967 l
106.609943 255.180321 l
111.119034 243.830388 l
115.628125 243.830388 l
120.137216 233.046437 l
124.646307 233.046437 l
129.155398 218.094414 l
133.664489 218.094414 l
138.17358 218.094414 l
142.68267 217.960242 l
147.191761 217.960242 l
151.700852 202.409828 l
156.209943 202.409828 l
160.719034 202.343073 l
165.228125 199.942947 l
169.737216 199.942947 l
174.246307 173.3267 l
178.755398 173.3267 l
183.264489 169.298033 l
187.77358 157.906978 l
192.28267 157.906978 l
196.791761 157.906978 l
201.300852 157.906978 l
205.809943 157.906978 l
210.319034 157.906978 l
214.828125 157.220347 l
219.337216 157.220347 l
223.846307 157.220347 l
228.355398 157.220347 l
232.864489 157.220347 l
237.37358 156.904878 l
241.88267 156.904878 l
246.391761 132.047115 l
250.900852 132.047115 l
255.409943 132.047115 l
259.919034 126.243623 l
264.428125 126.243623 l
268.937216 126.243623 l
273.446307 118.801922 l
277.955398 118.801922 l
282.464489 118.801922 l
286.97358 118.801922 l
291.48267 118.801922 l
295.991761 118.801922 l
300.500852 118.801922 l
305.009943 118.801922 l
309.519034 118.801922 l
314.028125 118.801922 l
318.537216 118.801922 l
323.046307 118.801922 l
327.555398 118.801922 l
332.064489 118.801922 l
336.57358 118.801922 l
341.08267 118.330958 l
345.591761 118.330958 l
350.100852 118.252474 l
354.609943 116.651682 l
359.119034 116.651682 l
363.628125 116.651682 l
368.137216 116.651682 l
372.646307 116.651682 l
377.155398 115.736264 l
381.664489 115.736264 l
386.17358 115.736264 l
390.68267 107.111182 l
395.191761 103.756224 l
399.700852 103.756224 l
404.209943 102.546838 l
408.719034 102.546838 l
413.228125 102.249935 l
417.737216 102.249935 l
422.246307 102.249935 l
426.755398 102.219453 l
431.264489 102.219453 l
435.77358 102.219453 l
440.28267 96.829452 l
444.791761 96.824452 l
449.300852 96.824452 l
453.809943 96.263458 l
458.319034 96.263458 l
462.828125 94.37879 l
467.337216 94.37879 l
471.846307 94.37879 l
476.355398 94.37879 l
480.864489 94.378007 l
485.37358 94.378007 l
489.88267 94.378007 l
494.391761 94.364072 l
498.900852 94.364072 l
503.409943 92.659843 l
507.919034 92.659843 l
512.428125 92.659843 l
stroke
grestore
0.000 0.000 1.000 setrgbcolor
gsave
446.4 345.6 66.03 39.45 clipbox
66.028125 261.002412 m
70.537216 261.002412 l
75.046307 261.002412 l
79.555398 246.930549 l
84.064489 246.930549 l
88.57358 237.888649 l
93.08267 230.182389 l
97.591761 230.182389 l
102.100852 230.182389 l
106.609943 230.155355 l
111.119034 108.554882 l
115.628125 108.554882 l
120.137216 107.45746 l
124.646307 107.45746 l
129.155398 105.664864 l
133.664489 105.664864 l
138.17358 101.672214 l
142.68267 101.672214 l
147.191761 93.180397 l
151.700852 93.180397 l
156.209943 93.180397 l
160.719034 91.614055 l
165.228125 91.614055 l
169.737216 91.614055 l
174.246307 91.300847 l
178.755398 91.300847 l
183.264489 89.540625 l
187.77358 89.509503 l
192.28267 89.509503 l
196.791761 89.509503 l
201.300852 89.509503 l
205.809943 89.509503 l
210.319034 89.509503 l
214.828125 89.509503 l
219.337216 89.509503 l
223.846307 89.509503 l
228.355398 89.509503 l
232.864489 89.509503 l
237.37358 87.852009 l
241.88267 87.852009 l
246.391761 87.852009 l
250.900852 87.852009 l
255.409943 87.852009 l
259.919034 87.852009 l
264.428125 87.852009 l
268.937216 87.852009 l
273.446307 87.051569 l
277.955398 87.051569 l
282.464489 87.051569 l
286.97358 87.051569 l
291.48267 87.051569 l
295.991761 87.051569 l
300.500852 87.051569 l
305.009943 87.051569 l
309.519034 87.051569 l
314.028125 87.051569 l
318.537216 86.58969 l
323.046307 86.58969 l
327.555398 86.571532 l
332.064489 84.059482 l
336.57358 84.024414 l
341.08267 84.024414 l
345.591761 84.024414 l
350.100852 83.944129 l
354.609943 83.896051 l
359.119034 83.896051 l
363.628125 83.896051 l
368.137216 83.896051 l
372.646307 83.896051 l
377.155398 83.896051 l
381.664489 83.896051 l
386.17358 83.896051 l
390.68267 83.896051 l
395.191761 83.896051 l
399.700852 83.896051 l
404.209943 83.896051 l
408.719034 83.896051 l
413.228125 83.302841 l
417.737216 83.302841 l
422.246307 83.302841 l
426.755398 83.302841 l
431.264489 83.302841 l
435.77358 83.302841 l
440.28267 83.302841 l
444.791761 83.302841 l
449.300852 83.218758 l
453.809943 83.218758 l
458.319034 83.218758 l
462.828125 83.218758 l
467.337216 83.218758 l
471.846307 83.218758 l
476.355398 83.218758 l
480.864489 83.218758 l
485.37358 83.218758 l
489.88267 83.218758 l
494.391761 83.218758 l
498.900852 83.208703 l
503.409943 83.208703 l
507.919034 83.208703 l
512.428125 83.208703 l
stroke
grestore
0.000 0.500 0.000 setrgbcolor
gsave
446.4 345.6 66.03 39.45 clipbox
66.028125 301.386236 m
70.537216 298.097637 l
75.046307 261.289005 l
79.555398 261.289005 l
84.064489 261.289005 l
88.57358 222.138034 l
93.08267 200.380521 l
97.591761 194.582613 l
102.100852 186.442513 l
106.609943 183.505266 l
111.119034 180.710825 l
115.628125 180.710825 l
120.137216 143.853014 l
124.646307 143.731083 l
129.155398 139.249189 l
133.664489 137.120043 l
138.17358 137.120043 l
142.68267 137.120043 l
147.191761 128.396659 l
151.700852 128.396659 l
156.209943 128.396659 l
160.719034 128.396659 l
165.228125 128.396659 l
169.737216 128.396659 l
174.246307 128.396659 l
178.755398 128.396659 l
183.264489 127.881058 l
187.77358 119.225082 l
192.28267 119.225082 l
196.791761 117.524983 l
201.300852 117.524983 l
205.809943 117.522471 l
210.319034 117.522471 l
214.828125 117.522471 l
219.337216 117.522471 l
223.846307 108.619379 l
228.355398 108.619379 l
232.864489 108.619379 l
237.37358 105.684956 l
241.88267 105.684956 l
246.391761 103.031438 l
250.900852 103.031438 l
255.409943 103.031438 l
259.919034 102.282977 l
264.428125 102.282977 l
268.937216 102.097391 l
273.446307 102.097391 l
277.955398 102.097391 l
282.464489 101.787952 l
286.97358 100.847568 l
291.48267 100.61758 l
295.991761 99.293938 l
300.500852 99.293938 l
305.009943 87.830508 l
309.519034 87.830508 l
314.028125 87.830508 l
318.537216 87.830508 l
323.046307 86.827907 l
327.555398 86.827907 l
332.064489 86.768667 l
336.57358 86.768667 l
341.08267 86.768667 l
345.591761 86.768667 l
350.100852 86.768667 l
354.609943 86.768667 l
359.119034 86.768667 l
363.628125 86.768667 l
368.137216 86.049772 l
372.646307 86.047373 l
377.155398 86.047373 l
381.664489 86.047373 l
386.17358 86.047373 l
390.68267 86.047373 l
395.191761 86.047373 l
399.700852 85.984412 l
404.209943 85.984412 l
408.719034 85.984412 l
413.228125 85.984412 l
417.737216 85.984412 l
422.246307 85.984412 l
426.755398 85.984412 l
431.264489 85.984412 l
435.77358 85.984412 l
440.28267 85.984412 l
444.791761 85.984412 l
449.300852 85.984412 l
453.809943 85.984412 l
458.319034 85.984412 l
462.828125 85.984412 l
467.337216 85.984412 l
471.846307 85.984412 l
476.355398 85.984412 l
480.864489 85.984412 l
485.37358 85.984412 l
489.88267 85.984412 l
494.391761 85.633443 l
498.900852 85.633443 l
503.409943 85.633443 l
507.919034 85.633443 l
512.428125 84.878143 l
stroke
grestore
1.000 0.000 0.000 setrgbcolor
gsave
446.4 345.6 66.03 39.45 clipbox
66.028125 410.767253 m
70.537216 332.076152 l
75.046307 325.0842 l
79.555398 325.0842 l
84.064489 325.0842 l
88.57358 325.0842 l
93.08267 250.314005 l
97.591761 250.314005 l
102.100852 247.881579 l
106.609943 247.880476 l
111.119034 236.324655 l
115.628125 208.783978 l
120.137216 208.490712 l
124.646307 193.903767 l
129.155398 193.89743 l
133.664489 189.163227 l
138.17358 161.401819 l
142.68267 161.332699 l
147.191761 145.460966 l
151.700852 144.585149 l
156.209943 128.578029 l
160.719034 128.578029 l
165.228125 128.578029 l
169.737216 128.578029 l
174.246307 128.578029 l
178.755398 128.578029 l
183.264489 128.578029 l
187.77358 128.578029 l
192.28267 128.578029 l
196.791761 128.578029 l
201.300852 128.578029 l
205.809943 128.578029 l
210.319034 127.886149 l
214.828125 127.886149 l
219.337216 114.345513 l
223.846307 114.345513 l
228.355398 114.345513 l
232.864489 114.345513 l
237.37358 114.345513 l
241.88267 114.345513 l
246.391761 114.339316 l
250.900852 114.339316 l
255.409943 112.580659 l
259.919034 103.500924 l
264.428125 103.135971 l
268.937216 103.135971 l
273.446307 103.135971 l
277.955398 103.007684 l
282.464489 103.007684 l
286.97358 103.007684 l
291.48267 103.007684 l
295.991761 103.007684 l
300.500852 103.007684 l
305.009943 94.680149 l
309.519034 94.680149 l
314.028125 94.680149 l
318.537216 94.680149 l
323.046307 94.680149 l
327.555398 94.680149 l
332.064489 94.680149 l
336.57358 94.680149 l
341.08267 94.680149 l
345.591761 94.676631 l
350.100852 94.676631 l
354.609943 93.532303 l
359.119034 93.532303 l
363.628125 93.532303 l
368.137216 93.532303 l
372.646307 93.526105 l
377.155398 93.526105 l
381.664489 93.06821 l
386.17358 92.879203 l
390.68267 92.879203 l
395.191761 92.879203 l
399.700852 92.879203 l
404.209943 92.879203 l
408.719034 92.878953 l
413.228125 92.878953 l
417.737216 92.878953 l
422.246307 92.878953 l
426.755398 92.878953 l
431.264489 92.356672 l
435.77358 92.356672 l
440.28267 92.356672 l
444.791761 92.356672 l
449.300852 89.778941 l
453.809943 89.778941 l
458.319034 89.778941 l
462.828125 89.778941 l
467.337216 89.778941 l
471.846307 89.778941 l
476.355398 89.778941 l
480.864489 89.778941 l
485.37358 89.778941 l
489.88267 89.778941 l
494.391761 89.778941 l
498.900852 89.765176 l
503.409943 89.765176 l
507.919034 88.443252 l
512.428125 88.443252 l
stroke
grestore
0 setlinecap
[6 6] 0 setdash
gsave
446.4 345.6 66.03 39.45 clipbox
66.028125 78.135119 m
512.428125 78.135119 l
stroke
grestore
0 setlinejoin
2 setlinecap
[] 0 setdash
0.000 setgray
gsave
66.028125 385.05 m
512.428125 385.05 l
stroke
grestore
gsave
512.428125 39.45 m
512.428125 385.05 l
stroke
grestore
gsave
66.028125 39.45 m
512.428125 39.45 l
stroke
grestore
gsave
66.028125 39.45 m
66.028125 385.05 l
stroke
grestore
0.500 setlinewidth
1 setlinejoin
0 setlinecap
gsave
/o {
gsave
newpath
translate
0.5 setlinewidth
1 setlinejoin
0 setlinecap
0 0 m
0 4 l

gsave
0.000 setgray
fill
grestore
stroke
grestore
} bind def
66.0281 39.45 o
grestore
gsave
/o {
gsave
newpath
translate
0.5 setlinewidth
1 setlinejoin
0 setlinecap
0 0 m
0 -4 l

gsave
0.000 setgray
fill
grestore
stroke
grestore
} bind def
66.0281 385.05 o
grestore
/BitstreamVeraSans-Roman findfont
12.000 scalefont
setfont
gsave
62.207813 26.325000 translate
0.000000 rotate
0.000000 0.000000 m /zero glyphshow
grestore
gsave
/o {
gsave
newpath
translate
0.5 setlinewidth
1 setlinejoin
0 setlinecap
0 0 m
0 4 l

gsave
0.000 setgray
fill
grestore
stroke
grestore
} bind def
156.21 39.45 o
grestore
gsave
/o {
gsave
newpath
translate
0.5 setlinewidth
1 setlinejoin
0 setlinecap
0 0 m
0 -4 l

gsave
0.000 setgray
fill
grestore
stroke
grestore
} bind def
156.21 385.05 o
grestore
gsave
148.569318 26.325000 translate
0.000000 rotate
0.000000 0.000000 m /two glyphshow
7.634766 0.000000 m /zero glyphshow
grestore
gsave
/o {
gsave
newpath
translate
0.5 setlinewidth
1 setlinejoin
0 setlinecap
0 0 m
0 4 l

gsave
0.000 setgray
fill
grestore
stroke
grestore
} bind def
246.392 39.45 o
grestore
gsave
/o {
gsave
newpath
translate
0.5 setlinewidth
1 setlinejoin
0 setlinecap
0 0 m
0 -4 l

gsave
0.000 setgray
fill
grestore
stroke
grestore
} bind def
246.392 385.05 o
grestore
gsave
238.751136 26.325000 translate
0.000000 rotate
0.000000 0.000000 m /four glyphshow
7.634766 0.000000 m /zero glyphshow
grestore
gsave
/o {
gsave
newpath
translate
0.5 setlinewidth
1 setlinejoin
0 setlinecap
0 0 m
0 4 l

gsave
0.000 setgray
fill
grestore
stroke
grestore
} bind def
336.574 39.45 o
grestore
gsave
/o {
gsave
newpath
translate
0.5 setlinewidth
1 setlinejoin
0 setlinecap
0 0 m
0 -4 l

gsave
0.000 setgray
fill
grestore
stroke
grestore
} bind def
336.574 385.05 o
grestore
gsave
328.932955 26.325000 translate
0.000000 rotate
0.000000 0.000000 m /six glyphshow
7.634766 0.000000 m /zero glyphshow
grestore
gsave
/o {
gsave
newpath
translate
0.5 setlinewidth
1 setlinejoin
0 setlinecap
0 0 m
0 4 l

gsave
0.000 setgray
fill
grestore
stroke
grestore
} bind def
426.755 39.45 o
grestore
gsave
/o {
gsave
newpath
translate
0.5 setlinewidth
1 setlinejoin
0 setlinecap
0 0 m
0 -4 l

gsave
0.000 setgray
fill
grestore
stroke
grestore
} bind def
426.755 385.05 o
grestore
gsave
419.114773 26.325000 translate
0.000000 rotate
0.000000 0.000000 m /eight glyphshow
7.634766 0.000000 m /zero glyphshow
grestore
gsave
263.767188 9.700000 translate
0.000000 rotate
0.000000 0.000000 m /I glyphshow
3.539062 0.000000 m /t glyphshow
8.244141 0.000000 m /e glyphshow
15.626953 0.000000 m /r glyphshow
20.560547 0.000000 m /a glyphshow
27.914062 0.000000 m /t glyphshow
32.619141 0.000000 m /i glyphshow
35.953125 0.000000 m /o glyphshow
43.294922 0.000000 m /n glyphshow
grestore
gsave
/o {
gsave
newpath
translate
0.5 setlinewidth
1 setlinejoin
0 setlinecap
0 0 m
4 0 l

gsave
0.000 setgray
fill
grestore
stroke
grestore
} bind def
66.0281 102.928 o
grestore
gsave
/o {
gsave
newpath
translate
0.5 setlinewidth
1 setlinejoin
0 setlinecap
0 0 m
-4 0 l

gsave
0.000 setgray
fill
grestore
stroke
grestore
} bind def
512.428 102.928 o
grestore
gsave
23.825000 99.615051 translate
0.000000 rotate
0.000000 0.000000 m /one glyphshow
7.634766 0.000000 m /zero glyphshow
15.269531 0.000000 m /zero glyphshow
22.904297 0.000000 m /zero glyphshow
30.539062 0.000000 m /zero glyphshow
grestore
gsave
/o {
gsave
newpath
translate
0.5 setlinewidth
1 setlinejoin
0 setlinecap
0 0 m
4 0 l

gsave
0.000 setgray
fill
grestore
stroke
grestore
} bind def
66.0281 173.458 o
grestore
gsave
/o {
gsave
newpath
translate
0.5 setlinewidth
1 setlinejoin
0 setlinecap
0 0 m
-4 0 l

gsave
0.000 setgray
fill
grestore
stroke
grestore
} bind def
512.428 173.458 o
grestore
gsave
23.825000 170.145663 translate
0.000000 rotate
0.000000 0.000000 m /two glyphshow
7.634766 0.000000 m /zero glyphshow
15.269531 0.000000 m /zero glyphshow
22.904297 0.000000 m /zero glyphshow
30.539062 0.000000 m /zero glyphshow
grestore
gsave
/o {
gsave
newpath
translate
0.5 setlinewidth
1 setlinejoin
0 setlinecap
0 0 m
4 0 l

gsave
0.000 setgray
fill
grestore
stroke
grestore
} bind def
66.0281 243.989 o
grestore
gsave
/o {
gsave
newpath
translate
0.5 setlinewidth
1 setlinejoin
0 setlinecap
0 0 m
-4 0 l

gsave
0.000 setgray
fill
grestore
stroke
grestore
} bind def
512.428 243.989 o
grestore
gsave
23.825000 240.676276 translate
0.000000 rotate
0.000000 0.000000 m /three glyphshow
7.634766 0.000000 m /zero glyphshow
15.269531 0.000000 m /zero glyphshow
22.904297 0.000000 m /zero glyphshow
30.539062 0.000000 m /zero glyphshow
grestore
gsave
/o {
gsave
newpath
translate
0.5 setlinewidth
1 setlinejoin
0 setlinecap
0 0 m
4 0 l

gsave
0.000 setgray
fill
grestore
stroke
grestore
} bind def
66.0281 314.519 o
grestore
gsave
/o {
gsave
newpath
translate
0.5 setlinewidth
1 setlinejoin
0 setlinecap
0 0 m
-4 0 l

gsave
0.000 setgray
fill
grestore
stroke
grestore
} bind def
512.428 314.519 o
grestore
gsave
23.825000 311.206888 translate
0.000000 rotate
0.000000 0.000000 m /four glyphshow
7.634766 0.000000 m /zero glyphshow
15.269531 0.000000 m /zero glyphshow
22.904297 0.000000 m /zero glyphshow
30.539062 0.000000 m /zero glyphshow
grestore
gsave
/o {
gsave
newpath
translate
0.5 setlinewidth
1 setlinejoin
0 setlinecap
0 0 m
4 0 l

gsave
0.000 setgray
fill
grestore
stroke
grestore
} bind def
66.0281 385.05 o
grestore
gsave
/o {
gsave
newpath
translate
0.5 setlinewidth
1 setlinejoin
0 setlinecap
0 0 m
-4 0 l

gsave
0.000 setgray
fill
grestore
stroke
grestore
} bind def
512.428 385.05 o
grestore
gsave
23.825000 381.737500 translate
0.000000 rotate
0.000000 0.000000 m /five glyphshow
7.634766 0.000000 m /zero glyphshow
15.269531 0.000000 m /zero glyphshow
22.904297 0.000000 m /zero glyphshow
30.539062 0.000000 m /zero glyphshow
grestore
gsave
16.325000 191.031250 translate
90.000000 rotate
0.000000 0.000000 m /F glyphshow
6.902344 0.000000 m /i glyphshow
10.236328 0.000000 m /t glyphshow
14.941406 0.000000 m /n glyphshow
22.546875 0.000000 m /e glyphshow
29.929688 0.000000 m /s glyphshow
36.181641 0.000000 m /s glyphshow
grestore
gsave
70.537216 78.099853 translate
0.000000 rotate
0.000000 0.000000 m /six glyphshow
7.634766 0.000000 m /four glyphshow
15.269531 0.000000 m /eight glyphshow
22.904297 0.000000 m /four glyphshow
30.539062 0.000000 m /period glyphshow
34.353516 0.000000 m /eight glyphshow
41.988281 0.000000 m /seven glyphshow
grestore
/BitstreamVeraSans-Roman findfont
14.400 scalefont
setfont
gsave
117.009375 407.330000 translate
0.000000 rotate
0.000000 0.000000 m /C glyphshow
10.037231 0.000000 m /o glyphshow
18.832092 0.000000 m /n glyphshow
27.942810 0.000000 m /v glyphshow
36.449890 0.000000 m /e glyphshow
45.293884 0.000000 m /r glyphshow
51.203918 0.000000 m /g glyphshow
60.328674 0.000000 m /e glyphshow
69.172668 0.000000 m /n glyphshow
78.283386 0.000000 m /c glyphshow
86.186829 0.000000 m /e glyphshow
95.030823 0.000000 m /space glyphshow
99.600220 0.000000 m /f glyphshow
104.660950 0.000000 m /o glyphshow
113.455811 0.000000 m /r glyphshow
119.365845 0.000000 m /space glyphshow
123.935242 0.000000 m /B glyphshow
133.796997 0.000000 m /E glyphshow
142.879639 0.000000 m /E glyphshow
151.962280 0.000000 m /comma glyphshow
156.531677 0.000000 m /space glyphshow
161.101074 0.000000 m /t glyphshow
166.737366 0.000000 m /e glyphshow
175.581360 0.000000 m /r glyphshow
181.491394 0.000000 m /r glyphshow
187.401428 0.000000 m /a glyphshow
196.210327 0.000000 m /i glyphshow
200.204163 0.000000 m /n glyphshow
209.314880 0.000000 m /comma glyphshow
213.884277 0.000000 m /space glyphshow
218.453674 0.000000 m /w glyphshow
230.210571 0.000000 m /o glyphshow
239.005432 0.000000 m /r glyphshow
244.915466 0.000000 m /k glyphshow
253.240051 0.000000 m /comma glyphshow
257.809448 0.000000 m /space glyphshow
262.378845 0.000000 m /a glyphshow
271.187744 0.000000 m /n glyphshow
280.298462 0.000000 m /d glyphshow
289.423218 0.000000 m /space glyphshow
293.992615 0.000000 m /r glyphshow
299.902649 0.000000 m /e glyphshow
308.746643 0.000000 m /w glyphshow
320.503540 0.000000 m /a glyphshow
329.312439 0.000000 m /r glyphshow
335.222473 0.000000 m /d glyphshow
grestore

end
showpage
