%!PS-Adobe-3.0 EPSF-3.0
%%Title: conv_GA_a.eps
%%Creator: matplotlib version 1.5.1, http://matplotlib.org/
%%CreationDate: Sun Nov 11 19:45:53 2018
%%Orientation: portrait
%%BoundingBox: 46 183 565 608
%%EndComments
%%BeginProlog
/mpldict 8 dict def
mpldict begin
/m { moveto } bind def
/l { lineto } bind def
/r { rlineto } bind def
/c { curveto } bind def
/cl { closepath } bind def
/box {
m
1 index 0 r
0 exch r
neg 0 r
cl
} bind def
/clipbox {
box
clip
newpath
} bind def
%!PS-Adobe-3.0 Resource-Font
%%Title: Bitstream Vera Sans
%%Copyright: Copyright (c) 2003 by Bitstream, Inc. All Rights Reserved.
%%Creator: Converted from TrueType to type 3 by PPR
25 dict begin
/_d{bind def}bind def
/_m{moveto}_d
/_l{lineto}_d
/_cl{closepath eofill}_d
/_c{curveto}_d
/_sc{7 -1 roll{setcachedevice}{pop pop pop pop pop pop}ifelse}_d
/_e{exec}_d
/FontName /BitstreamVeraSans-Roman def
/PaintType 0 def
/FontMatrix[.001 0 0 .001 0 0]def
/FontBBox[-183 -236 1287 928]def
/FontType 3 def
/Encoding [ /space /comma /period /zero /one /two /four /five /six /seven /eight /A /C /F /G /I /a /c /e /f /g /i /l /n /o /r /s /t /v /y ] def
/FontInfo 10 dict dup begin
/FamilyName (Bitstream Vera Sans) def
/FullName (Bitstream Vera Sans) def
/Notice (Copyright (c) 2003 by Bitstream, Inc. All Rights Reserved. Bitstream Vera is a trademark of Bitstream, Inc.) def
/Weight (Roman) def
/Version (Release 1.10) def
/ItalicAngle 0.0 def
/isFixedPitch false def
/UnderlinePosition -213 def
/UnderlineThickness 143 def
end readonly def
/CharStrings 30 dict dup begin
/space{318 0 0 0 0 0 _sc
}_d
/comma{318 0 77 -115 220 124 _sc
117 124 _m
220 124 _l
220 40 _l
140 -115 _l
77 -115 _l
117 40 _l
117 124 _l
_cl}_d
/period{318 0 107 0 210 124 _sc
107 124 _m
210 124 _l
210 0 _l
107 0 _l
107 124 _l
_cl}_d
/zero{636 0 66 -13 570 742 _sc
318 664 _m
267 664 229 639 203 589 _c
177 539 165 464 165 364 _c
165 264 177 189 203 139 _c
229 89 267 64 318 64 _c
369 64 407 89 433 139 _c
458 189 471 264 471 364 _c
471 464 458 539 433 589 _c
407 639 369 664 318 664 _c
318 742 _m
399 742 461 709 505 645 _c
548 580 570 486 570 364 _c
570 241 548 147 505 83 _c
461 19 399 -13 318 -13 _c
236 -13 173 19 130 83 _c
87 147 66 241 66 364 _c
66 486 87 580 130 645 _c
173 709 236 742 318 742 _c
_cl}_d
/one{636 0 110 0 544 729 _sc
124 83 _m
285 83 _l
285 639 _l
110 604 _l
110 694 _l
284 729 _l
383 729 _l
383 83 _l
544 83 _l
544 0 _l
124 0 _l
124 83 _l
_cl}_d
/two{{636 0 73 0 536 742 _sc
192 83 _m
536 83 _l
536 0 _l
73 0 _l
73 83 _l
110 121 161 173 226 239 _c
290 304 331 346 348 365 _c
380 400 402 430 414 455 _c
426 479 433 504 433 528 _c
433 566 419 598 392 622 _c
365 646 330 659 286 659 _c
255 659 222 653 188 643 _c
154 632 117 616 78 594 _c
78 694 _l
118 710 155 722 189 730 _c
223 738 255 742 284 742 _c
}_e{359 742 419 723 464 685 _c
509 647 532 597 532 534 _c
532 504 526 475 515 449 _c
504 422 484 390 454 354 _c
446 344 420 317 376 272 _c
332 227 271 164 192 83 _c
_cl}_e}_d
/four{636 0 49 0 580 729 _sc
378 643 _m
129 254 _l
378 254 _l
378 643 _l
352 729 _m
476 729 _l
476 254 _l
580 254 _l
580 172 _l
476 172 _l
476 0 _l
378 0 _l
378 172 _l
49 172 _l
49 267 _l
352 729 _l
_cl}_d
/five{{636 0 77 -13 549 729 _sc
108 729 _m
495 729 _l
495 646 _l
198 646 _l
198 467 _l
212 472 227 476 241 478 _c
255 480 270 482 284 482 _c
365 482 429 459 477 415 _c
525 370 549 310 549 234 _c
549 155 524 94 475 51 _c
426 8 357 -13 269 -13 _c
238 -13 207 -10 175 -6 _c
143 -1 111 6 77 17 _c
77 116 _l
106 100 136 88 168 80 _c
199 72 232 69 267 69 _c
}_e{323 69 368 83 401 113 _c
433 143 450 183 450 234 _c
450 284 433 324 401 354 _c
368 384 323 399 267 399 _c
241 399 214 396 188 390 _c
162 384 135 375 108 363 _c
108 729 _l
_cl}_e}_d
/six{{636 0 70 -13 573 742 _sc
330 404 _m
286 404 251 388 225 358 _c
199 328 186 286 186 234 _c
186 181 199 139 225 109 _c
251 79 286 64 330 64 _c
374 64 409 79 435 109 _c
461 139 474 181 474 234 _c
474 286 461 328 435 358 _c
409 388 374 404 330 404 _c
526 713 _m
526 623 _l
501 635 476 644 451 650 _c
425 656 400 659 376 659 _c
310 659 260 637 226 593 _c
}_e{192 549 172 482 168 394 _c
187 422 211 444 240 459 _c
269 474 301 482 336 482 _c
409 482 467 459 509 415 _c
551 371 573 310 573 234 _c
573 159 550 99 506 54 _c
462 9 403 -13 330 -13 _c
246 -13 181 19 137 83 _c
92 147 70 241 70 364 _c
70 479 97 571 152 639 _c
206 707 280 742 372 742 _c
396 742 421 739 447 735 _c
472 730 498 723 526 713 _c
_cl}_e}_d
/seven{636 0 82 0 551 729 _sc
82 729 _m
551 729 _l
551 687 _l
286 0 _l
183 0 _l
432 646 _l
82 646 _l
82 729 _l
_cl}_d
/eight{{636 0 68 -13 568 742 _sc
318 346 _m
271 346 234 333 207 308 _c
180 283 167 249 167 205 _c
167 161 180 126 207 101 _c
234 76 271 64 318 64 _c
364 64 401 76 428 102 _c
455 127 469 161 469 205 _c
469 249 455 283 429 308 _c
402 333 365 346 318 346 _c
219 388 _m
177 398 144 418 120 447 _c
96 476 85 511 85 553 _c
85 611 105 657 147 691 _c
188 725 245 742 318 742 _c
}_e{390 742 447 725 489 691 _c
530 657 551 611 551 553 _c
551 511 539 476 515 447 _c
491 418 459 398 417 388 _c
464 377 501 355 528 323 _c
554 291 568 251 568 205 _c
568 134 546 80 503 43 _c
459 5 398 -13 318 -13 _c
237 -13 175 5 132 43 _c
89 80 68 134 68 205 _c
68 251 81 291 108 323 _c
134 355 171 377 219 388 _c
183 544 _m
183 506 194 476 218 455 _c
}_e{242 434 275 424 318 424 _c
360 424 393 434 417 455 _c
441 476 453 506 453 544 _c
453 582 441 611 417 632 _c
393 653 360 664 318 664 _c
275 664 242 653 218 632 _c
194 611 183 582 183 544 _c
_cl}_e}_d
/A{684 0 8 0 676 729 _sc
342 632 _m
208 269 _l
476 269 _l
342 632 _l
286 729 _m
398 729 _l
676 0 _l
573 0 _l
507 187 _l
178 187 _l
112 0 _l
8 0 _l
286 729 _l
_cl}_d
/C{{698 0 56 -13 644 742 _sc
644 673 _m
644 569 _l
610 599 575 622 537 638 _c
499 653 460 661 418 661 _c
334 661 270 635 226 584 _c
182 533 160 460 160 364 _c
160 268 182 194 226 143 _c
270 92 334 67 418 67 _c
460 67 499 74 537 90 _c
575 105 610 128 644 159 _c
644 56 _l
609 32 572 15 534 4 _c
496 -7 455 -13 412 -13 _c
302 -13 215 20 151 87 _c
}_e{87 154 56 246 56 364 _c
56 481 87 573 151 641 _c
215 708 302 742 412 742 _c
456 742 497 736 535 725 _c
573 713 610 696 644 673 _c
_cl}_e}_d
/F{575 0 98 0 517 729 _sc
98 729 _m
517 729 _l
517 646 _l
197 646 _l
197 431 _l
486 431 _l
486 348 _l
197 348 _l
197 0 _l
98 0 _l
98 729 _l
_cl}_d
/G{{775 0 56 -13 693 742 _sc
595 104 _m
595 300 _l
434 300 _l
434 381 _l
693 381 _l
693 68 _l
655 40 613 20 567 7 _c
521 -6 472 -13 420 -13 _c
306 -13 216 20 152 86 _c
88 152 56 245 56 364 _c
56 482 88 575 152 642 _c
216 708 306 742 420 742 _c
467 742 512 736 555 724 _c
598 712 638 695 674 673 _c
674 568 _l
637 598 598 621 557 637 _c
516 653 473 661 428 661 _c
}_e{338 661 271 636 227 586 _c
182 536 160 462 160 364 _c
160 265 182 191 227 141 _c
271 91 338 67 428 67 _c
462 67 493 70 521 76 _c
549 82 573 91 595 104 _c
_cl}_e}_d
/I{295 0 98 0 197 729 _sc
98 729 _m
197 729 _l
197 0 _l
98 0 _l
98 729 _l
_cl}_d
/a{{613 0 60 -13 522 560 _sc
343 275 _m
270 275 220 266 192 250 _c
164 233 150 205 150 165 _c
150 133 160 107 181 89 _c
202 70 231 61 267 61 _c
317 61 357 78 387 114 _c
417 149 432 196 432 255 _c
432 275 _l
343 275 _l
522 312 _m
522 0 _l
432 0 _l
432 83 _l
411 49 385 25 355 10 _c
325 -5 287 -13 243 -13 _c
187 -13 142 2 109 33 _c
76 64 60 106 60 159 _c
}_e{60 220 80 266 122 298 _c
163 329 224 345 306 345 _c
432 345 _l
432 354 _l
432 395 418 427 391 450 _c
364 472 326 484 277 484 _c
245 484 215 480 185 472 _c
155 464 127 453 100 439 _c
100 522 _l
132 534 164 544 195 550 _c
226 556 256 560 286 560 _c
365 560 424 539 463 498 _c
502 457 522 395 522 312 _c
_cl}_e}_d
/c{{550 0 55 -13 488 560 _sc
488 526 _m
488 442 _l
462 456 437 466 411 473 _c
385 480 360 484 334 484 _c
276 484 230 465 198 428 _c
166 391 150 339 150 273 _c
150 206 166 154 198 117 _c
230 80 276 62 334 62 _c
360 62 385 65 411 72 _c
437 79 462 90 488 104 _c
488 21 _l
462 9 436 0 410 -5 _c
383 -10 354 -13 324 -13 _c
242 -13 176 12 128 64 _c
}_e{79 115 55 185 55 273 _c
55 362 79 432 128 483 _c
177 534 244 560 330 560 _c
358 560 385 557 411 551 _c
437 545 463 537 488 526 _c
_cl}_e}_d
/e{{615 0 55 -13 562 560 _sc
562 296 _m
562 252 _l
149 252 _l
153 190 171 142 205 110 _c
238 78 284 62 344 62 _c
378 62 412 66 444 74 _c
476 82 509 95 541 113 _c
541 28 _l
509 14 476 3 442 -3 _c
408 -9 373 -13 339 -13 _c
251 -13 182 12 131 62 _c
80 112 55 181 55 268 _c
55 357 79 428 127 481 _c
175 533 241 560 323 560 _c
397 560 455 536 498 489 _c
}_e{540 441 562 377 562 296 _c
472 322 _m
471 371 457 410 431 440 _c
404 469 368 484 324 484 _c
274 484 234 469 204 441 _c
174 413 156 373 152 322 _c
472 322 _l
_cl}_e}_d
/f{352 0 23 0 371 760 _sc
371 760 _m
371 685 _l
285 685 _l
253 685 230 678 218 665 _c
205 652 199 629 199 595 _c
199 547 _l
347 547 _l
347 477 _l
199 477 _l
199 0 _l
109 0 _l
109 477 _l
23 477 _l
23 547 _l
109 547 _l
109 585 _l
109 645 123 690 151 718 _c
179 746 224 760 286 760 _c
371 760 _l
_cl}_d
/g{{635 0 55 -207 544 560 _sc
454 280 _m
454 344 440 395 414 431 _c
387 467 349 485 301 485 _c
253 485 215 467 188 431 _c
161 395 148 344 148 280 _c
148 215 161 165 188 129 _c
215 93 253 75 301 75 _c
349 75 387 93 414 129 _c
440 165 454 215 454 280 _c
544 68 _m
544 -24 523 -93 482 -139 _c
440 -184 377 -207 292 -207 _c
260 -207 231 -204 203 -200 _c
175 -195 147 -188 121 -178 _c
}_e{121 -91 _l
147 -105 173 -115 199 -122 _c
225 -129 251 -133 278 -133 _c
336 -133 380 -117 410 -87 _c
439 -56 454 -10 454 52 _c
454 96 _l
435 64 411 40 382 24 _c
353 8 319 0 279 0 _c
211 0 157 25 116 76 _c
75 127 55 195 55 280 _c
55 364 75 432 116 483 _c
157 534 211 560 279 560 _c
319 560 353 552 382 536 _c
411 520 435 496 454 464 _c
454 547 _l
544 547 _l
}_e{544 68 _l
_cl}_e}_d
/i{278 0 94 0 184 760 _sc
94 547 _m
184 547 _l
184 0 _l
94 0 _l
94 547 _l
94 760 _m
184 760 _l
184 646 _l
94 646 _l
94 760 _l
_cl}_d
/l{278 0 94 0 184 760 _sc
94 760 _m
184 760 _l
184 0 _l
94 0 _l
94 760 _l
_cl}_d
/n{634 0 91 0 549 560 _sc
549 330 _m
549 0 _l
459 0 _l
459 327 _l
459 379 448 417 428 443 _c
408 469 378 482 338 482 _c
289 482 251 466 223 435 _c
195 404 181 362 181 309 _c
181 0 _l
91 0 _l
91 547 _l
181 547 _l
181 462 _l
202 494 227 519 257 535 _c
286 551 320 560 358 560 _c
420 560 468 540 500 501 _c
532 462 549 405 549 330 _c
_cl}_d
/o{612 0 55 -13 557 560 _sc
306 484 _m
258 484 220 465 192 427 _c
164 389 150 338 150 273 _c
150 207 163 156 191 118 _c
219 80 257 62 306 62 _c
354 62 392 80 420 118 _c
448 156 462 207 462 273 _c
462 337 448 389 420 427 _c
392 465 354 484 306 484 _c
306 560 _m
384 560 445 534 490 484 _c
534 433 557 363 557 273 _c
557 183 534 113 490 63 _c
445 12 384 -13 306 -13 _c
227 -13 165 12 121 63 _c
77 113 55 183 55 273 _c
55 363 77 433 121 484 _c
165 534 227 560 306 560 _c
_cl}_d
/r{411 0 91 0 411 560 _sc
411 463 _m
401 469 390 473 378 476 _c
366 478 353 480 339 480 _c
288 480 249 463 222 430 _c
194 397 181 350 181 288 _c
181 0 _l
91 0 _l
91 547 _l
181 547 _l
181 462 _l
199 495 224 520 254 536 _c
284 552 321 560 365 560 _c
371 560 378 559 386 559 _c
393 558 401 557 411 555 _c
411 463 _l
_cl}_d
/s{{521 0 54 -13 472 560 _sc
443 531 _m
443 446 _l
417 458 391 468 364 475 _c
336 481 308 485 279 485 _c
234 485 200 478 178 464 _c
156 450 145 430 145 403 _c
145 382 153 366 169 354 _c
185 342 217 330 265 320 _c
296 313 _l
360 299 405 279 432 255 _c
458 230 472 195 472 151 _c
472 100 452 60 412 31 _c
372 1 316 -13 246 -13 _c
216 -13 186 -10 154 -5 _c
}_e{122 0 89 8 54 20 _c
54 113 _l
87 95 120 82 152 74 _c
184 65 216 61 248 61 _c
290 61 323 68 346 82 _c
368 96 380 117 380 144 _c
380 168 371 187 355 200 _c
339 213 303 226 247 238 _c
216 245 _l
160 257 119 275 95 299 _c
70 323 58 356 58 399 _c
58 450 76 490 112 518 _c
148 546 200 560 268 560 _c
301 560 332 557 362 552 _c
391 547 418 540 443 531 _c
}_e{_cl}_e}_d
/t{392 0 27 0 368 702 _sc
183 702 _m
183 547 _l
368 547 _l
368 477 _l
183 477 _l
183 180 _l
183 135 189 106 201 94 _c
213 81 238 75 276 75 _c
368 75 _l
368 0 _l
276 0 _l
206 0 158 13 132 39 _c
106 65 93 112 93 180 _c
93 477 _l
27 477 _l
27 547 _l
93 547 _l
93 702 _l
183 702 _l
_cl}_d
/v{592 0 30 0 562 547 _sc
30 547 _m
125 547 _l
296 88 _l
467 547 _l
562 547 _l
357 0 _l
235 0 _l
30 547 _l
_cl}_d
/y{592 0 30 -207 562 547 _sc
322 -50 _m
296 -114 271 -157 247 -177 _c
223 -197 191 -207 151 -207 _c
79 -207 _l
79 -132 _l
132 -132 _l
156 -132 175 -126 189 -114 _c
203 -102 218 -75 235 -31 _c
251 9 _l
30 547 _l
125 547 _l
296 119 _l
467 547 _l
562 547 _l
322 -50 _l
_cl}_d
end readonly def

/BuildGlyph
 {exch begin
 CharStrings exch
 2 copy known not{pop /.notdef}if
 true 3 1 roll get exec
 end}_d

/BuildChar {
 1 index /Encoding get exch get
 1 index /BuildGlyph get exec
}_d

FontName currentdict end definefont pop
end
%%EndProlog
mpldict begin
46.186 183.415 translate
519.628 425.171 0 0 clipbox
100000 setmiterlimit
gsave
0 0 m
519.628125 0 l
519.628125 425.170625 l
0 425.170625 l
cl
1.000 setgray
fill
grestore
gsave
66.028125 39.45 m
512.428125 39.45 l
512.428125 385.05 l
66.028125 385.05 l
cl
1.000 setgray
fill
grestore
1.000 setlinewidth
1 setlinejoin
2 setlinecap
[] 0 setdash
0.000 0.000 1.000 setrgbcolor
gsave
446.4 345.6 66.03 39.45 clipbox
66.028125 1668.366146 m
82.360485 426.170625 m
84.064489 129.999055 l
88.57358 129.999055 l
93.08267 129.999055 l
97.591761 91.177414 l
102.100852 91.100239 l
106.609943 90.456415 l
111.119034 90.456415 l
115.628125 90.456415 l
120.137216 90.456415 l
124.646307 90.456415 l
129.155398 88.257402 l
133.664489 88.257402 l
138.17358 85.994328 l
142.68267 83.328647 l
147.191761 78.980737 l
151.700852 78.980737 l
156.209943 78.980737 l
160.719034 78.980737 l
165.228125 78.980737 l
169.737216 78.5499 l
174.246307 78.5499 l
178.755398 78.5499 l
183.264489 78.5499 l
187.77358 78.5499 l
192.28267 78.5499 l
196.791761 78.5499 l
201.300852 78.5499 l
205.809943 74.245802 l
210.319034 74.245802 l
214.828125 74.245802 l
219.337216 74.245802 l
223.846307 74.245802 l
228.355398 74.245802 l
232.864489 74.245802 l
237.37358 74.245802 l
241.88267 74.245802 l
246.391761 74.245802 l
250.900852 74.245802 l
255.409943 74.245802 l
259.919034 74.245802 l
264.428125 74.245802 l
268.937216 73.437884 l
273.446307 73.437884 l
277.955398 71.559463 l
282.464489 71.559463 l
286.97358 71.559463 l
291.48267 71.559463 l
295.991761 71.559463 l
300.500852 71.559463 l
305.009943 71.559463 l
309.519034 71.559463 l
314.028125 71.559463 l
318.537216 68.616007 l
323.046307 68.616007 l
327.555398 68.616007 l
332.064489 68.616007 l
336.57358 68.616007 l
341.08267 68.616007 l
345.591761 68.616007 l
350.100852 68.616007 l
354.609943 68.616007 l
359.119034 68.616007 l
363.628125 68.616007 l
368.137216 68.616007 l
372.646307 68.616007 l
377.155398 68.616007 l
381.664489 68.616007 l
386.17358 68.616007 l
390.68267 68.616007 l
395.191761 68.616007 l
399.700852 68.073831 l
404.209943 68.073831 l
408.719034 68.073831 l
413.228125 68.073831 l
417.737216 68.073831 l
422.246307 68.073831 l
426.755398 68.073831 l
431.264489 68.073831 l
435.77358 68.073831 l
440.28267 68.073831 l
444.791761 67.109562 l
449.300852 67.109562 l
453.809943 67.059435 l
458.319034 67.059435 l
462.828125 66.519718 l
467.337216 66.519718 l
471.846307 61.78986 l
476.355398 61.78986 l
480.864489 61.78986 l
485.37358 61.78986 l
489.88267 61.78986 l
494.391761 61.78986 l
498.900852 61.78986 l
503.409943 61.78986 l
507.919034 60.965154 l
512.428125 60.965154 l
stroke
grestore
0.000 0.500 0.000 setrgbcolor
gsave
446.4 345.6 66.03 39.45 clipbox
66.028125 109.068426 m
70.537216 109.068426 l
75.046307 109.068426 l
79.555398 109.068426 l
84.064489 109.068426 l
88.57358 107.493719 l
93.08267 84.694672 l
97.591761 84.694672 l
102.100852 84.615519 l
106.609943 84.615519 l
111.119034 83.566046 l
115.628125 83.566046 l
120.137216 78.712905 l
124.646307 78.712905 l
129.155398 78.712905 l
133.664489 78.712905 l
138.17358 78.712905 l
142.68267 78.712905 l
147.191761 78.712905 l
151.700852 78.712905 l
156.209943 73.472499 l
160.719034 73.472499 l
165.228125 73.472499 l
169.737216 73.472499 l
174.246307 72.729074 l
178.755398 72.729074 l
183.264489 72.729074 l
187.77358 72.729074 l
192.28267 71.930722 l
196.791761 71.930722 l
201.300852 71.930722 l
205.809943 71.930722 l
210.319034 69.459384 l
214.828125 69.459384 l
219.337216 68.950728 l
223.846307 68.383138 l
228.355398 68.173481 l
232.864489 68.173481 l
237.37358 68.173481 l
241.88267 67.244882 l
246.391761 64.546707 l
250.900852 64.546707 l
255.409943 64.546707 l
259.919034 64.546707 l
264.428125 63.267795 l
268.937216 61.786056 l
273.446307 61.786056 l
277.955398 61.786056 l
282.464489 61.786056 l
286.97358 61.786056 l
291.48267 61.786056 l
295.991761 61.786056 l
300.500852 61.786056 l
305.009943 61.786056 l
309.519034 61.786056 l
314.028125 61.786056 l
318.537216 61.786056 l
323.046307 61.786056 l
327.555398 61.786056 l
332.064489 61.786056 l
336.57358 61.370538 l
341.08267 61.370538 l
345.591761 61.370538 l
350.100852 61.370538 l
354.609943 61.370538 l
359.119034 61.370538 l
363.628125 61.370538 l
368.137216 61.370538 l
372.646307 61.370538 l
377.155398 61.370538 l
381.664489 61.370538 l
386.17358 61.370538 l
390.68267 61.370538 l
395.191761 61.370538 l
399.700852 61.370538 l
404.209943 61.370538 l
408.719034 61.370538 l
413.228125 61.370538 l
417.737216 61.370538 l
422.246307 61.370538 l
426.755398 61.370538 l
431.264489 61.370538 l
435.77358 61.370538 l
440.28267 61.370538 l
444.791761 61.370538 l
449.300852 61.370538 l
453.809943 61.370538 l
458.319034 61.370538 l
462.828125 61.370538 l
467.337216 61.370538 l
471.846307 61.370538 l
476.355398 61.370538 l
480.864489 61.370538 l
485.37358 61.370538 l
489.88267 61.370538 l
494.391761 61.275509 l
498.900852 61.275509 l
503.409943 61.275509 l
507.919034 61.275509 l
512.428125 61.275509 l
stroke
grestore
1.000 0.000 0.000 setrgbcolor
gsave
446.4 345.6 66.03 39.45 clipbox
66.028125 125.089712 m
70.537216 125.089712 l
75.046307 125.089712 l
79.555398 125.089712 l
84.064489 125.089712 l
88.57358 125.089712 l
93.08267 125.089712 l
97.591761 100.515778 l
102.100852 100.515778 l
106.609943 100.515778 l
111.119034 100.264191 l
115.628125 99.381391 l
120.137216 90.268321 l
124.646307 90.268321 l
129.155398 88.195288 l
133.664489 88.195288 l
138.17358 88.195288 l
142.68267 88.195288 l
147.191761 88.195288 l
151.700852 88.195288 l
156.209943 88.195288 l
160.719034 86.488129 l
165.228125 82.401624 l
169.737216 82.401624 l
174.246307 82.401624 l
178.755398 82.401624 l
183.264489 82.401624 l
187.77358 82.401624 l
192.28267 82.401624 l
196.791761 82.401624 l
201.300852 75.314355 l
205.809943 75.314355 l
210.319034 75.314355 l
214.828125 75.314355 l
219.337216 75.314355 l
223.846307 75.314355 l
228.355398 75.314355 l
232.864489 75.314355 l
237.37358 75.314355 l
241.88267 75.314355 l
246.391761 75.314355 l
250.900852 75.314355 l
255.409943 75.314355 l
259.919034 75.314355 l
264.428125 75.314355 l
268.937216 75.314355 l
273.446307 75.314355 l
277.955398 75.314355 l
282.464489 75.314355 l
286.97358 75.314355 l
291.48267 75.314355 l
295.991761 75.308775 l
300.500852 73.41238 l
305.009943 73.41238 l
309.519034 73.41238 l
314.028125 73.41238 l
318.537216 73.41238 l
323.046307 69.875529 l
327.555398 69.875529 l
332.064489 69.875529 l
336.57358 69.875529 l
341.08267 69.875529 l
345.591761 69.875529 l
350.100852 69.875529 l
354.609943 69.875529 l
359.119034 69.875529 l
363.628125 69.875529 l
368.137216 69.875529 l
372.646307 69.875529 l
377.155398 69.875529 l
381.664489 69.875529 l
386.17358 69.875529 l
390.68267 69.875529 l
395.191761 69.875529 l
399.700852 69.875529 l
404.209943 69.875529 l
408.719034 69.875529 l
413.228125 69.875529 l
417.737216 69.875529 l
422.246307 69.875529 l
426.755398 69.875529 l
431.264489 69.875529 l
435.77358 69.875529 l
440.28267 69.106094 l
444.791761 69.106094 l
449.300852 69.106094 l
453.809943 69.106094 l
458.319034 69.106094 l
462.828125 69.106094 l
467.337216 69.106094 l
471.846307 69.065004 l
476.355398 69.065004 l
480.864489 69.065004 l
485.37358 69.065004 l
489.88267 69.065004 l
494.391761 69.065004 l
498.900852 69.065004 l
503.409943 69.065004 l
507.919034 64.430189 l
512.428125 64.430189 l
stroke
grestore
0.000 0.750 0.750 setrgbcolor
gsave
446.4 345.6 66.03 39.45 clipbox
66.028125 460.181637 m
89.023229 426.170625 m
93.08267 119.118604 l
97.591761 119.118604 l
102.100852 119.118604 l
106.609943 114.548305 l
111.119034 114.342809 l
115.628125 114.342809 l
120.137216 114.342809 l
124.646307 114.342809 l
129.155398 114.342809 l
133.664489 114.342809 l
138.17358 113.520461 l
142.68267 113.520461 l
147.191761 113.520461 l
151.700852 113.520461 l
156.209943 113.520461 l
160.719034 113.520461 l
165.228125 113.520461 l
169.737216 113.520461 l
174.246307 113.520461 l
178.755398 113.520461 l
183.264489 113.520461 l
187.77358 113.520461 l
192.28267 113.520461 l
196.791761 113.520461 l
201.300852 113.520461 l
205.809943 113.520461 l
210.319034 113.520461 l
214.828125 113.520461 l
219.337216 113.520461 l
223.846307 113.520461 l
228.355398 113.520461 l
232.864489 113.520461 l
237.37358 113.520461 l
241.88267 113.520461 l
246.391761 110.809504 l
250.900852 110.809504 l
255.409943 110.809504 l
259.919034 109.004081 l
264.428125 109.004081 l
268.937216 109.004081 l
273.446307 109.004081 l
277.955398 109.004081 l
282.464489 109.004081 l
286.97358 109.004081 l
291.48267 109.004081 l
295.991761 109.004081 l
300.500852 109.004081 l
305.009943 109.004081 l
309.519034 109.004081 l
314.028125 109.004081 l
318.537216 109.004081 l
323.046307 109.004081 l
327.555398 109.004081 l
332.064489 109.004081 l
336.57358 109.004081 l
341.08267 107.831669 l
345.591761 107.831669 l
350.100852 107.097672 l
354.609943 107.097672 l
359.119034 107.097672 l
363.628125 107.097672 l
368.137216 107.097672 l
372.646307 107.097672 l
377.155398 107.097672 l
381.664489 107.097672 l
386.17358 107.097672 l
390.68267 107.097672 l
395.191761 107.097672 l
399.700852 107.097672 l
404.209943 107.097672 l
408.719034 107.097672 l
413.228125 107.097672 l
417.737216 107.097672 l
422.246307 107.097672 l
426.755398 106.897293 l
431.264489 106.897293 l
435.77358 106.897293 l
440.28267 106.897293 l
444.791761 106.897293 l
449.300852 106.897293 l
453.809943 106.887598 l
458.319034 105.773891 l
462.828125 105.773891 l
467.337216 105.773891 l
471.846307 105.773891 l
476.355398 105.773891 l
480.864489 105.773891 l
485.37358 105.773891 l
489.88267 105.765064 l
494.391761 102.499764 l
498.900852 102.499764 l
503.409943 102.499764 l
507.919034 102.499764 l
512.428125 102.499764 l
stroke
grestore
0.750 0.000 0.750 setrgbcolor
gsave
446.4 345.6 66.03 39.45 clipbox
66.028125 90.130688 m
70.537216 90.130688 l
75.046307 90.130688 l
79.555398 90.130688 l
84.064489 90.130688 l
88.57358 90.130688 l
93.08267 90.082332 l
97.591761 90.082332 l
102.100852 90.082332 l
106.609943 90.082332 l
111.119034 90.082332 l
115.628125 90.082332 l
120.137216 90.082332 l
124.646307 90.082332 l
129.155398 90.082332 l
133.664489 90.082332 l
138.17358 90.082332 l
142.68267 90.082332 l
147.191761 89.196429 l
151.700852 88.49572 l
156.209943 88.49572 l
160.719034 88.49572 l
165.228125 88.49572 l
169.737216 88.49572 l
174.246307 88.49572 l
178.755398 87.255803 l
183.264489 87.255803 l
187.77358 87.255803 l
192.28267 87.255803 l
196.791761 87.255803 l
201.300852 87.255803 l
205.809943 87.255803 l
210.319034 87.255803 l
214.828125 87.255803 l
219.337216 87.255803 l
223.846307 87.255803 l
228.355398 87.255803 l
232.864489 87.255803 l
237.37358 87.255803 l
241.88267 87.255803 l
246.391761 87.255803 l
250.900852 87.255803 l
255.409943 87.255803 l
259.919034 87.255803 l
264.428125 87.255803 l
268.937216 85.419527 l
273.446307 85.23914 l
277.955398 85.23914 l
282.464489 85.23914 l
286.97358 85.23914 l
291.48267 84.148187 l
295.991761 84.148187 l
300.500852 78.146379 l
305.009943 78.146379 l
309.519034 78.146379 l
314.028125 78.146379 l
318.537216 78.146379 l
323.046307 78.146379 l
327.555398 78.146379 l
332.064489 78.146379 l
336.57358 78.146379 l
341.08267 78.135009 l
345.591761 78.135009 l
350.100852 78.096006 l
354.609943 78.096006 l
359.119034 78.096006 l
363.628125 78.096006 l
368.137216 78.096006 l
372.646307 78.096006 l
377.155398 78.096006 l
381.664489 78.096006 l
386.17358 78.096006 l
390.68267 78.096006 l
395.191761 78.096006 l
399.700852 78.096006 l
404.209943 78.096006 l
408.719034 78.096006 l
413.228125 78.096006 l
417.737216 78.096006 l
422.246307 78.096006 l
426.755398 78.096006 l
431.264489 78.096006 l
435.77358 78.096006 l
440.28267 78.096006 l
444.791761 78.096006 l
449.300852 78.096006 l
453.809943 78.096006 l
458.319034 78.096006 l
462.828125 78.096006 l
467.337216 78.096006 l
471.846307 78.096006 l
476.355398 78.096006 l
480.864489 77.943738 l
485.37358 77.943738 l
489.88267 77.943738 l
494.391761 77.943738 l
498.900852 71.873571 l
503.409943 71.707631 l
507.919034 71.707631 l
512.428125 71.707631 l
stroke
grestore
0.750 0.750 0.000 setrgbcolor
gsave
446.4 345.6 66.03 39.45 clipbox
66.028125 3657.304188 m
70.418843 426.170625 m
70.537216 339.059716 l
75.046307 337.840567 l
79.555398 337.840567 l
84.064489 337.840567 l
88.57358 267.058375 l
93.08267 99.597018 l
97.591761 99.597018 l
102.100852 79.82804 l
106.609943 79.82804 l
111.119034 79.82804 l
115.628125 79.82804 l
120.137216 79.82804 l
124.646307 79.82804 l
129.155398 79.82804 l
133.664489 79.82804 l
138.17358 79.82804 l
142.68267 79.82804 l
147.191761 79.82804 l
151.700852 79.82804 l
156.209943 79.82804 l
160.719034 79.82804 l
165.228125 79.82804 l
169.737216 79.82804 l
174.246307 79.82804 l
178.755398 79.82804 l
183.264489 79.82804 l
187.77358 79.82804 l
192.28267 79.470099 l
196.791761 78.177387 l
201.300852 78.177387 l
205.809943 78.177387 l
210.319034 77.511219 l
214.828125 76.715631 l
219.337216 71.998185 l
223.846307 71.998185 l
228.355398 71.766287 l
232.864489 71.766287 l
237.37358 71.766287 l
241.88267 71.658913 l
246.391761 69.583695 l
250.900852 69.583695 l
255.409943 67.175325 l
259.919034 67.175325 l
264.428125 67.175325 l
268.937216 67.175325 l
273.446307 66.344278 l
277.955398 66.344278 l
282.464489 66.344278 l
286.97358 66.344278 l
291.48267 66.344278 l
295.991761 64.34974 l
300.500852 64.34974 l
305.009943 64.34974 l
309.519034 64.34974 l
314.028125 64.34974 l
318.537216 64.34974 l
323.046307 64.34974 l
327.555398 64.34974 l
332.064489 64.34974 l
336.57358 64.34974 l
341.08267 63.512777 l
345.591761 63.512777 l
350.100852 63.512777 l
354.609943 63.512777 l
359.119034 63.512777 l
363.628125 63.512777 l
368.137216 63.512777 l
372.646307 63.512777 l
377.155398 63.512777 l
381.664489 63.512777 l
386.17358 63.512777 l
390.68267 63.512777 l
395.191761 63.512777 l
399.700852 63.512777 l
404.209943 63.512777 l
408.719034 63.512777 l
413.228125 63.512777 l
417.737216 63.512777 l
422.246307 63.512777 l
426.755398 63.461367 l
431.264489 63.461367 l
435.77358 63.461367 l
440.28267 63.461367 l
444.791761 63.461367 l
449.300852 62.731316 l
453.809943 62.731316 l
458.319034 62.731316 l
462.828125 62.457474 l
467.337216 62.457474 l
471.846307 62.457474 l
476.355398 62.283055 l
480.864489 62.283055 l
485.37358 61.082329 l
489.88267 61.082329 l
494.391761 61.082329 l
498.900852 61.082329 l
503.409943 61.082329 l
507.919034 61.082329 l
512.428125 60.271231 l
stroke
grestore
0.000 setgray
gsave
446.4 345.6 66.03 39.45 clipbox
66.028125 94.24965 m
70.537216 94.24965 l
75.046307 94.24965 l
79.555398 94.24965 l
84.064489 94.24965 l
88.57358 92.011963 l
93.08267 92.011963 l
97.591761 89.540024 l
102.100852 89.540024 l
106.609943 83.411006 l
111.119034 83.411006 l
115.628125 83.411006 l
120.137216 83.411006 l
124.646307 83.411006 l
129.155398 83.411006 l
133.664489 83.411006 l
138.17358 83.411006 l
142.68267 82.270133 l
147.191761 82.270133 l
151.700852 82.270133 l
156.209943 82.270133 l
160.719034 82.270133 l
165.228125 82.270133 l
169.737216 81.558281 l
174.246307 81.558281 l
178.755398 81.558281 l
183.264489 79.757945 l
187.77358 79.757945 l
192.28267 79.757945 l
196.791761 77.550834 l
201.300852 77.550834 l
205.809943 76.146368 l
210.319034 71.779939 l
214.828125 71.779939 l
219.337216 71.779939 l
223.846307 71.779939 l
228.355398 71.429905 l
232.864489 71.429905 l
237.37358 71.429905 l
241.88267 71.429905 l
246.391761 71.429905 l
250.900852 70.446428 l
255.409943 70.446428 l
259.919034 70.310653 l
264.428125 70.310653 l
268.937216 70.310653 l
273.446307 70.310653 l
277.955398 70.310653 l
282.464489 70.310653 l
286.97358 70.310653 l
291.48267 70.310653 l
295.991761 70.310653 l
300.500852 70.310653 l
305.009943 70.310653 l
309.519034 70.310653 l
314.028125 70.310653 l
318.537216 69.040963 l
323.046307 67.111915 l
327.555398 67.111915 l
332.064489 67.111913 l
336.57358 65.627339 l
341.08267 65.627339 l
345.591761 65.627339 l
350.100852 65.627339 l
354.609943 65.474663 l
359.119034 62.785309 l
363.628125 62.785309 l
368.137216 62.785309 l
372.646307 62.785309 l
377.155398 62.785309 l
381.664489 62.785309 l
386.17358 62.785309 l
390.68267 61.40225 l
395.191761 61.40225 l
399.700852 60.808092 l
404.209943 60.808092 l
408.719034 60.808092 l
413.228125 60.808092 l
417.737216 60.808092 l
422.246307 60.808092 l
426.755398 60.443381 l
431.264489 60.443381 l
435.77358 60.443381 l
440.28267 60.443381 l
444.791761 60.443381 l
449.300852 60.443381 l
453.809943 58.841119 l
458.319034 58.841119 l
462.828125 58.667326 l
467.337216 58.642047 l
471.846307 58.642047 l
476.355398 58.642047 l
480.864489 57.752606 l
485.37358 57.752606 l
489.88267 57.752606 l
494.391761 57.752606 l
498.900852 57.752606 l
503.409943 57.752606 l
507.919034 57.446609 l
512.428125 57.446609 l
stroke
grestore
0.000 0.000 1.000 setrgbcolor
gsave
446.4 345.6 66.03 39.45 clipbox
66.028125 105.774267 m
70.537216 104.828395 l
75.046307 104.828395 l
79.555398 104.828395 l
84.064489 104.828395 l
88.57358 104.828395 l
93.08267 104.828395 l
97.591761 104.828395 l
102.100852 104.174898 l
106.609943 104.174898 l
111.119034 104.174898 l
115.628125 104.174898 l
120.137216 104.174898 l
124.646307 104.174898 l
129.155398 101.366113 l
133.664489 101.366113 l
138.17358 101.366113 l
142.68267 97.115756 l
147.191761 97.115756 l
151.700852 97.115756 l
156.209943 84.596995 l
160.719034 84.596995 l
165.228125 84.414903 l
169.737216 84.414903 l
174.246307 84.414903 l
178.755398 84.414903 l
183.264489 84.414903 l
187.77358 84.414903 l
192.28267 84.414903 l
196.791761 84.414903 l
201.300852 83.927261 l
205.809943 83.927261 l
210.319034 83.927261 l
214.828125 81.846674 l
219.337216 77.989673 l
223.846307 77.989673 l
228.355398 77.989673 l
232.864489 77.989673 l
237.37358 77.940704 l
241.88267 77.093398 l
246.391761 76.957499 l
250.900852 76.767813 l
255.409943 75.831239 l
259.919034 75.831239 l
264.428125 75.831239 l
268.937216 75.811072 l
273.446307 70.98054 l
277.955398 70.155573 l
282.464489 70.155573 l
286.97358 70.155573 l
291.48267 70.155573 l
295.991761 70.155573 l
300.500852 70.155573 l
305.009943 70.155573 l
309.519034 70.155573 l
314.028125 70.155573 l
318.537216 70.155573 l
323.046307 70.155573 l
327.555398 70.155573 l
332.064489 70.155573 l
336.57358 67.836483 l
341.08267 67.836483 l
345.591761 64.777443 l
350.100852 64.777443 l
354.609943 64.777443 l
359.119034 64.777443 l
363.628125 64.777443 l
368.137216 64.777443 l
372.646307 64.777443 l
377.155398 63.707568 l
381.664489 62.150269 l
386.17358 62.150269 l
390.68267 61.067522 l
395.191761 61.067522 l
399.700852 61.067522 l
404.209943 61.067522 l
408.719034 61.067522 l
413.228125 61.067522 l
417.737216 60.924147 l
422.246307 60.924147 l
426.755398 60.821545 l
431.264489 60.707488 l
435.77358 60.707488 l
440.28267 60.707488 l
444.791761 60.707488 l
449.300852 60.707488 l
453.809943 60.707488 l
458.319034 60.707488 l
462.828125 60.707488 l
467.337216 60.707488 l
471.846307 60.285756 l
476.355398 60.285756 l
480.864489 60.285756 l
485.37358 60.285756 l
489.88267 60.285756 l
494.391761 60.285756 l
498.900852 60.118944 l
503.409943 60.118944 l
507.919034 60.118944 l
512.428125 60.118944 l
stroke
grestore
0.000 0.500 0.000 setrgbcolor
gsave
446.4 345.6 66.03 39.45 clipbox
66.028125 3892.181372 m
70.35664 426.170625 m
70.537216 281.576324 l
75.046307 281.576324 l
79.555398 281.576324 l
84.064489 281.576324 l
88.57358 198.575068 l
93.08267 82.826241 l
97.591761 82.826241 l
102.100852 82.826241 l
106.609943 82.826241 l
111.119034 82.826241 l
115.628125 82.826241 l
120.137216 82.826241 l
124.646307 82.826241 l
129.155398 62.980389 l
133.664489 62.980389 l
138.17358 62.980389 l
142.68267 62.980389 l
147.191761 62.980389 l
151.700852 62.980389 l
156.209943 62.980389 l
160.719034 62.980389 l
165.228125 62.980389 l
169.737216 62.980389 l
174.246307 62.980389 l
178.755398 62.980389 l
183.264489 62.980389 l
187.77358 62.980389 l
192.28267 62.353235 l
196.791761 62.353235 l
201.300852 62.216019 l
205.809943 62.216019 l
210.319034 62.052891 l
214.828125 62.052891 l
219.337216 62.00236 l
223.846307 62.00236 l
228.355398 62.00236 l
232.864489 62.00236 l
237.37358 59.902871 l
241.88267 59.902871 l
246.391761 59.902871 l
250.900852 59.902871 l
255.409943 59.902871 l
259.919034 59.902871 l
264.428125 59.902871 l
268.937216 59.902871 l
273.446307 59.902871 l
277.955398 59.902871 l
282.464489 59.902871 l
286.97358 59.902871 l
291.48267 59.902871 l
295.991761 59.902871 l
300.500852 59.902871 l
305.009943 59.902871 l
309.519034 59.902871 l
314.028125 59.902871 l
318.537216 59.902871 l
323.046307 59.874899 l
327.555398 59.874899 l
332.064489 59.874899 l
336.57358 59.874899 l
341.08267 59.874899 l
345.591761 59.874899 l
350.100852 59.874899 l
354.609943 59.874899 l
359.119034 59.874899 l
363.628125 59.874899 l
368.137216 59.874899 l
372.646307 59.874899 l
377.155398 59.874899 l
381.664489 59.874899 l
386.17358 59.874899 l
390.68267 59.874899 l
395.191761 59.874899 l
399.700852 59.874899 l
404.209943 59.874899 l
408.719034 59.874899 l
413.228125 59.874899 l
417.737216 59.874899 l
422.246307 59.874899 l
426.755398 59.874899 l
431.264489 59.874899 l
435.77358 59.874899 l
440.28267 59.874899 l
444.791761 59.874899 l
449.300852 59.874899 l
453.809943 57.831991 l
458.319034 57.831991 l
462.828125 57.831991 l
467.337216 57.831991 l
471.846307 57.831991 l
476.355398 57.831991 l
480.864489 57.831991 l
485.37358 57.831991 l
489.88267 57.831991 l
494.391761 57.831991 l
498.900852 57.831991 l
503.409943 57.831991 l
507.919034 57.831991 l
512.428125 57.831991 l
stroke
grestore
1.000 0.000 0.000 setrgbcolor
gsave
446.4 345.6 66.03 39.45 clipbox
66.028125 102.127923 m
70.537216 102.127923 l
75.046307 100.322691 l
79.555398 100.322691 l
84.064489 100.322691 l
88.57358 100.322691 l
93.08267 100.322691 l
97.591761 100.322691 l
102.100852 100.322691 l
106.609943 99.974865 l
111.119034 94.482711 l
115.628125 89.256204 l
120.137216 89.256204 l
124.646307 89.256204 l
129.155398 89.256204 l
133.664489 89.256204 l
138.17358 89.256204 l
142.68267 88.021497 l
147.191761 82.930459 l
151.700852 80.505498 l
156.209943 77.942651 l
160.719034 77.942651 l
165.228125 77.942651 l
169.737216 77.942651 l
174.246307 77.942651 l
178.755398 77.942651 l
183.264489 77.942651 l
187.77358 77.942651 l
192.28267 77.942651 l
196.791761 77.942651 l
201.300852 77.942651 l
205.809943 77.942651 l
210.319034 77.942651 l
214.828125 77.942651 l
219.337216 76.738997 l
223.846307 76.738997 l
228.355398 76.738997 l
232.864489 76.738997 l
237.37358 76.350934 l
241.88267 73.65116 l
246.391761 73.65116 l
250.900852 73.65116 l
255.409943 73.65116 l
259.919034 73.65116 l
264.428125 73.65116 l
268.937216 73.65116 l
273.446307 73.65116 l
277.955398 73.65116 l
282.464489 73.65116 l
286.97358 70.875042 l
291.48267 70.875042 l
295.991761 70.875042 l
300.500852 70.875042 l
305.009943 70.875042 l
309.519034 70.875042 l
314.028125 70.875042 l
318.537216 70.875042 l
323.046307 70.875042 l
327.555398 70.875042 l
332.064489 70.875042 l
336.57358 70.875042 l
341.08267 70.841179 l
345.591761 70.841179 l
350.100852 70.841179 l
354.609943 70.841179 l
359.119034 70.841179 l
363.628125 70.841179 l
368.137216 70.841179 l
372.646307 70.841179 l
377.155398 61.904557 l
381.664489 60.744932 l
386.17358 60.744932 l
390.68267 60.744932 l
395.191761 60.744932 l
399.700852 60.744932 l
404.209943 60.744932 l
408.719034 60.744932 l
413.228125 60.744932 l
417.737216 60.744932 l
422.246307 60.744932 l
426.755398 60.744932 l
431.264489 60.744932 l
435.77358 59.720871 l
440.28267 59.57882 l
444.791761 59.57882 l
449.300852 59.57882 l
453.809943 58.912626 l
458.319034 58.746181 l
462.828125 58.746181 l
467.337216 58.746181 l
471.846307 58.746181 l
476.355398 58.746181 l
480.864489 58.746181 l
485.37358 58.746181 l
489.88267 58.746181 l
494.391761 58.746181 l
498.900852 58.746181 l
503.409943 58.746181 l
507.919034 58.746181 l
512.428125 58.746181 l
stroke
grestore
0 setlinecap
[6 6] 0 setdash
gsave
446.4 345.6 66.03 39.45 clipbox
66.028125 57.446609 m
512.428125 57.446609 l
stroke
grestore
0 setlinejoin
2 setlinecap
[] 0 setdash
0.000 setgray
gsave
66.028125 385.05 m
512.428125 385.05 l
stroke
grestore
gsave
512.428125 39.45 m
512.428125 385.05 l
stroke
grestore
gsave
66.028125 39.45 m
512.428125 39.45 l
stroke
grestore
gsave
66.028125 39.45 m
66.028125 385.05 l
stroke
grestore
0.500 setlinewidth
1 setlinejoin
0 setlinecap
gsave
/o {
gsave
newpath
translate
0.5 setlinewidth
1 setlinejoin
0 setlinecap
0 0 m
0 4 l

gsave
0.000 setgray
fill
grestore
stroke
grestore
} bind def
66.0281 39.45 o
grestore
gsave
/o {
gsave
newpath
translate
0.5 setlinewidth
1 setlinejoin
0 setlinecap
0 0 m
0 -4 l

gsave
0.000 setgray
fill
grestore
stroke
grestore
} bind def
66.0281 385.05 o
grestore
/BitstreamVeraSans-Roman findfont
12.000 scalefont
setfont
gsave
62.207813 26.325000 translate
0.000000 rotate
0.000000 0.000000 m /zero glyphshow
grestore
gsave
/o {
gsave
newpath
translate
0.5 setlinewidth
1 setlinejoin
0 setlinecap
0 0 m
0 4 l

gsave
0.000 setgray
fill
grestore
stroke
grestore
} bind def
156.21 39.45 o
grestore
gsave
/o {
gsave
newpath
translate
0.5 setlinewidth
1 setlinejoin
0 setlinecap
0 0 m
0 -4 l

gsave
0.000 setgray
fill
grestore
stroke
grestore
} bind def
156.21 385.05 o
grestore
gsave
148.569318 26.325000 translate
0.000000 rotate
0.000000 0.000000 m /two glyphshow
7.634766 0.000000 m /zero glyphshow
grestore
gsave
/o {
gsave
newpath
translate
0.5 setlinewidth
1 setlinejoin
0 setlinecap
0 0 m
0 4 l

gsave
0.000 setgray
fill
grestore
stroke
grestore
} bind def
246.392 39.45 o
grestore
gsave
/o {
gsave
newpath
translate
0.5 setlinewidth
1 setlinejoin
0 setlinecap
0 0 m
0 -4 l

gsave
0.000 setgray
fill
grestore
stroke
grestore
} bind def
246.392 385.05 o
grestore
gsave
238.751136 26.325000 translate
0.000000 rotate
0.000000 0.000000 m /four glyphshow
7.634766 0.000000 m /zero glyphshow
grestore
gsave
/o {
gsave
newpath
translate
0.5 setlinewidth
1 setlinejoin
0 setlinecap
0 0 m
0 4 l

gsave
0.000 setgray
fill
grestore
stroke
grestore
} bind def
336.574 39.45 o
grestore
gsave
/o {
gsave
newpath
translate
0.5 setlinewidth
1 setlinejoin
0 setlinecap
0 0 m
0 -4 l

gsave
0.000 setgray
fill
grestore
stroke
grestore
} bind def
336.574 385.05 o
grestore
gsave
328.932955 26.325000 translate
0.000000 rotate
0.000000 0.000000 m /six glyphshow
7.634766 0.000000 m /zero glyphshow
grestore
gsave
/o {
gsave
newpath
translate
0.5 setlinewidth
1 setlinejoin
0 setlinecap
0 0 m
0 4 l

gsave
0.000 setgray
fill
grestore
stroke
grestore
} bind def
426.755 39.45 o
grestore
gsave
/o {
gsave
newpath
translate
0.5 setlinewidth
1 setlinejoin
0 setlinecap
0 0 m
0 -4 l

gsave
0.000 setgray
fill
grestore
stroke
grestore
} bind def
426.755 385.05 o
grestore
gsave
419.114773 26.325000 translate
0.000000 rotate
0.000000 0.000000 m /eight glyphshow
7.634766 0.000000 m /zero glyphshow
grestore
gsave
263.767188 9.700000 translate
0.000000 rotate
0.000000 0.000000 m /I glyphshow
3.539062 0.000000 m /t glyphshow
8.244141 0.000000 m /e glyphshow
15.626953 0.000000 m /r glyphshow
20.560547 0.000000 m /a glyphshow
27.914062 0.000000 m /t glyphshow
32.619141 0.000000 m /i glyphshow
35.953125 0.000000 m /o glyphshow
43.294922 0.000000 m /n glyphshow
grestore
gsave
/o {
gsave
newpath
translate
0.5 setlinewidth
1 setlinejoin
0 setlinecap
0 0 m
4 0 l

gsave
0.000 setgray
fill
grestore
stroke
grestore
} bind def
66.0281 39.45 o
grestore
gsave
/o {
gsave
newpath
translate
0.5 setlinewidth
1 setlinejoin
0 setlinecap
0 0 m
-4 0 l

gsave
0.000 setgray
fill
grestore
stroke
grestore
} bind def
512.428 39.45 o
grestore
gsave
54.387500 36.137500 translate
0.000000 rotate
0.000000 0.000000 m /zero glyphshow
grestore
gsave
/o {
gsave
newpath
translate
0.5 setlinewidth
1 setlinejoin
0 setlinecap
0 0 m
4 0 l

gsave
0.000 setgray
fill
grestore
stroke
grestore
} bind def
66.0281 108.57 o
grestore
gsave
/o {
gsave
newpath
translate
0.5 setlinewidth
1 setlinejoin
0 setlinecap
0 0 m
-4 0 l

gsave
0.000 setgray
fill
grestore
stroke
grestore
} bind def
512.428 108.57 o
grestore
gsave
31.465625 105.257500 translate
0.000000 rotate
0.000000 0.000000 m /two glyphshow
7.634766 0.000000 m /zero glyphshow
15.269531 0.000000 m /zero glyphshow
22.904297 0.000000 m /zero glyphshow
grestore
gsave
/o {
gsave
newpath
translate
0.5 setlinewidth
1 setlinejoin
0 setlinecap
0 0 m
4 0 l

gsave
0.000 setgray
fill
grestore
stroke
grestore
} bind def
66.0281 177.69 o
grestore
gsave
/o {
gsave
newpath
translate
0.5 setlinewidth
1 setlinejoin
0 setlinecap
0 0 m
-4 0 l

gsave
0.000 setgray
fill
grestore
stroke
grestore
} bind def
512.428 177.69 o
grestore
gsave
31.465625 174.377500 translate
0.000000 rotate
0.000000 0.000000 m /four glyphshow
7.634766 0.000000 m /zero glyphshow
15.269531 0.000000 m /zero glyphshow
22.904297 0.000000 m /zero glyphshow
grestore
gsave
/o {
gsave
newpath
translate
0.5 setlinewidth
1 setlinejoin
0 setlinecap
0 0 m
4 0 l

gsave
0.000 setgray
fill
grestore
stroke
grestore
} bind def
66.0281 246.81 o
grestore
gsave
/o {
gsave
newpath
translate
0.5 setlinewidth
1 setlinejoin
0 setlinecap
0 0 m
-4 0 l

gsave
0.000 setgray
fill
grestore
stroke
grestore
} bind def
512.428 246.81 o
grestore
gsave
31.465625 243.497500 translate
0.000000 rotate
0.000000 0.000000 m /six glyphshow
7.634766 0.000000 m /zero glyphshow
15.269531 0.000000 m /zero glyphshow
22.904297 0.000000 m /zero glyphshow
grestore
gsave
/o {
gsave
newpath
translate
0.5 setlinewidth
1 setlinejoin
0 setlinecap
0 0 m
4 0 l

gsave
0.000 setgray
fill
grestore
stroke
grestore
} bind def
66.0281 315.93 o
grestore
gsave
/o {
gsave
newpath
translate
0.5 setlinewidth
1 setlinejoin
0 setlinecap
0 0 m
-4 0 l

gsave
0.000 setgray
fill
grestore
stroke
grestore
} bind def
512.428 315.93 o
grestore
gsave
31.465625 312.617500 translate
0.000000 rotate
0.000000 0.000000 m /eight glyphshow
7.634766 0.000000 m /zero glyphshow
15.269531 0.000000 m /zero glyphshow
22.904297 0.000000 m /zero glyphshow
grestore
gsave
/o {
gsave
newpath
translate
0.5 setlinewidth
1 setlinejoin
0 setlinecap
0 0 m
4 0 l

gsave
0.000 setgray
fill
grestore
stroke
grestore
} bind def
66.0281 385.05 o
grestore
gsave
/o {
gsave
newpath
translate
0.5 setlinewidth
1 setlinejoin
0 setlinecap
0 0 m
-4 0 l

gsave
0.000 setgray
fill
grestore
stroke
grestore
} bind def
512.428 385.05 o
grestore
gsave
23.825000 381.737500 translate
0.000000 rotate
0.000000 0.000000 m /one glyphshow
7.634766 0.000000 m /zero glyphshow
15.269531 0.000000 m /zero glyphshow
22.904297 0.000000 m /zero glyphshow
30.539062 0.000000 m /zero glyphshow
grestore
gsave
16.325000 191.031250 translate
90.000000 rotate
0.000000 0.000000 m /F glyphshow
6.902344 0.000000 m /i glyphshow
10.236328 0.000000 m /t glyphshow
14.941406 0.000000 m /n glyphshow
22.546875 0.000000 m /e glyphshow
29.929688 0.000000 m /s glyphshow
36.181641 0.000000 m /s glyphshow
grestore
gsave
70.537216 57.273809 translate
0.000000 rotate
0.000000 0.000000 m /five glyphshow
7.634766 0.000000 m /two glyphshow
15.269531 0.000000 m /zero glyphshow
22.904297 0.000000 m /period glyphshow
26.718750 0.000000 m /seven glyphshow
34.353516 0.000000 m /four glyphshow
grestore
/BitstreamVeraSans-Roman findfont
14.400 scalefont
setfont
gsave
170.579688 407.330000 translate
0.000000 rotate
0.000000 0.000000 m /C glyphshow
10.037231 0.000000 m /o glyphshow
18.832092 0.000000 m /n glyphshow
27.942810 0.000000 m /v glyphshow
36.449890 0.000000 m /e glyphshow
45.293884 0.000000 m /r glyphshow
51.203918 0.000000 m /g glyphshow
60.328674 0.000000 m /e glyphshow
69.172668 0.000000 m /n glyphshow
78.283386 0.000000 m /c glyphshow
86.186829 0.000000 m /e glyphshow
95.030823 0.000000 m /space glyphshow
99.600220 0.000000 m /f glyphshow
104.660950 0.000000 m /o glyphshow
113.455811 0.000000 m /r glyphshow
119.365845 0.000000 m /space glyphshow
123.935242 0.000000 m /G glyphshow
135.074463 0.000000 m /A glyphshow
144.908142 0.000000 m /comma glyphshow
149.477539 0.000000 m /space glyphshow
154.046936 0.000000 m /t glyphshow
159.683228 0.000000 m /e glyphshow
168.527222 0.000000 m /r glyphshow
174.437256 0.000000 m /r glyphshow
180.347290 0.000000 m /a glyphshow
189.156189 0.000000 m /i glyphshow
193.150024 0.000000 m /n glyphshow
202.260742 0.000000 m /space glyphshow
206.830139 0.000000 m /o glyphshow
215.625000 0.000000 m /n glyphshow
224.735718 0.000000 m /l glyphshow
228.729553 0.000000 m /y glyphshow
grestore

end
showpage
