%!PS-Adobe-3.0 EPSF-3.0
%%Title: conv_PSO_b.eps
%%Creator: matplotlib version 1.5.1, http://matplotlib.org/
%%CreationDate: Sun Nov 11 19:45:48 2018
%%Orientation: portrait
%%BoundingBox: 46 183 565 608
%%EndComments
%%BeginProlog
/mpldict 8 dict def
mpldict begin
/m { moveto } bind def
/l { lineto } bind def
/r { rlineto } bind def
/c { curveto } bind def
/cl { closepath } bind def
/box {
m
1 index 0 r
0 exch r
neg 0 r
cl
} bind def
/clipbox {
box
clip
newpath
} bind def
%!PS-Adobe-3.0 Resource-Font
%%Title: Bitstream Vera Sans
%%Copyright: Copyright (c) 2003 by Bitstream, Inc. All Rights Reserved.
%%Creator: Converted from TrueType to type 3 by PPR
25 dict begin
/_d{bind def}bind def
/_m{moveto}_d
/_l{lineto}_d
/_cl{closepath eofill}_d
/_c{curveto}_d
/_sc{7 -1 roll{setcachedevice}{pop pop pop pop pop pop}ifelse}_d
/_e{exec}_d
/FontName /BitstreamVeraSans-Roman def
/PaintType 0 def
/FontMatrix[.001 0 0 .001 0 0]def
/FontBBox[-183 -236 1287 928]def
/FontType 3 def
/Encoding [ /space /comma /period /zero /one /two /three /four /five /six /eight /nine /C /F /I /O /P /S /a /c /d /e /f /g /i /k /n /o /r /s /t /v /w ] def
/FontInfo 10 dict dup begin
/FamilyName (Bitstream Vera Sans) def
/FullName (Bitstream Vera Sans) def
/Notice (Copyright (c) 2003 by Bitstream, Inc. All Rights Reserved. Bitstream Vera is a trademark of Bitstream, Inc.) def
/Weight (Roman) def
/Version (Release 1.10) def
/ItalicAngle 0.0 def
/isFixedPitch false def
/UnderlinePosition -213 def
/UnderlineThickness 143 def
end readonly def
/CharStrings 33 dict dup begin
/space{318 0 0 0 0 0 _sc
}_d
/comma{318 0 77 -115 220 124 _sc
117 124 _m
220 124 _l
220 40 _l
140 -115 _l
77 -115 _l
117 40 _l
117 124 _l
_cl}_d
/period{318 0 107 0 210 124 _sc
107 124 _m
210 124 _l
210 0 _l
107 0 _l
107 124 _l
_cl}_d
/zero{636 0 66 -13 570 742 _sc
318 664 _m
267 664 229 639 203 589 _c
177 539 165 464 165 364 _c
165 264 177 189 203 139 _c
229 89 267 64 318 64 _c
369 64 407 89 433 139 _c
458 189 471 264 471 364 _c
471 464 458 539 433 589 _c
407 639 369 664 318 664 _c
318 742 _m
399 742 461 709 505 645 _c
548 580 570 486 570 364 _c
570 241 548 147 505 83 _c
461 19 399 -13 318 -13 _c
236 -13 173 19 130 83 _c
87 147 66 241 66 364 _c
66 486 87 580 130 645 _c
173 709 236 742 318 742 _c
_cl}_d
/one{636 0 110 0 544 729 _sc
124 83 _m
285 83 _l
285 639 _l
110 604 _l
110 694 _l
284 729 _l
383 729 _l
383 83 _l
544 83 _l
544 0 _l
124 0 _l
124 83 _l
_cl}_d
/two{{636 0 73 0 536 742 _sc
192 83 _m
536 83 _l
536 0 _l
73 0 _l
73 83 _l
110 121 161 173 226 239 _c
290 304 331 346 348 365 _c
380 400 402 430 414 455 _c
426 479 433 504 433 528 _c
433 566 419 598 392 622 _c
365 646 330 659 286 659 _c
255 659 222 653 188 643 _c
154 632 117 616 78 594 _c
78 694 _l
118 710 155 722 189 730 _c
223 738 255 742 284 742 _c
}_e{359 742 419 723 464 685 _c
509 647 532 597 532 534 _c
532 504 526 475 515 449 _c
504 422 484 390 454 354 _c
446 344 420 317 376 272 _c
332 227 271 164 192 83 _c
_cl}_e}_d
/three{{636 0 76 -13 556 742 _sc
406 393 _m
453 383 490 362 516 330 _c
542 298 556 258 556 212 _c
556 140 531 84 482 45 _c
432 6 362 -13 271 -13 _c
240 -13 208 -10 176 -4 _c
144 1 110 10 76 22 _c
76 117 _l
103 101 133 89 166 81 _c
198 73 232 69 268 69 _c
330 69 377 81 409 105 _c
441 129 458 165 458 212 _c
458 254 443 288 413 312 _c
383 336 341 349 287 349 _c
}_e{202 349 _l
202 430 _l
291 430 _l
339 430 376 439 402 459 _c
428 478 441 506 441 543 _c
441 580 427 609 401 629 _c
374 649 336 659 287 659 _c
260 659 231 656 200 650 _c
169 644 135 635 98 623 _c
98 711 _l
135 721 170 729 203 734 _c
235 739 266 742 296 742 _c
370 742 429 725 473 691 _c
517 657 539 611 539 553 _c
539 513 527 479 504 451 _c
481 423 448 403 406 393 _c
_cl}_e}_d
/four{636 0 49 0 580 729 _sc
378 643 _m
129 254 _l
378 254 _l
378 643 _l
352 729 _m
476 729 _l
476 254 _l
580 254 _l
580 172 _l
476 172 _l
476 0 _l
378 0 _l
378 172 _l
49 172 _l
49 267 _l
352 729 _l
_cl}_d
/five{{636 0 77 -13 549 729 _sc
108 729 _m
495 729 _l
495 646 _l
198 646 _l
198 467 _l
212 472 227 476 241 478 _c
255 480 270 482 284 482 _c
365 482 429 459 477 415 _c
525 370 549 310 549 234 _c
549 155 524 94 475 51 _c
426 8 357 -13 269 -13 _c
238 -13 207 -10 175 -6 _c
143 -1 111 6 77 17 _c
77 116 _l
106 100 136 88 168 80 _c
199 72 232 69 267 69 _c
}_e{323 69 368 83 401 113 _c
433 143 450 183 450 234 _c
450 284 433 324 401 354 _c
368 384 323 399 267 399 _c
241 399 214 396 188 390 _c
162 384 135 375 108 363 _c
108 729 _l
_cl}_e}_d
/six{{636 0 70 -13 573 742 _sc
330 404 _m
286 404 251 388 225 358 _c
199 328 186 286 186 234 _c
186 181 199 139 225 109 _c
251 79 286 64 330 64 _c
374 64 409 79 435 109 _c
461 139 474 181 474 234 _c
474 286 461 328 435 358 _c
409 388 374 404 330 404 _c
526 713 _m
526 623 _l
501 635 476 644 451 650 _c
425 656 400 659 376 659 _c
310 659 260 637 226 593 _c
}_e{192 549 172 482 168 394 _c
187 422 211 444 240 459 _c
269 474 301 482 336 482 _c
409 482 467 459 509 415 _c
551 371 573 310 573 234 _c
573 159 550 99 506 54 _c
462 9 403 -13 330 -13 _c
246 -13 181 19 137 83 _c
92 147 70 241 70 364 _c
70 479 97 571 152 639 _c
206 707 280 742 372 742 _c
396 742 421 739 447 735 _c
472 730 498 723 526 713 _c
_cl}_e}_d
/eight{{636 0 68 -13 568 742 _sc
318 346 _m
271 346 234 333 207 308 _c
180 283 167 249 167 205 _c
167 161 180 126 207 101 _c
234 76 271 64 318 64 _c
364 64 401 76 428 102 _c
455 127 469 161 469 205 _c
469 249 455 283 429 308 _c
402 333 365 346 318 346 _c
219 388 _m
177 398 144 418 120 447 _c
96 476 85 511 85 553 _c
85 611 105 657 147 691 _c
188 725 245 742 318 742 _c
}_e{390 742 447 725 489 691 _c
530 657 551 611 551 553 _c
551 511 539 476 515 447 _c
491 418 459 398 417 388 _c
464 377 501 355 528 323 _c
554 291 568 251 568 205 _c
568 134 546 80 503 43 _c
459 5 398 -13 318 -13 _c
237 -13 175 5 132 43 _c
89 80 68 134 68 205 _c
68 251 81 291 108 323 _c
134 355 171 377 219 388 _c
183 544 _m
183 506 194 476 218 455 _c
}_e{242 434 275 424 318 424 _c
360 424 393 434 417 455 _c
441 476 453 506 453 544 _c
453 582 441 611 417 632 _c
393 653 360 664 318 664 _c
275 664 242 653 218 632 _c
194 611 183 582 183 544 _c
_cl}_e}_d
/nine{{636 0 63 -13 566 742 _sc
110 15 _m
110 105 _l
134 93 159 84 185 78 _c
210 72 235 69 260 69 _c
324 69 374 90 408 134 _c
442 178 462 244 468 334 _c
448 306 424 284 396 269 _c
367 254 335 247 300 247 _c
226 247 168 269 126 313 _c
84 357 63 417 63 494 _c
63 568 85 628 129 674 _c
173 719 232 742 306 742 _c
390 742 455 709 499 645 _c
543 580 566 486 566 364 _c
}_e{566 248 538 157 484 89 _c
429 21 356 -13 264 -13 _c
239 -13 214 -10 189 -6 _c
163 -2 137 5 110 15 _c
306 324 _m
350 324 385 339 411 369 _c
437 399 450 441 450 494 _c
450 546 437 588 411 618 _c
385 648 350 664 306 664 _c
262 664 227 648 201 618 _c
175 588 162 546 162 494 _c
162 441 175 399 201 369 _c
227 339 262 324 306 324 _c
_cl}_e}_d
/C{{698 0 56 -13 644 742 _sc
644 673 _m
644 569 _l
610 599 575 622 537 638 _c
499 653 460 661 418 661 _c
334 661 270 635 226 584 _c
182 533 160 460 160 364 _c
160 268 182 194 226 143 _c
270 92 334 67 418 67 _c
460 67 499 74 537 90 _c
575 105 610 128 644 159 _c
644 56 _l
609 32 572 15 534 4 _c
496 -7 455 -13 412 -13 _c
302 -13 215 20 151 87 _c
}_e{87 154 56 246 56 364 _c
56 481 87 573 151 641 _c
215 708 302 742 412 742 _c
456 742 497 736 535 725 _c
573 713 610 696 644 673 _c
_cl}_e}_d
/F{575 0 98 0 517 729 _sc
98 729 _m
517 729 _l
517 646 _l
197 646 _l
197 431 _l
486 431 _l
486 348 _l
197 348 _l
197 0 _l
98 0 _l
98 729 _l
_cl}_d
/I{295 0 98 0 197 729 _sc
98 729 _m
197 729 _l
197 0 _l
98 0 _l
98 729 _l
_cl}_d
/O{787 0 56 -13 731 742 _sc
394 662 _m
322 662 265 635 223 582 _c
181 528 160 456 160 364 _c
160 272 181 199 223 146 _c
265 92 322 66 394 66 _c
465 66 522 92 564 146 _c
606 199 627 272 627 364 _c
627 456 606 528 564 582 _c
522 635 465 662 394 662 _c
394 742 _m
496 742 577 707 639 639 _c
700 571 731 479 731 364 _c
731 248 700 157 639 89 _c
577 21 496 -13 394 -13 _c
291 -13 209 21 148 89 _c
86 157 56 248 56 364 _c
56 479 86 571 148 639 _c
209 707 291 742 394 742 _c
_cl}_d
/P{603 0 98 0 569 729 _sc
197 648 _m
197 374 _l
321 374 _l
367 374 402 385 427 409 _c
452 433 465 467 465 511 _c
465 555 452 588 427 612 _c
402 636 367 648 321 648 _c
197 648 _l
98 729 _m
321 729 _l
402 729 464 710 506 673 _c
548 636 569 582 569 511 _c
569 439 548 384 506 348 _c
464 311 402 293 321 293 _c
197 293 _l
197 0 _l
98 0 _l
98 729 _l
_cl}_d
/S{{635 0 66 -13 579 742 _sc
535 705 _m
535 609 _l
497 627 462 640 429 649 _c
395 657 363 662 333 662 _c
279 662 237 651 208 631 _c
179 610 165 580 165 542 _c
165 510 174 485 194 469 _c
213 452 250 439 304 429 _c
364 417 _l
437 403 491 378 526 343 _c
561 307 579 260 579 201 _c
579 130 555 77 508 41 _c
460 5 391 -13 300 -13 _c
265 -13 228 -9 189 -2 _c
}_e{150 5 110 16 69 32 _c
69 134 _l
109 111 148 94 186 83 _c
224 71 262 66 300 66 _c
356 66 399 77 430 99 _c
460 121 476 152 476 194 _c
476 230 465 258 443 278 _c
421 298 385 313 335 323 _c
275 335 _l
201 349 148 372 115 404 _c
82 435 66 478 66 534 _c
66 598 88 649 134 686 _c
179 723 242 742 322 742 _c
356 742 390 739 426 733 _c
461 727 497 717 535 705 _c
}_e{_cl}_e}_d
/a{{613 0 60 -13 522 560 _sc
343 275 _m
270 275 220 266 192 250 _c
164 233 150 205 150 165 _c
150 133 160 107 181 89 _c
202 70 231 61 267 61 _c
317 61 357 78 387 114 _c
417 149 432 196 432 255 _c
432 275 _l
343 275 _l
522 312 _m
522 0 _l
432 0 _l
432 83 _l
411 49 385 25 355 10 _c
325 -5 287 -13 243 -13 _c
187 -13 142 2 109 33 _c
76 64 60 106 60 159 _c
}_e{60 220 80 266 122 298 _c
163 329 224 345 306 345 _c
432 345 _l
432 354 _l
432 395 418 427 391 450 _c
364 472 326 484 277 484 _c
245 484 215 480 185 472 _c
155 464 127 453 100 439 _c
100 522 _l
132 534 164 544 195 550 _c
226 556 256 560 286 560 _c
365 560 424 539 463 498 _c
502 457 522 395 522 312 _c
_cl}_e}_d
/c{{550 0 55 -13 488 560 _sc
488 526 _m
488 442 _l
462 456 437 466 411 473 _c
385 480 360 484 334 484 _c
276 484 230 465 198 428 _c
166 391 150 339 150 273 _c
150 206 166 154 198 117 _c
230 80 276 62 334 62 _c
360 62 385 65 411 72 _c
437 79 462 90 488 104 _c
488 21 _l
462 9 436 0 410 -5 _c
383 -10 354 -13 324 -13 _c
242 -13 176 12 128 64 _c
}_e{79 115 55 185 55 273 _c
55 362 79 432 128 483 _c
177 534 244 560 330 560 _c
358 560 385 557 411 551 _c
437 545 463 537 488 526 _c
_cl}_e}_d
/d{{635 0 55 -13 544 760 _sc
454 464 _m
454 760 _l
544 760 _l
544 0 _l
454 0 _l
454 82 _l
435 49 411 25 382 10 _c
353 -5 319 -13 279 -13 _c
213 -13 159 13 117 65 _c
75 117 55 187 55 273 _c
55 359 75 428 117 481 _c
159 533 213 560 279 560 _c
319 560 353 552 382 536 _c
411 520 435 496 454 464 _c
148 273 _m
148 207 161 155 188 117 _c
215 79 253 61 301 61 _c
}_e{348 61 385 79 413 117 _c
440 155 454 207 454 273 _c
454 339 440 390 413 428 _c
385 466 348 485 301 485 _c
253 485 215 466 188 428 _c
161 390 148 339 148 273 _c
_cl}_e}_d
/e{{615 0 55 -13 562 560 _sc
562 296 _m
562 252 _l
149 252 _l
153 190 171 142 205 110 _c
238 78 284 62 344 62 _c
378 62 412 66 444 74 _c
476 82 509 95 541 113 _c
541 28 _l
509 14 476 3 442 -3 _c
408 -9 373 -13 339 -13 _c
251 -13 182 12 131 62 _c
80 112 55 181 55 268 _c
55 357 79 428 127 481 _c
175 533 241 560 323 560 _c
397 560 455 536 498 489 _c
}_e{540 441 562 377 562 296 _c
472 322 _m
471 371 457 410 431 440 _c
404 469 368 484 324 484 _c
274 484 234 469 204 441 _c
174 413 156 373 152 322 _c
472 322 _l
_cl}_e}_d
/f{352 0 23 0 371 760 _sc
371 760 _m
371 685 _l
285 685 _l
253 685 230 678 218 665 _c
205 652 199 629 199 595 _c
199 547 _l
347 547 _l
347 477 _l
199 477 _l
199 0 _l
109 0 _l
109 477 _l
23 477 _l
23 547 _l
109 547 _l
109 585 _l
109 645 123 690 151 718 _c
179 746 224 760 286 760 _c
371 760 _l
_cl}_d
/g{{635 0 55 -207 544 560 _sc
454 280 _m
454 344 440 395 414 431 _c
387 467 349 485 301 485 _c
253 485 215 467 188 431 _c
161 395 148 344 148 280 _c
148 215 161 165 188 129 _c
215 93 253 75 301 75 _c
349 75 387 93 414 129 _c
440 165 454 215 454 280 _c
544 68 _m
544 -24 523 -93 482 -139 _c
440 -184 377 -207 292 -207 _c
260 -207 231 -204 203 -200 _c
175 -195 147 -188 121 -178 _c
}_e{121 -91 _l
147 -105 173 -115 199 -122 _c
225 -129 251 -133 278 -133 _c
336 -133 380 -117 410 -87 _c
439 -56 454 -10 454 52 _c
454 96 _l
435 64 411 40 382 24 _c
353 8 319 0 279 0 _c
211 0 157 25 116 76 _c
75 127 55 195 55 280 _c
55 364 75 432 116 483 _c
157 534 211 560 279 560 _c
319 560 353 552 382 536 _c
411 520 435 496 454 464 _c
454 547 _l
544 547 _l
}_e{544 68 _l
_cl}_e}_d
/i{278 0 94 0 184 760 _sc
94 547 _m
184 547 _l
184 0 _l
94 0 _l
94 547 _l
94 760 _m
184 760 _l
184 646 _l
94 646 _l
94 760 _l
_cl}_d
/k{579 0 91 0 576 760 _sc
91 760 _m
181 760 _l
181 311 _l
449 547 _l
564 547 _l
274 291 _l
576 0 _l
459 0 _l
181 267 _l
181 0 _l
91 0 _l
91 760 _l
_cl}_d
/n{634 0 91 0 549 560 _sc
549 330 _m
549 0 _l
459 0 _l
459 327 _l
459 379 448 417 428 443 _c
408 469 378 482 338 482 _c
289 482 251 466 223 435 _c
195 404 181 362 181 309 _c
181 0 _l
91 0 _l
91 547 _l
181 547 _l
181 462 _l
202 494 227 519 257 535 _c
286 551 320 560 358 560 _c
420 560 468 540 500 501 _c
532 462 549 405 549 330 _c
_cl}_d
/o{612 0 55 -13 557 560 _sc
306 484 _m
258 484 220 465 192 427 _c
164 389 150 338 150 273 _c
150 207 163 156 191 118 _c
219 80 257 62 306 62 _c
354 62 392 80 420 118 _c
448 156 462 207 462 273 _c
462 337 448 389 420 427 _c
392 465 354 484 306 484 _c
306 560 _m
384 560 445 534 490 484 _c
534 433 557 363 557 273 _c
557 183 534 113 490 63 _c
445 12 384 -13 306 -13 _c
227 -13 165 12 121 63 _c
77 113 55 183 55 273 _c
55 363 77 433 121 484 _c
165 534 227 560 306 560 _c
_cl}_d
/r{411 0 91 0 411 560 _sc
411 463 _m
401 469 390 473 378 476 _c
366 478 353 480 339 480 _c
288 480 249 463 222 430 _c
194 397 181 350 181 288 _c
181 0 _l
91 0 _l
91 547 _l
181 547 _l
181 462 _l
199 495 224 520 254 536 _c
284 552 321 560 365 560 _c
371 560 378 559 386 559 _c
393 558 401 557 411 555 _c
411 463 _l
_cl}_d
/s{{521 0 54 -13 472 560 _sc
443 531 _m
443 446 _l
417 458 391 468 364 475 _c
336 481 308 485 279 485 _c
234 485 200 478 178 464 _c
156 450 145 430 145 403 _c
145 382 153 366 169 354 _c
185 342 217 330 265 320 _c
296 313 _l
360 299 405 279 432 255 _c
458 230 472 195 472 151 _c
472 100 452 60 412 31 _c
372 1 316 -13 246 -13 _c
216 -13 186 -10 154 -5 _c
}_e{122 0 89 8 54 20 _c
54 113 _l
87 95 120 82 152 74 _c
184 65 216 61 248 61 _c
290 61 323 68 346 82 _c
368 96 380 117 380 144 _c
380 168 371 187 355 200 _c
339 213 303 226 247 238 _c
216 245 _l
160 257 119 275 95 299 _c
70 323 58 356 58 399 _c
58 450 76 490 112 518 _c
148 546 200 560 268 560 _c
301 560 332 557 362 552 _c
391 547 418 540 443 531 _c
}_e{_cl}_e}_d
/t{392 0 27 0 368 702 _sc
183 702 _m
183 547 _l
368 547 _l
368 477 _l
183 477 _l
183 180 _l
183 135 189 106 201 94 _c
213 81 238 75 276 75 _c
368 75 _l
368 0 _l
276 0 _l
206 0 158 13 132 39 _c
106 65 93 112 93 180 _c
93 477 _l
27 477 _l
27 547 _l
93 547 _l
93 702 _l
183 702 _l
_cl}_d
/v{592 0 30 0 562 547 _sc
30 547 _m
125 547 _l
296 88 _l
467 547 _l
562 547 _l
357 0 _l
235 0 _l
30 547 _l
_cl}_d
/w{818 0 42 0 776 547 _sc
42 547 _m
132 547 _l
244 120 _l
356 547 _l
462 547 _l
574 120 _l
686 547 _l
776 547 _l
633 0 _l
527 0 _l
409 448 _l
291 0 _l
185 0 _l
42 547 _l
_cl}_d
end readonly def

/BuildGlyph
 {exch begin
 CharStrings exch
 2 copy known not{pop /.notdef}if
 true 3 1 roll get exec
 end}_d

/BuildChar {
 1 index /Encoding get exch get
 1 index /BuildGlyph get exec
}_d

FontName currentdict end definefont pop
end
%%EndProlog
mpldict begin
46.186 183.415 translate
519.628 425.171 0 0 clipbox
100000 setmiterlimit
gsave
0 0 m
519.628125 0 l
519.628125 425.170625 l
0 425.170625 l
cl
1.000 setgray
fill
grestore
gsave
66.028125 39.45 m
512.428125 39.45 l
512.428125 385.05 l
66.028125 385.05 l
cl
1.000 setgray
fill
grestore
1.000 setlinewidth
1 setlinejoin
2 setlinecap
[] 0 setdash
0.000 0.000 1.000 setrgbcolor
gsave
446.4 345.6 66.03 39.45 clipbox
66.028125 398.203921 m
70.537216 346.746508 l
75.046307 270.483157 l
79.555398 270.483157 l
84.064489 228.061369 l
88.57358 228.061369 l
93.08267 228.061369 l
97.591761 228.061369 l
102.100852 194.518868 l
106.609943 192.425904 l
111.119034 162.942978 l
115.628125 162.942978 l
120.137216 136.107109 l
124.646307 136.107109 l
129.155398 136.107109 l
133.664489 136.107109 l
138.17358 136.107109 l
142.68267 131.255891 l
147.191761 131.255891 l
151.700852 131.255891 l
156.209943 117.643015 l
160.719034 117.643015 l
165.228125 117.643015 l
169.737216 115.653199 l
174.246307 115.653199 l
178.755398 115.653199 l
183.264489 113.437716 l
187.77358 113.437716 l
192.28267 105.171727 l
196.791761 105.171727 l
201.300852 105.171727 l
205.809943 95.450476 l
210.319034 95.450476 l
214.828125 95.450476 l
219.337216 95.450476 l
223.846307 95.450476 l
228.355398 95.450476 l
232.864489 95.450476 l
237.37358 95.450476 l
241.88267 95.450476 l
246.391761 95.450476 l
250.900852 92.183908 l
255.409943 90.170821 l
259.919034 90.170821 l
264.428125 90.170821 l
268.937216 90.170821 l
273.446307 87.804499 l
277.955398 87.456605 l
282.464489 87.456605 l
286.97358 87.456605 l
291.48267 87.456605 l
295.991761 87.456605 l
300.500852 87.456605 l
305.009943 87.456605 l
309.519034 87.456605 l
314.028125 87.456605 l
318.537216 87.456605 l
323.046307 87.456605 l
327.555398 87.456605 l
332.064489 87.456605 l
336.57358 87.456605 l
341.08267 87.456605 l
345.591761 87.456605 l
350.100852 87.456605 l
354.609943 87.453468 l
359.119034 87.453468 l
363.628125 87.441647 l
368.137216 86.688994 l
372.646307 86.688994 l
377.155398 86.688994 l
381.664489 86.688994 l
386.17358 86.576079 l
390.68267 86.576079 l
395.191761 86.334722 l
399.700852 86.288051 l
404.209943 86.285481 l
408.719034 86.285481 l
413.228125 86.180951 l
417.737216 86.180951 l
422.246307 86.180951 l
426.755398 86.132868 l
431.264489 86.090707 l
435.77358 86.036483 l
440.28267 85.986023 l
444.791761 85.986023 l
449.300852 85.744875 l
453.809943 85.704552 l
458.319034 85.624565 l
462.828125 85.503248 l
467.337216 85.503248 l
471.846307 85.464657 l
476.355398 85.464657 l
480.864489 85.416772 l
485.37358 85.260364 l
489.88267 85.162197 l
494.391761 85.161837 l
498.900852 85.092388 l
503.409943 85.092388 l
507.919034 82.287105 l
512.428125 82.287105 l
stroke
grestore
0.000 0.500 0.000 setrgbcolor
gsave
446.4 345.6 66.03 39.45 clipbox
66.028125 260.687471 m
70.537216 260.687471 l
75.046307 260.687471 l
79.555398 260.687471 l
84.064489 238.112675 l
88.57358 238.112675 l
93.08267 238.112675 l
97.591761 184.469786 l
102.100852 184.469786 l
106.609943 184.469786 l
111.119034 163.514444 l
115.628125 163.514444 l
120.137216 163.514444 l
124.646307 163.514444 l
129.155398 144.283727 l
133.664489 144.283727 l
138.17358 144.283727 l
142.68267 144.283727 l
147.191761 144.283727 l
151.700852 144.283727 l
156.209943 144.283727 l
160.719034 144.283727 l
165.228125 136.45503 l
169.737216 128.964389 l
174.246307 128.964389 l
178.755398 125.796885 l
183.264489 125.110494 l
187.77358 125.110494 l
192.28267 121.941106 l
196.791761 118.605429 l
201.300852 118.605429 l
205.809943 118.605429 l
210.319034 106.14393 l
214.828125 106.14393 l
219.337216 106.14393 l
223.846307 106.14393 l
228.355398 102.690178 l
232.864489 101.932747 l
237.37358 101.932747 l
241.88267 101.932747 l
246.391761 101.932747 l
250.900852 100.438849 l
255.409943 100.438849 l
259.919034 100.438849 l
264.428125 89.480898 l
268.937216 89.480898 l
273.446307 89.480898 l
277.955398 89.480898 l
282.464489 89.480898 l
286.97358 89.480898 l
291.48267 89.480898 l
295.991761 89.480898 l
300.500852 89.480898 l
305.009943 89.480898 l
309.519034 85.740644 l
314.028125 85.740644 l
318.537216 85.740644 l
323.046307 85.740644 l
327.555398 85.740644 l
332.064489 85.740644 l
336.57358 85.740644 l
341.08267 85.740644 l
345.591761 85.740644 l
350.100852 85.740644 l
354.609943 85.740644 l
359.119034 85.740644 l
363.628125 85.740644 l
368.137216 85.740644 l
372.646307 85.740644 l
377.155398 85.740644 l
381.664489 85.740644 l
386.17358 85.740644 l
390.68267 85.740644 l
395.191761 85.740644 l
399.700852 85.740644 l
404.209943 85.740644 l
408.719034 85.740644 l
413.228125 85.740644 l
417.737216 85.740644 l
422.246307 85.740644 l
426.755398 85.740644 l
431.264489 85.39603 l
435.77358 85.39603 l
440.28267 81.315087 l
444.791761 79.580322 l
449.300852 79.580322 l
453.809943 79.580322 l
458.319034 79.580322 l
462.828125 79.580322 l
467.337216 79.580322 l
471.846307 79.580322 l
476.355398 79.530981 l
480.864489 79.530981 l
485.37358 79.530981 l
489.88267 79.209433 l
494.391761 79.209433 l
498.900852 79.161852 l
503.409943 79.161852 l
507.919034 79.024065 l
512.428125 78.869862 l
stroke
grestore
1.000 0.000 0.000 setrgbcolor
gsave
446.4 345.6 66.03 39.45 clipbox
66.028125 310.033063 m
70.537216 310.033063 l
75.046307 200.914595 l
79.555398 200.914595 l
84.064489 200.914595 l
88.57358 184.105264 l
93.08267 184.105264 l
97.591761 184.105264 l
102.100852 184.105264 l
106.609943 184.105264 l
111.119034 184.105264 l
115.628125 129.375857 l
120.137216 129.375857 l
124.646307 129.375857 l
129.155398 129.375857 l
133.664489 129.375857 l
138.17358 129.375857 l
142.68267 129.375857 l
147.191761 129.375857 l
151.700852 129.375857 l
156.209943 124.309245 l
160.719034 124.309245 l
165.228125 124.309245 l
169.737216 124.309245 l
174.246307 124.309245 l
178.755398 124.309245 l
183.264489 124.309245 l
187.77358 119.516131 l
192.28267 119.516131 l
196.791761 119.516131 l
201.300852 119.516131 l
205.809943 119.516131 l
210.319034 119.516131 l
214.828125 115.247144 l
219.337216 113.046739 l
223.846307 110.106363 l
228.355398 110.106363 l
232.864489 108.630356 l
237.37358 108.630356 l
241.88267 108.630356 l
246.391761 108.630356 l
250.900852 108.279216 l
255.409943 106.223302 l
259.919034 106.223302 l
264.428125 105.976022 l
268.937216 102.408081 l
273.446307 102.408081 l
277.955398 101.046082 l
282.464489 95.104319 l
286.97358 95.104319 l
291.48267 94.568737 l
295.991761 94.568737 l
300.500852 94.568737 l
305.009943 94.568737 l
309.519034 94.568737 l
314.028125 94.568737 l
318.537216 94.568737 l
323.046307 94.568737 l
327.555398 94.568737 l
332.064489 94.568737 l
336.57358 92.709034 l
341.08267 92.709034 l
345.591761 92.709034 l
350.100852 92.149033 l
354.609943 88.168786 l
359.119034 88.168786 l
363.628125 88.018891 l
368.137216 88.018891 l
372.646307 88.018891 l
377.155398 88.018891 l
381.664489 88.018891 l
386.17358 85.989506 l
390.68267 85.989506 l
395.191761 85.989506 l
399.700852 85.989506 l
404.209943 85.989506 l
408.719034 85.989506 l
413.228125 85.989506 l
417.737216 85.989506 l
422.246307 85.989506 l
426.755398 85.989506 l
431.264489 85.989506 l
435.77358 85.989506 l
440.28267 85.989506 l
444.791761 85.989506 l
449.300852 85.989506 l
453.809943 85.989506 l
458.319034 85.989506 l
462.828125 85.989506 l
467.337216 85.989506 l
471.846307 85.989506 l
476.355398 85.96234 l
480.864489 85.935067 l
485.37358 85.831194 l
489.88267 85.777507 l
494.391761 85.777507 l
498.900852 85.777507 l
503.409943 85.770183 l
507.919034 85.770183 l
512.428125 85.711729 l
stroke
grestore
0.000 0.750 0.750 setrgbcolor
gsave
446.4 345.6 66.03 39.45 clipbox
66.028125 255.364172 m
70.537216 202.230299 l
75.046307 202.230299 l
79.555398 202.230299 l
84.064489 202.230299 l
88.57358 202.230299 l
93.08267 202.230299 l
97.591761 202.230299 l
102.100852 202.230299 l
106.609943 197.188559 l
111.119034 153.786177 l
115.628125 153.786177 l
120.137216 153.786177 l
124.646307 153.786177 l
129.155398 153.786177 l
133.664489 153.786177 l
138.17358 153.786177 l
142.68267 153.786177 l
147.191761 153.786177 l
151.700852 144.081673 l
156.209943 144.081673 l
160.719034 144.081673 l
165.228125 144.081673 l
169.737216 144.081673 l
174.246307 144.081673 l
178.755398 127.153157 l
183.264489 127.153157 l
187.77358 127.153157 l
192.28267 127.153157 l
196.791761 127.153157 l
201.300852 127.153157 l
205.809943 127.153157 l
210.319034 121.891956 l
214.828125 121.891956 l
219.337216 113.16219 l
223.846307 113.16219 l
228.355398 113.16219 l
232.864489 113.16219 l
237.37358 113.16219 l
241.88267 113.16219 l
246.391761 109.653183 l
250.900852 104.133266 l
255.409943 104.133266 l
259.919034 104.133266 l
264.428125 104.133266 l
268.937216 93.597738 l
273.446307 93.597738 l
277.955398 93.597738 l
282.464489 87.709807 l
286.97358 87.709807 l
291.48267 87.709807 l
295.991761 87.709807 l
300.500852 87.709807 l
305.009943 87.709807 l
309.519034 87.709807 l
314.028125 87.709807 l
318.537216 87.709807 l
323.046307 87.709807 l
327.555398 87.709807 l
332.064489 87.709807 l
336.57358 86.455993 l
341.08267 85.532312 l
345.591761 85.532312 l
350.100852 85.532312 l
354.609943 85.532312 l
359.119034 83.570983 l
363.628125 83.570983 l
368.137216 83.570983 l
372.646307 83.570983 l
377.155398 81.404641 l
381.664489 81.404641 l
386.17358 81.404641 l
390.68267 79.18621 l
395.191761 79.18621 l
399.700852 79.18621 l
404.209943 79.18621 l
408.719034 79.18621 l
413.228125 79.18621 l
417.737216 79.18621 l
422.246307 79.18621 l
426.755398 79.18621 l
431.264489 78.519938 l
435.77358 78.519938 l
440.28267 78.519938 l
444.791761 77.343387 l
449.300852 77.343387 l
453.809943 77.343387 l
458.319034 77.343387 l
462.828125 77.343387 l
467.337216 77.343387 l
471.846307 77.343387 l
476.355398 77.343387 l
480.864489 77.343387 l
485.37358 77.343387 l
489.88267 77.343387 l
494.391761 77.343387 l
498.900852 77.343387 l
503.409943 77.343387 l
507.919034 77.1773 l
512.428125 77.1773 l
stroke
grestore
0.750 0.000 0.750 setrgbcolor
gsave
446.4 345.6 66.03 39.45 clipbox
66.028125 181.598098 m
70.537216 181.598098 l
75.046307 181.598098 l
79.555398 181.598098 l
84.064489 181.598098 l
88.57358 181.598098 l
93.08267 181.598098 l
97.591761 181.598098 l
102.100852 140.196742 l
106.609943 128.601224 l
111.119034 128.601224 l
115.628125 128.601224 l
120.137216 128.601224 l
124.646307 128.601224 l
129.155398 128.601224 l
133.664489 128.601224 l
138.17358 128.601224 l
142.68267 125.977857 l
147.191761 125.516154 l
151.700852 125.516154 l
156.209943 125.516154 l
160.719034 110.326918 l
165.228125 110.326918 l
169.737216 110.326918 l
174.246307 109.594301 l
178.755398 109.594301 l
183.264489 109.594301 l
187.77358 109.594301 l
192.28267 109.594301 l
196.791761 101.795458 l
201.300852 101.795458 l
205.809943 101.795458 l
210.319034 101.795458 l
214.828125 101.795458 l
219.337216 101.795458 l
223.846307 101.795458 l
228.355398 101.795458 l
232.864489 101.795458 l
237.37358 101.795458 l
241.88267 101.499091 l
246.391761 94.339584 l
250.900852 93.637417 l
255.409943 92.985712 l
259.919034 92.627896 l
264.428125 92.627896 l
268.937216 92.627896 l
273.446307 92.627896 l
277.955398 92.627896 l
282.464489 92.013499 l
286.97358 91.203843 l
291.48267 88.663031 l
295.991761 88.02237 l
300.500852 88.02237 l
305.009943 87.208614 l
309.519034 87.075484 l
314.028125 87.075484 l
318.537216 87.075484 l
323.046307 86.68886 l
327.555398 86.68886 l
332.064489 86.68886 l
336.57358 86.580074 l
341.08267 86.580074 l
345.591761 86.580074 l
350.100852 86.580074 l
354.609943 86.580074 l
359.119034 86.580074 l
363.628125 86.580074 l
368.137216 86.580074 l
372.646307 86.555222 l
377.155398 86.555222 l
381.664489 86.021775 l
386.17358 86.021775 l
390.68267 85.712519 l
395.191761 85.712519 l
399.700852 85.712519 l
404.209943 85.712519 l
408.719034 85.712519 l
413.228125 85.712519 l
417.737216 85.712519 l
422.246307 85.374543 l
426.755398 85.374543 l
431.264489 85.34529 l
435.77358 85.34529 l
440.28267 85.33774 l
444.791761 85.33774 l
449.300852 85.33774 l
453.809943 85.33774 l
458.319034 84.774224 l
462.828125 84.774224 l
467.337216 84.774224 l
471.846307 84.774224 l
476.355398 84.774224 l
480.864489 84.774224 l
485.37358 84.774224 l
489.88267 84.774224 l
494.391761 84.774224 l
498.900852 84.774224 l
503.409943 84.774224 l
507.919034 84.774224 l
512.428125 84.66286 l
stroke
grestore
0.750 0.750 0.000 setrgbcolor
gsave
446.4 345.6 66.03 39.45 clipbox
66.028125 746.843933 m
69.659538 426.170625 m
70.537216 348.666945 l
75.046307 211.795394 l
79.555398 211.795394 l
84.064489 211.795394 l
88.57358 211.795394 l
93.08267 211.795394 l
97.591761 204.623046 l
102.100852 195.702057 l
106.609943 195.702057 l
111.119034 182.076963 l
115.628125 182.076963 l
120.137216 182.076963 l
124.646307 178.123748 l
129.155398 172.029876 l
133.664489 172.029876 l
138.17358 172.029876 l
142.68267 143.256055 l
147.191761 143.256055 l
151.700852 143.256055 l
156.209943 109.833119 l
160.719034 109.833119 l
165.228125 109.833119 l
169.737216 109.833119 l
174.246307 109.833119 l
178.755398 109.833119 l
183.264489 109.833119 l
187.77358 109.833119 l
192.28267 104.808296 l
196.791761 104.808296 l
201.300852 104.808296 l
205.809943 100.492908 l
210.319034 100.492908 l
214.828125 100.492908 l
219.337216 98.649487 l
223.846307 98.649487 l
228.355398 98.649487 l
232.864489 98.649487 l
237.37358 98.649487 l
241.88267 98.649487 l
246.391761 98.649487 l
250.900852 98.649487 l
255.409943 98.649487 l
259.919034 97.469616 l
264.428125 96.041964 l
268.937216 96.041964 l
273.446307 89.334582 l
277.955398 89.334582 l
282.464489 89.334582 l
286.97358 89.334582 l
291.48267 89.334582 l
295.991761 89.334582 l
300.500852 89.334582 l
305.009943 89.334582 l
309.519034 89.334582 l
314.028125 89.334582 l
318.537216 89.334582 l
323.046307 89.334582 l
327.555398 89.334582 l
332.064489 89.334582 l
336.57358 87.559712 l
341.08267 87.559712 l
345.591761 82.926677 l
350.100852 82.926677 l
354.609943 82.926677 l
359.119034 82.926677 l
363.628125 81.445339 l
368.137216 81.445339 l
372.646307 80.431621 l
377.155398 80.431621 l
381.664489 80.431621 l
386.17358 80.431621 l
390.68267 80.431621 l
395.191761 80.431621 l
399.700852 80.431621 l
404.209943 76.770971 l
408.719034 76.770971 l
413.228125 76.770971 l
417.737216 76.770971 l
422.246307 76.770971 l
426.755398 76.770971 l
431.264489 76.770971 l
435.77358 76.770971 l
440.28267 76.770971 l
444.791761 76.770971 l
449.300852 76.770971 l
453.809943 76.770971 l
458.319034 76.722542 l
462.828125 76.722542 l
467.337216 76.722542 l
471.846307 76.722542 l
476.355398 76.722542 l
480.864489 76.722542 l
485.37358 76.722542 l
489.88267 76.722542 l
494.391761 76.722542 l
498.900852 76.722542 l
503.409943 76.722542 l
507.919034 76.722542 l
512.428125 76.722542 l
stroke
grestore
0.000 setgray
gsave
446.4 345.6 66.03 39.45 clipbox
66.028125 387.511226 m
70.537216 370.628507 l
75.046307 319.478558 l
79.555398 301.340364 l
84.064489 292.791848 l
88.57358 194.809606 l
93.08267 194.809606 l
97.591761 194.809606 l
102.100852 194.809606 l
106.609943 194.809606 l
111.119034 194.809606 l
115.628125 188.217914 l
120.137216 134.281594 l
124.646307 134.281594 l
129.155398 134.281594 l
133.664489 134.281594 l
138.17358 134.281594 l
142.68267 134.281594 l
147.191761 134.281594 l
151.700852 134.281594 l
156.209943 134.281594 l
160.719034 134.281594 l
165.228125 113.8838 l
169.737216 113.8838 l
174.246307 113.8838 l
178.755398 113.8838 l
183.264489 113.8838 l
187.77358 106.17619 l
192.28267 106.17619 l
196.791761 106.17619 l
201.300852 106.17619 l
205.809943 106.17619 l
210.319034 106.17619 l
214.828125 106.17619 l
219.337216 106.17619 l
223.846307 106.17619 l
228.355398 103.897662 l
232.864489 103.897662 l
237.37358 101.976044 l
241.88267 101.203686 l
246.391761 101.203686 l
250.900852 100.757867 l
255.409943 93.054996 l
259.919034 93.054996 l
264.428125 93.054996 l
268.937216 93.054996 l
273.446307 93.054996 l
277.955398 93.054996 l
282.464489 93.054996 l
286.97358 92.981259 l
291.48267 92.981259 l
295.991761 92.981259 l
300.500852 92.189456 l
305.009943 90.980515 l
309.519034 90.980515 l
314.028125 90.980515 l
318.537216 90.980515 l
323.046307 90.980515 l
327.555398 90.980515 l
332.064489 90.980515 l
336.57358 90.980515 l
341.08267 90.980515 l
345.591761 90.980515 l
350.100852 90.980515 l
354.609943 90.980515 l
359.119034 89.812532 l
363.628125 89.014052 l
368.137216 89.014052 l
372.646307 89.014052 l
377.155398 89.014052 l
381.664489 89.014052 l
386.17358 89.014052 l
390.68267 88.690934 l
395.191761 87.080043 l
399.700852 85.476876 l
404.209943 85.476876 l
408.719034 85.476876 l
413.228125 85.457744 l
417.737216 85.457744 l
422.246307 85.04271 l
426.755398 83.446875 l
431.264489 83.446875 l
435.77358 83.446875 l
440.28267 83.446875 l
444.791761 83.246321 l
449.300852 83.246321 l
453.809943 82.510162 l
458.319034 81.694008 l
462.828125 81.694008 l
467.337216 81.694008 l
471.846307 80.85405 l
476.355398 80.85405 l
480.864489 80.85405 l
485.37358 80.85405 l
489.88267 80.85405 l
494.391761 80.85405 l
498.900852 80.85405 l
503.409943 80.85405 l
507.919034 80.85405 l
512.428125 80.85405 l
stroke
grestore
0.000 0.000 1.000 setrgbcolor
gsave
446.4 345.6 66.03 39.45 clipbox
66.028125 216.668589 m
70.537216 216.668589 l
75.046307 216.668589 l
79.555398 216.668589 l
84.064489 216.668589 l
88.57358 216.668589 l
93.08267 216.668589 l
97.591761 216.668589 l
102.100852 216.668589 l
106.609943 216.668589 l
111.119034 216.668589 l
115.628125 198.608546 l
120.137216 198.608546 l
124.646307 192.47297 l
129.155398 142.57074 l
133.664489 142.57074 l
138.17358 142.57074 l
142.68267 142.57074 l
147.191761 142.57074 l
151.700852 142.57074 l
156.209943 142.57074 l
160.719034 142.57074 l
165.228125 142.57074 l
169.737216 142.57074 l
174.246307 142.57074 l
178.755398 130.63836 l
183.264489 130.63836 l
187.77358 107.784754 l
192.28267 107.784754 l
196.791761 107.784754 l
201.300852 107.784754 l
205.809943 107.784754 l
210.319034 107.784754 l
214.828125 107.784754 l
219.337216 107.784754 l
223.846307 107.784754 l
228.355398 107.784754 l
232.864489 107.784754 l
237.37358 107.784754 l
241.88267 107.784754 l
246.391761 107.784754 l
250.900852 103.538934 l
255.409943 96.660534 l
259.919034 96.660534 l
264.428125 96.660534 l
268.937216 96.660534 l
273.446307 96.660534 l
277.955398 96.660534 l
282.464489 96.660534 l
286.97358 96.660534 l
291.48267 94.908314 l
295.991761 94.908314 l
300.500852 94.908314 l
305.009943 94.908314 l
309.519034 94.908314 l
314.028125 94.82291 l
318.537216 93.862638 l
323.046307 92.614652 l
327.555398 90.943071 l
332.064489 90.329816 l
336.57358 90.329816 l
341.08267 82.598398 l
345.591761 80.698866 l
350.100852 80.698866 l
354.609943 80.698866 l
359.119034 80.698866 l
363.628125 80.698866 l
368.137216 80.698866 l
372.646307 80.698866 l
377.155398 80.698866 l
381.664489 79.375038 l
386.17358 79.375038 l
390.68267 79.375038 l
395.191761 79.375038 l
399.700852 79.375038 l
404.209943 79.375038 l
408.719034 79.375038 l
413.228125 79.375038 l
417.737216 79.375038 l
422.246307 79.375038 l
426.755398 78.581427 l
431.264489 78.581427 l
435.77358 78.581427 l
440.28267 78.461329 l
444.791761 78.03015 l
449.300852 78.03015 l
453.809943 77.964537 l
458.319034 77.775474 l
462.828125 77.775474 l
467.337216 77.775474 l
471.846307 77.539951 l
476.355398 77.439078 l
480.864489 77.439078 l
485.37358 77.439078 l
489.88267 77.415181 l
494.391761 77.225357 l
498.900852 77.225357 l
503.409943 77.225357 l
507.919034 77.225357 l
512.428125 77.225357 l
stroke
grestore
0.000 0.500 0.000 setrgbcolor
gsave
446.4 345.6 66.03 39.45 clipbox
66.028125 325.312031 m
70.537216 325.312031 l
75.046307 325.312031 l
79.555398 273.18807 l
84.064489 234.958761 l
88.57358 234.958761 l
93.08267 174.842244 l
97.591761 174.842244 l
102.100852 174.842244 l
106.609943 174.842244 l
111.119034 174.842244 l
115.628125 174.842244 l
120.137216 174.842244 l
124.646307 174.842244 l
129.155398 174.842244 l
133.664489 162.236632 l
138.17358 162.236632 l
142.68267 151.40732 l
147.191761 136.316951 l
151.700852 136.316951 l
156.209943 136.316951 l
160.719034 129.256372 l
165.228125 129.256372 l
169.737216 129.256372 l
174.246307 129.256372 l
178.755398 129.256372 l
183.264489 129.256372 l
187.77358 122.433292 l
192.28267 122.433292 l
196.791761 122.433292 l
201.300852 122.433292 l
205.809943 122.433292 l
210.319034 122.433292 l
214.828125 122.433292 l
219.337216 122.433292 l
223.846307 122.433292 l
228.355398 122.433292 l
232.864489 121.086836 l
237.37358 121.086836 l
241.88267 119.806571 l
246.391761 117.367555 l
250.900852 115.165 l
255.409943 113.91135 l
259.919034 108.207358 l
264.428125 108.207358 l
268.937216 108.207358 l
273.446307 97.511655 l
277.955398 97.511655 l
282.464489 97.511655 l
286.97358 97.511655 l
291.48267 97.511655 l
295.991761 97.511655 l
300.500852 97.511655 l
305.009943 96.392196 l
309.519034 96.392196 l
314.028125 96.392196 l
318.537216 96.392196 l
323.046307 96.392196 l
327.555398 96.392196 l
332.064489 96.392196 l
336.57358 92.632605 l
341.08267 92.632605 l
345.591761 92.632605 l
350.100852 92.632605 l
354.609943 92.632605 l
359.119034 92.632605 l
363.628125 92.632605 l
368.137216 92.632605 l
372.646307 92.632605 l
377.155398 92.632605 l
381.664489 92.632605 l
386.17358 92.632605 l
390.68267 92.632605 l
395.191761 90.190603 l
399.700852 86.512344 l
404.209943 82.716807 l
408.719034 82.716807 l
413.228125 82.716807 l
417.737216 82.716807 l
422.246307 82.716807 l
426.755398 82.716807 l
431.264489 82.141044 l
435.77358 81.888445 l
440.28267 81.888445 l
444.791761 81.888445 l
449.300852 81.888445 l
453.809943 81.88074 l
458.319034 81.689549 l
462.828125 81.680443 l
467.337216 81.680443 l
471.846307 81.11563 l
476.355398 81.11563 l
480.864489 81.11563 l
485.37358 81.11563 l
489.88267 81.11563 l
494.391761 81.11563 l
498.900852 80.795874 l
503.409943 80.789967 l
507.919034 80.77347 l
512.428125 80.77347 l
stroke
grestore
1.000 0.000 0.000 setrgbcolor
gsave
446.4 345.6 66.03 39.45 clipbox
66.028125 559.308644 m
68.036353 426.170625 m
70.537216 260.372786 l
75.046307 223.738636 l
79.555398 223.738636 l
84.064489 223.738636 l
88.57358 223.738636 l
93.08267 193.681593 l
97.591761 180.845193 l
102.100852 180.845193 l
106.609943 180.845193 l
111.119034 174.713832 l
115.628125 174.713832 l
120.137216 174.713832 l
124.646307 174.713832 l
129.155398 167.101388 l
133.664489 145.390863 l
138.17358 132.841974 l
142.68267 132.841974 l
147.191761 132.841974 l
151.700852 132.841974 l
156.209943 132.841974 l
160.719034 132.841974 l
165.228125 132.841974 l
169.737216 128.915633 l
174.246307 128.915633 l
178.755398 119.169346 l
183.264489 119.169346 l
187.77358 119.169346 l
192.28267 119.169346 l
196.791761 119.169346 l
201.300852 119.169346 l
205.809943 119.169346 l
210.319034 119.169346 l
214.828125 117.778648 l
219.337216 117.778648 l
223.846307 112.882539 l
228.355398 112.099743 l
232.864489 112.099743 l
237.37358 112.099743 l
241.88267 112.099743 l
246.391761 107.154615 l
250.900852 105.613581 l
255.409943 105.613581 l
259.919034 105.613581 l
264.428125 105.613581 l
268.937216 105.613581 l
273.446307 98.313375 l
277.955398 98.313375 l
282.464489 98.313375 l
286.97358 98.313375 l
291.48267 98.313375 l
295.991761 98.313375 l
300.500852 96.063623 l
305.009943 96.063623 l
309.519034 96.063623 l
314.028125 94.898451 l
318.537216 93.742597 l
323.046307 93.742597 l
327.555398 93.742597 l
332.064489 91.896025 l
336.57358 91.896025 l
341.08267 91.896025 l
345.591761 91.896025 l
350.100852 91.896025 l
354.609943 91.896025 l
359.119034 91.409699 l
363.628125 91.409699 l
368.137216 91.409699 l
372.646307 89.867277 l
377.155398 89.289185 l
381.664489 89.289185 l
386.17358 89.289185 l
390.68267 88.072016 l
395.191761 88.072016 l
399.700852 88.072016 l
404.209943 87.365699 l
408.719034 87.365699 l
413.228125 86.966934 l
417.737216 85.45107 l
422.246307 85.45107 l
426.755398 85.45107 l
431.264489 85.45107 l
435.77358 85.45107 l
440.28267 84.175564 l
444.791761 84.175564 l
449.300852 84.175564 l
453.809943 83.429794 l
458.319034 82.464258 l
462.828125 82.464258 l
467.337216 82.464258 l
471.846307 82.464258 l
476.355398 82.464258 l
480.864489 82.464258 l
485.37358 81.684312 l
489.88267 81.123213 l
494.391761 81.123213 l
498.900852 81.123213 l
503.409943 81.123213 l
507.919034 81.123213 l
512.428125 81.123213 l
stroke
grestore
0 setlinecap
[6 6] 0 setdash
gsave
446.4 345.6 66.03 39.45 clipbox
66.028125 76.722542 m
512.428125 76.722542 l
stroke
grestore
0 setlinejoin
2 setlinecap
[] 0 setdash
0.000 setgray
gsave
66.028125 385.05 m
512.428125 385.05 l
stroke
grestore
gsave
512.428125 39.45 m
512.428125 385.05 l
stroke
grestore
gsave
66.028125 39.45 m
512.428125 39.45 l
stroke
grestore
gsave
66.028125 39.45 m
66.028125 385.05 l
stroke
grestore
0.500 setlinewidth
1 setlinejoin
0 setlinecap
gsave
/o {
gsave
newpath
translate
0.5 setlinewidth
1 setlinejoin
0 setlinecap
0 0 m
0 4 l

gsave
0.000 setgray
fill
grestore
stroke
grestore
} bind def
66.0281 39.45 o
grestore
gsave
/o {
gsave
newpath
translate
0.5 setlinewidth
1 setlinejoin
0 setlinecap
0 0 m
0 -4 l

gsave
0.000 setgray
fill
grestore
stroke
grestore
} bind def
66.0281 385.05 o
grestore
/BitstreamVeraSans-Roman findfont
12.000 scalefont
setfont
gsave
62.207813 26.325000 translate
0.000000 rotate
0.000000 0.000000 m /zero glyphshow
grestore
gsave
/o {
gsave
newpath
translate
0.5 setlinewidth
1 setlinejoin
0 setlinecap
0 0 m
0 4 l

gsave
0.000 setgray
fill
grestore
stroke
grestore
} bind def
156.21 39.45 o
grestore
gsave
/o {
gsave
newpath
translate
0.5 setlinewidth
1 setlinejoin
0 setlinecap
0 0 m
0 -4 l

gsave
0.000 setgray
fill
grestore
stroke
grestore
} bind def
156.21 385.05 o
grestore
gsave
148.569318 26.325000 translate
0.000000 rotate
0.000000 0.000000 m /two glyphshow
7.634766 0.000000 m /zero glyphshow
grestore
gsave
/o {
gsave
newpath
translate
0.5 setlinewidth
1 setlinejoin
0 setlinecap
0 0 m
0 4 l

gsave
0.000 setgray
fill
grestore
stroke
grestore
} bind def
246.392 39.45 o
grestore
gsave
/o {
gsave
newpath
translate
0.5 setlinewidth
1 setlinejoin
0 setlinecap
0 0 m
0 -4 l

gsave
0.000 setgray
fill
grestore
stroke
grestore
} bind def
246.392 385.05 o
grestore
gsave
238.751136 26.325000 translate
0.000000 rotate
0.000000 0.000000 m /four glyphshow
7.634766 0.000000 m /zero glyphshow
grestore
gsave
/o {
gsave
newpath
translate
0.5 setlinewidth
1 setlinejoin
0 setlinecap
0 0 m
0 4 l

gsave
0.000 setgray
fill
grestore
stroke
grestore
} bind def
336.574 39.45 o
grestore
gsave
/o {
gsave
newpath
translate
0.5 setlinewidth
1 setlinejoin
0 setlinecap
0 0 m
0 -4 l

gsave
0.000 setgray
fill
grestore
stroke
grestore
} bind def
336.574 385.05 o
grestore
gsave
328.932955 26.325000 translate
0.000000 rotate
0.000000 0.000000 m /six glyphshow
7.634766 0.000000 m /zero glyphshow
grestore
gsave
/o {
gsave
newpath
translate
0.5 setlinewidth
1 setlinejoin
0 setlinecap
0 0 m
0 4 l

gsave
0.000 setgray
fill
grestore
stroke
grestore
} bind def
426.755 39.45 o
grestore
gsave
/o {
gsave
newpath
translate
0.5 setlinewidth
1 setlinejoin
0 setlinecap
0 0 m
0 -4 l

gsave
0.000 setgray
fill
grestore
stroke
grestore
} bind def
426.755 385.05 o
grestore
gsave
419.114773 26.325000 translate
0.000000 rotate
0.000000 0.000000 m /eight glyphshow
7.634766 0.000000 m /zero glyphshow
grestore
gsave
263.767188 9.700000 translate
0.000000 rotate
0.000000 0.000000 m /I glyphshow
3.539062 0.000000 m /t glyphshow
8.244141 0.000000 m /e glyphshow
15.626953 0.000000 m /r glyphshow
20.560547 0.000000 m /a glyphshow
27.914062 0.000000 m /t glyphshow
32.619141 0.000000 m /i glyphshow
35.953125 0.000000 m /o glyphshow
43.294922 0.000000 m /n glyphshow
grestore
gsave
/o {
gsave
newpath
translate
0.5 setlinewidth
1 setlinejoin
0 setlinecap
0 0 m
4 0 l

gsave
0.000 setgray
fill
grestore
stroke
grestore
} bind def
66.0281 102.928 o
grestore
gsave
/o {
gsave
newpath
translate
0.5 setlinewidth
1 setlinejoin
0 setlinecap
0 0 m
-4 0 l

gsave
0.000 setgray
fill
grestore
stroke
grestore
} bind def
512.428 102.928 o
grestore
gsave
23.825000 99.615051 translate
0.000000 rotate
0.000000 0.000000 m /one glyphshow
7.634766 0.000000 m /zero glyphshow
15.269531 0.000000 m /zero glyphshow
22.904297 0.000000 m /zero glyphshow
30.539062 0.000000 m /zero glyphshow
grestore
gsave
/o {
gsave
newpath
translate
0.5 setlinewidth
1 setlinejoin
0 setlinecap
0 0 m
4 0 l

gsave
0.000 setgray
fill
grestore
stroke
grestore
} bind def
66.0281 173.458 o
grestore
gsave
/o {
gsave
newpath
translate
0.5 setlinewidth
1 setlinejoin
0 setlinecap
0 0 m
-4 0 l

gsave
0.000 setgray
fill
grestore
stroke
grestore
} bind def
512.428 173.458 o
grestore
gsave
23.825000 170.145663 translate
0.000000 rotate
0.000000 0.000000 m /two glyphshow
7.634766 0.000000 m /zero glyphshow
15.269531 0.000000 m /zero glyphshow
22.904297 0.000000 m /zero glyphshow
30.539062 0.000000 m /zero glyphshow
grestore
gsave
/o {
gsave
newpath
translate
0.5 setlinewidth
1 setlinejoin
0 setlinecap
0 0 m
4 0 l

gsave
0.000 setgray
fill
grestore
stroke
grestore
} bind def
66.0281 243.989 o
grestore
gsave
/o {
gsave
newpath
translate
0.5 setlinewidth
1 setlinejoin
0 setlinecap
0 0 m
-4 0 l

gsave
0.000 setgray
fill
grestore
stroke
grestore
} bind def
512.428 243.989 o
grestore
gsave
23.825000 240.676276 translate
0.000000 rotate
0.000000 0.000000 m /three glyphshow
7.634766 0.000000 m /zero glyphshow
15.269531 0.000000 m /zero glyphshow
22.904297 0.000000 m /zero glyphshow
30.539062 0.000000 m /zero glyphshow
grestore
gsave
/o {
gsave
newpath
translate
0.5 setlinewidth
1 setlinejoin
0 setlinecap
0 0 m
4 0 l

gsave
0.000 setgray
fill
grestore
stroke
grestore
} bind def
66.0281 314.519 o
grestore
gsave
/o {
gsave
newpath
translate
0.5 setlinewidth
1 setlinejoin
0 setlinecap
0 0 m
-4 0 l

gsave
0.000 setgray
fill
grestore
stroke
grestore
} bind def
512.428 314.519 o
grestore
gsave
23.825000 311.206888 translate
0.000000 rotate
0.000000 0.000000 m /four glyphshow
7.634766 0.000000 m /zero glyphshow
15.269531 0.000000 m /zero glyphshow
22.904297 0.000000 m /zero glyphshow
30.539062 0.000000 m /zero glyphshow
grestore
gsave
/o {
gsave
newpath
translate
0.5 setlinewidth
1 setlinejoin
0 setlinecap
0 0 m
4 0 l

gsave
0.000 setgray
fill
grestore
stroke
grestore
} bind def
66.0281 385.05 o
grestore
gsave
/o {
gsave
newpath
translate
0.5 setlinewidth
1 setlinejoin
0 setlinecap
0 0 m
-4 0 l

gsave
0.000 setgray
fill
grestore
stroke
grestore
} bind def
512.428 385.05 o
grestore
gsave
23.825000 381.737500 translate
0.000000 rotate
0.000000 0.000000 m /five glyphshow
7.634766 0.000000 m /zero glyphshow
15.269531 0.000000 m /zero glyphshow
22.904297 0.000000 m /zero glyphshow
30.539062 0.000000 m /zero glyphshow
grestore
gsave
16.325000 191.031250 translate
90.000000 rotate
0.000000 0.000000 m /F glyphshow
6.902344 0.000000 m /i glyphshow
10.236328 0.000000 m /t glyphshow
14.941406 0.000000 m /n glyphshow
22.546875 0.000000 m /e glyphshow
29.929688 0.000000 m /s glyphshow
36.181641 0.000000 m /s glyphshow
grestore
gsave
70.537216 76.687276 translate
0.000000 rotate
0.000000 0.000000 m /six glyphshow
7.634766 0.000000 m /two glyphshow
15.269531 0.000000 m /eight glyphshow
22.904297 0.000000 m /four glyphshow
30.539062 0.000000 m /period glyphshow
34.353516 0.000000 m /five glyphshow
41.988281 0.000000 m /nine glyphshow
grestore
/BitstreamVeraSans-Roman findfont
14.400 scalefont
setfont
gsave
116.462500 407.330000 translate
0.000000 rotate
0.000000 0.000000 m /C glyphshow
10.037231 0.000000 m /o glyphshow
18.832092 0.000000 m /n glyphshow
27.942810 0.000000 m /v glyphshow
36.449890 0.000000 m /e glyphshow
45.293884 0.000000 m /r glyphshow
51.203918 0.000000 m /g glyphshow
60.328674 0.000000 m /e glyphshow
69.172668 0.000000 m /n glyphshow
78.283386 0.000000 m /c glyphshow
86.186829 0.000000 m /e glyphshow
95.030823 0.000000 m /space glyphshow
99.600220 0.000000 m /f glyphshow
104.660950 0.000000 m /o glyphshow
113.455811 0.000000 m /r glyphshow
119.365845 0.000000 m /space glyphshow
123.935242 0.000000 m /P glyphshow
132.603760 0.000000 m /S glyphshow
141.728516 0.000000 m /O glyphshow
153.043213 0.000000 m /comma glyphshow
157.612610 0.000000 m /space glyphshow
162.182007 0.000000 m /t glyphshow
167.818298 0.000000 m /e glyphshow
176.662292 0.000000 m /r glyphshow
182.572327 0.000000 m /r glyphshow
188.482361 0.000000 m /a glyphshow
197.291260 0.000000 m /i glyphshow
201.285095 0.000000 m /n glyphshow
210.395813 0.000000 m /comma glyphshow
214.965210 0.000000 m /space glyphshow
219.534607 0.000000 m /w glyphshow
231.291504 0.000000 m /o glyphshow
240.086365 0.000000 m /r glyphshow
245.996399 0.000000 m /k glyphshow
254.320984 0.000000 m /comma glyphshow
258.890381 0.000000 m /space glyphshow
263.459778 0.000000 m /a glyphshow
272.268677 0.000000 m /n glyphshow
281.379395 0.000000 m /d glyphshow
290.504150 0.000000 m /space glyphshow
295.073547 0.000000 m /r glyphshow
300.983582 0.000000 m /e glyphshow
309.827576 0.000000 m /w glyphshow
321.584473 0.000000 m /a glyphshow
330.393372 0.000000 m /r glyphshow
336.303406 0.000000 m /d glyphshow
grestore

end
showpage
