%!PS-Adobe-3.0 EPSF-3.0
%%Title: conv_PSO_a.eps
%%Creator: matplotlib version 1.5.1, http://matplotlib.org/
%%CreationDate: Sun Nov 11 19:45:47 2018
%%Orientation: portrait
%%BoundingBox: 46 183 565 608
%%EndComments
%%BeginProlog
/mpldict 8 dict def
mpldict begin
/m { moveto } bind def
/l { lineto } bind def
/r { rlineto } bind def
/c { curveto } bind def
/cl { closepath } bind def
/box {
m
1 index 0 r
0 exch r
neg 0 r
cl
} bind def
/clipbox {
box
clip
newpath
} bind def
%!PS-Adobe-3.0 Resource-Font
%%Title: Bitstream Vera Sans
%%Copyright: Copyright (c) 2003 by Bitstream, Inc. All Rights Reserved.
%%Creator: Converted from TrueType to type 3 by PPR
25 dict begin
/_d{bind def}bind def
/_m{moveto}_d
/_l{lineto}_d
/_cl{closepath eofill}_d
/_c{curveto}_d
/_sc{7 -1 roll{setcachedevice}{pop pop pop pop pop pop}ifelse}_d
/_e{exec}_d
/FontName /BitstreamVeraSans-Roman def
/PaintType 0 def
/FontMatrix[.001 0 0 .001 0 0]def
/FontBBox[-183 -236 1287 928]def
/FontType 3 def
/Encoding [ /space /comma /period /zero /one /two /three /four /six /eight /nine /C /F /I /O /P /S /a /c /e /f /g /i /l /n /o /r /s /t /v /y ] def
/FontInfo 10 dict dup begin
/FamilyName (Bitstream Vera Sans) def
/FullName (Bitstream Vera Sans) def
/Notice (Copyright (c) 2003 by Bitstream, Inc. All Rights Reserved. Bitstream Vera is a trademark of Bitstream, Inc.) def
/Weight (Roman) def
/Version (Release 1.10) def
/ItalicAngle 0.0 def
/isFixedPitch false def
/UnderlinePosition -213 def
/UnderlineThickness 143 def
end readonly def
/CharStrings 31 dict dup begin
/space{318 0 0 0 0 0 _sc
}_d
/comma{318 0 77 -115 220 124 _sc
117 124 _m
220 124 _l
220 40 _l
140 -115 _l
77 -115 _l
117 40 _l
117 124 _l
_cl}_d
/period{318 0 107 0 210 124 _sc
107 124 _m
210 124 _l
210 0 _l
107 0 _l
107 124 _l
_cl}_d
/zero{636 0 66 -13 570 742 _sc
318 664 _m
267 664 229 639 203 589 _c
177 539 165 464 165 364 _c
165 264 177 189 203 139 _c
229 89 267 64 318 64 _c
369 64 407 89 433 139 _c
458 189 471 264 471 364 _c
471 464 458 539 433 589 _c
407 639 369 664 318 664 _c
318 742 _m
399 742 461 709 505 645 _c
548 580 570 486 570 364 _c
570 241 548 147 505 83 _c
461 19 399 -13 318 -13 _c
236 -13 173 19 130 83 _c
87 147 66 241 66 364 _c
66 486 87 580 130 645 _c
173 709 236 742 318 742 _c
_cl}_d
/one{636 0 110 0 544 729 _sc
124 83 _m
285 83 _l
285 639 _l
110 604 _l
110 694 _l
284 729 _l
383 729 _l
383 83 _l
544 83 _l
544 0 _l
124 0 _l
124 83 _l
_cl}_d
/two{{636 0 73 0 536 742 _sc
192 83 _m
536 83 _l
536 0 _l
73 0 _l
73 83 _l
110 121 161 173 226 239 _c
290 304 331 346 348 365 _c
380 400 402 430 414 455 _c
426 479 433 504 433 528 _c
433 566 419 598 392 622 _c
365 646 330 659 286 659 _c
255 659 222 653 188 643 _c
154 632 117 616 78 594 _c
78 694 _l
118 710 155 722 189 730 _c
223 738 255 742 284 742 _c
}_e{359 742 419 723 464 685 _c
509 647 532 597 532 534 _c
532 504 526 475 515 449 _c
504 422 484 390 454 354 _c
446 344 420 317 376 272 _c
332 227 271 164 192 83 _c
_cl}_e}_d
/three{{636 0 76 -13 556 742 _sc
406 393 _m
453 383 490 362 516 330 _c
542 298 556 258 556 212 _c
556 140 531 84 482 45 _c
432 6 362 -13 271 -13 _c
240 -13 208 -10 176 -4 _c
144 1 110 10 76 22 _c
76 117 _l
103 101 133 89 166 81 _c
198 73 232 69 268 69 _c
330 69 377 81 409 105 _c
441 129 458 165 458 212 _c
458 254 443 288 413 312 _c
383 336 341 349 287 349 _c
}_e{202 349 _l
202 430 _l
291 430 _l
339 430 376 439 402 459 _c
428 478 441 506 441 543 _c
441 580 427 609 401 629 _c
374 649 336 659 287 659 _c
260 659 231 656 200 650 _c
169 644 135 635 98 623 _c
98 711 _l
135 721 170 729 203 734 _c
235 739 266 742 296 742 _c
370 742 429 725 473 691 _c
517 657 539 611 539 553 _c
539 513 527 479 504 451 _c
481 423 448 403 406 393 _c
_cl}_e}_d
/four{636 0 49 0 580 729 _sc
378 643 _m
129 254 _l
378 254 _l
378 643 _l
352 729 _m
476 729 _l
476 254 _l
580 254 _l
580 172 _l
476 172 _l
476 0 _l
378 0 _l
378 172 _l
49 172 _l
49 267 _l
352 729 _l
_cl}_d
/six{{636 0 70 -13 573 742 _sc
330 404 _m
286 404 251 388 225 358 _c
199 328 186 286 186 234 _c
186 181 199 139 225 109 _c
251 79 286 64 330 64 _c
374 64 409 79 435 109 _c
461 139 474 181 474 234 _c
474 286 461 328 435 358 _c
409 388 374 404 330 404 _c
526 713 _m
526 623 _l
501 635 476 644 451 650 _c
425 656 400 659 376 659 _c
310 659 260 637 226 593 _c
}_e{192 549 172 482 168 394 _c
187 422 211 444 240 459 _c
269 474 301 482 336 482 _c
409 482 467 459 509 415 _c
551 371 573 310 573 234 _c
573 159 550 99 506 54 _c
462 9 403 -13 330 -13 _c
246 -13 181 19 137 83 _c
92 147 70 241 70 364 _c
70 479 97 571 152 639 _c
206 707 280 742 372 742 _c
396 742 421 739 447 735 _c
472 730 498 723 526 713 _c
_cl}_e}_d
/eight{{636 0 68 -13 568 742 _sc
318 346 _m
271 346 234 333 207 308 _c
180 283 167 249 167 205 _c
167 161 180 126 207 101 _c
234 76 271 64 318 64 _c
364 64 401 76 428 102 _c
455 127 469 161 469 205 _c
469 249 455 283 429 308 _c
402 333 365 346 318 346 _c
219 388 _m
177 398 144 418 120 447 _c
96 476 85 511 85 553 _c
85 611 105 657 147 691 _c
188 725 245 742 318 742 _c
}_e{390 742 447 725 489 691 _c
530 657 551 611 551 553 _c
551 511 539 476 515 447 _c
491 418 459 398 417 388 _c
464 377 501 355 528 323 _c
554 291 568 251 568 205 _c
568 134 546 80 503 43 _c
459 5 398 -13 318 -13 _c
237 -13 175 5 132 43 _c
89 80 68 134 68 205 _c
68 251 81 291 108 323 _c
134 355 171 377 219 388 _c
183 544 _m
183 506 194 476 218 455 _c
}_e{242 434 275 424 318 424 _c
360 424 393 434 417 455 _c
441 476 453 506 453 544 _c
453 582 441 611 417 632 _c
393 653 360 664 318 664 _c
275 664 242 653 218 632 _c
194 611 183 582 183 544 _c
_cl}_e}_d
/nine{{636 0 63 -13 566 742 _sc
110 15 _m
110 105 _l
134 93 159 84 185 78 _c
210 72 235 69 260 69 _c
324 69 374 90 408 134 _c
442 178 462 244 468 334 _c
448 306 424 284 396 269 _c
367 254 335 247 300 247 _c
226 247 168 269 126 313 _c
84 357 63 417 63 494 _c
63 568 85 628 129 674 _c
173 719 232 742 306 742 _c
390 742 455 709 499 645 _c
543 580 566 486 566 364 _c
}_e{566 248 538 157 484 89 _c
429 21 356 -13 264 -13 _c
239 -13 214 -10 189 -6 _c
163 -2 137 5 110 15 _c
306 324 _m
350 324 385 339 411 369 _c
437 399 450 441 450 494 _c
450 546 437 588 411 618 _c
385 648 350 664 306 664 _c
262 664 227 648 201 618 _c
175 588 162 546 162 494 _c
162 441 175 399 201 369 _c
227 339 262 324 306 324 _c
_cl}_e}_d
/C{{698 0 56 -13 644 742 _sc
644 673 _m
644 569 _l
610 599 575 622 537 638 _c
499 653 460 661 418 661 _c
334 661 270 635 226 584 _c
182 533 160 460 160 364 _c
160 268 182 194 226 143 _c
270 92 334 67 418 67 _c
460 67 499 74 537 90 _c
575 105 610 128 644 159 _c
644 56 _l
609 32 572 15 534 4 _c
496 -7 455 -13 412 -13 _c
302 -13 215 20 151 87 _c
}_e{87 154 56 246 56 364 _c
56 481 87 573 151 641 _c
215 708 302 742 412 742 _c
456 742 497 736 535 725 _c
573 713 610 696 644 673 _c
_cl}_e}_d
/F{575 0 98 0 517 729 _sc
98 729 _m
517 729 _l
517 646 _l
197 646 _l
197 431 _l
486 431 _l
486 348 _l
197 348 _l
197 0 _l
98 0 _l
98 729 _l
_cl}_d
/I{295 0 98 0 197 729 _sc
98 729 _m
197 729 _l
197 0 _l
98 0 _l
98 729 _l
_cl}_d
/O{787 0 56 -13 731 742 _sc
394 662 _m
322 662 265 635 223 582 _c
181 528 160 456 160 364 _c
160 272 181 199 223 146 _c
265 92 322 66 394 66 _c
465 66 522 92 564 146 _c
606 199 627 272 627 364 _c
627 456 606 528 564 582 _c
522 635 465 662 394 662 _c
394 742 _m
496 742 577 707 639 639 _c
700 571 731 479 731 364 _c
731 248 700 157 639 89 _c
577 21 496 -13 394 -13 _c
291 -13 209 21 148 89 _c
86 157 56 248 56 364 _c
56 479 86 571 148 639 _c
209 707 291 742 394 742 _c
_cl}_d
/P{603 0 98 0 569 729 _sc
197 648 _m
197 374 _l
321 374 _l
367 374 402 385 427 409 _c
452 433 465 467 465 511 _c
465 555 452 588 427 612 _c
402 636 367 648 321 648 _c
197 648 _l
98 729 _m
321 729 _l
402 729 464 710 506 673 _c
548 636 569 582 569 511 _c
569 439 548 384 506 348 _c
464 311 402 293 321 293 _c
197 293 _l
197 0 _l
98 0 _l
98 729 _l
_cl}_d
/S{{635 0 66 -13 579 742 _sc
535 705 _m
535 609 _l
497 627 462 640 429 649 _c
395 657 363 662 333 662 _c
279 662 237 651 208 631 _c
179 610 165 580 165 542 _c
165 510 174 485 194 469 _c
213 452 250 439 304 429 _c
364 417 _l
437 403 491 378 526 343 _c
561 307 579 260 579 201 _c
579 130 555 77 508 41 _c
460 5 391 -13 300 -13 _c
265 -13 228 -9 189 -2 _c
}_e{150 5 110 16 69 32 _c
69 134 _l
109 111 148 94 186 83 _c
224 71 262 66 300 66 _c
356 66 399 77 430 99 _c
460 121 476 152 476 194 _c
476 230 465 258 443 278 _c
421 298 385 313 335 323 _c
275 335 _l
201 349 148 372 115 404 _c
82 435 66 478 66 534 _c
66 598 88 649 134 686 _c
179 723 242 742 322 742 _c
356 742 390 739 426 733 _c
461 727 497 717 535 705 _c
}_e{_cl}_e}_d
/a{{613 0 60 -13 522 560 _sc
343 275 _m
270 275 220 266 192 250 _c
164 233 150 205 150 165 _c
150 133 160 107 181 89 _c
202 70 231 61 267 61 _c
317 61 357 78 387 114 _c
417 149 432 196 432 255 _c
432 275 _l
343 275 _l
522 312 _m
522 0 _l
432 0 _l
432 83 _l
411 49 385 25 355 10 _c
325 -5 287 -13 243 -13 _c
187 -13 142 2 109 33 _c
76 64 60 106 60 159 _c
}_e{60 220 80 266 122 298 _c
163 329 224 345 306 345 _c
432 345 _l
432 354 _l
432 395 418 427 391 450 _c
364 472 326 484 277 484 _c
245 484 215 480 185 472 _c
155 464 127 453 100 439 _c
100 522 _l
132 534 164 544 195 550 _c
226 556 256 560 286 560 _c
365 560 424 539 463 498 _c
502 457 522 395 522 312 _c
_cl}_e}_d
/c{{550 0 55 -13 488 560 _sc
488 526 _m
488 442 _l
462 456 437 466 411 473 _c
385 480 360 484 334 484 _c
276 484 230 465 198 428 _c
166 391 150 339 150 273 _c
150 206 166 154 198 117 _c
230 80 276 62 334 62 _c
360 62 385 65 411 72 _c
437 79 462 90 488 104 _c
488 21 _l
462 9 436 0 410 -5 _c
383 -10 354 -13 324 -13 _c
242 -13 176 12 128 64 _c
}_e{79 115 55 185 55 273 _c
55 362 79 432 128 483 _c
177 534 244 560 330 560 _c
358 560 385 557 411 551 _c
437 545 463 537 488 526 _c
_cl}_e}_d
/e{{615 0 55 -13 562 560 _sc
562 296 _m
562 252 _l
149 252 _l
153 190 171 142 205 110 _c
238 78 284 62 344 62 _c
378 62 412 66 444 74 _c
476 82 509 95 541 113 _c
541 28 _l
509 14 476 3 442 -3 _c
408 -9 373 -13 339 -13 _c
251 -13 182 12 131 62 _c
80 112 55 181 55 268 _c
55 357 79 428 127 481 _c
175 533 241 560 323 560 _c
397 560 455 536 498 489 _c
}_e{540 441 562 377 562 296 _c
472 322 _m
471 371 457 410 431 440 _c
404 469 368 484 324 484 _c
274 484 234 469 204 441 _c
174 413 156 373 152 322 _c
472 322 _l
_cl}_e}_d
/f{352 0 23 0 371 760 _sc
371 760 _m
371 685 _l
285 685 _l
253 685 230 678 218 665 _c
205 652 199 629 199 595 _c
199 547 _l
347 547 _l
347 477 _l
199 477 _l
199 0 _l
109 0 _l
109 477 _l
23 477 _l
23 547 _l
109 547 _l
109 585 _l
109 645 123 690 151 718 _c
179 746 224 760 286 760 _c
371 760 _l
_cl}_d
/g{{635 0 55 -207 544 560 _sc
454 280 _m
454 344 440 395 414 431 _c
387 467 349 485 301 485 _c
253 485 215 467 188 431 _c
161 395 148 344 148 280 _c
148 215 161 165 188 129 _c
215 93 253 75 301 75 _c
349 75 387 93 414 129 _c
440 165 454 215 454 280 _c
544 68 _m
544 -24 523 -93 482 -139 _c
440 -184 377 -207 292 -207 _c
260 -207 231 -204 203 -200 _c
175 -195 147 -188 121 -178 _c
}_e{121 -91 _l
147 -105 173 -115 199 -122 _c
225 -129 251 -133 278 -133 _c
336 -133 380 -117 410 -87 _c
439 -56 454 -10 454 52 _c
454 96 _l
435 64 411 40 382 24 _c
353 8 319 0 279 0 _c
211 0 157 25 116 76 _c
75 127 55 195 55 280 _c
55 364 75 432 116 483 _c
157 534 211 560 279 560 _c
319 560 353 552 382 536 _c
411 520 435 496 454 464 _c
454 547 _l
544 547 _l
}_e{544 68 _l
_cl}_e}_d
/i{278 0 94 0 184 760 _sc
94 547 _m
184 547 _l
184 0 _l
94 0 _l
94 547 _l
94 760 _m
184 760 _l
184 646 _l
94 646 _l
94 760 _l
_cl}_d
/l{278 0 94 0 184 760 _sc
94 760 _m
184 760 _l
184 0 _l
94 0 _l
94 760 _l
_cl}_d
/n{634 0 91 0 549 560 _sc
549 330 _m
549 0 _l
459 0 _l
459 327 _l
459 379 448 417 428 443 _c
408 469 378 482 338 482 _c
289 482 251 466 223 435 _c
195 404 181 362 181 309 _c
181 0 _l
91 0 _l
91 547 _l
181 547 _l
181 462 _l
202 494 227 519 257 535 _c
286 551 320 560 358 560 _c
420 560 468 540 500 501 _c
532 462 549 405 549 330 _c
_cl}_d
/o{612 0 55 -13 557 560 _sc
306 484 _m
258 484 220 465 192 427 _c
164 389 150 338 150 273 _c
150 207 163 156 191 118 _c
219 80 257 62 306 62 _c
354 62 392 80 420 118 _c
448 156 462 207 462 273 _c
462 337 448 389 420 427 _c
392 465 354 484 306 484 _c
306 560 _m
384 560 445 534 490 484 _c
534 433 557 363 557 273 _c
557 183 534 113 490 63 _c
445 12 384 -13 306 -13 _c
227 -13 165 12 121 63 _c
77 113 55 183 55 273 _c
55 363 77 433 121 484 _c
165 534 227 560 306 560 _c
_cl}_d
/r{411 0 91 0 411 560 _sc
411 463 _m
401 469 390 473 378 476 _c
366 478 353 480 339 480 _c
288 480 249 463 222 430 _c
194 397 181 350 181 288 _c
181 0 _l
91 0 _l
91 547 _l
181 547 _l
181 462 _l
199 495 224 520 254 536 _c
284 552 321 560 365 560 _c
371 560 378 559 386 559 _c
393 558 401 557 411 555 _c
411 463 _l
_cl}_d
/s{{521 0 54 -13 472 560 _sc
443 531 _m
443 446 _l
417 458 391 468 364 475 _c
336 481 308 485 279 485 _c
234 485 200 478 178 464 _c
156 450 145 430 145 403 _c
145 382 153 366 169 354 _c
185 342 217 330 265 320 _c
296 313 _l
360 299 405 279 432 255 _c
458 230 472 195 472 151 _c
472 100 452 60 412 31 _c
372 1 316 -13 246 -13 _c
216 -13 186 -10 154 -5 _c
}_e{122 0 89 8 54 20 _c
54 113 _l
87 95 120 82 152 74 _c
184 65 216 61 248 61 _c
290 61 323 68 346 82 _c
368 96 380 117 380 144 _c
380 168 371 187 355 200 _c
339 213 303 226 247 238 _c
216 245 _l
160 257 119 275 95 299 _c
70 323 58 356 58 399 _c
58 450 76 490 112 518 _c
148 546 200 560 268 560 _c
301 560 332 557 362 552 _c
391 547 418 540 443 531 _c
}_e{_cl}_e}_d
/t{392 0 27 0 368 702 _sc
183 702 _m
183 547 _l
368 547 _l
368 477 _l
183 477 _l
183 180 _l
183 135 189 106 201 94 _c
213 81 238 75 276 75 _c
368 75 _l
368 0 _l
276 0 _l
206 0 158 13 132 39 _c
106 65 93 112 93 180 _c
93 477 _l
27 477 _l
27 547 _l
93 547 _l
93 702 _l
183 702 _l
_cl}_d
/v{592 0 30 0 562 547 _sc
30 547 _m
125 547 _l
296 88 _l
467 547 _l
562 547 _l
357 0 _l
235 0 _l
30 547 _l
_cl}_d
/y{592 0 30 -207 562 547 _sc
322 -50 _m
296 -114 271 -157 247 -177 _c
223 -197 191 -207 151 -207 _c
79 -207 _l
79 -132 _l
132 -132 _l
156 -132 175 -126 189 -114 _c
203 -102 218 -75 235 -31 _c
251 9 _l
30 547 _l
125 547 _l
296 119 _l
467 547 _l
562 547 _l
322 -50 _l
_cl}_d
end readonly def

/BuildGlyph
 {exch begin
 CharStrings exch
 2 copy known not{pop /.notdef}if
 true 3 1 roll get exec
 end}_d

/BuildChar {
 1 index /Encoding get exch get
 1 index /BuildGlyph get exec
}_d

FontName currentdict end definefont pop
end
%%EndProlog
mpldict begin
46.186 183.415 translate
519.628 425.171 0 0 clipbox
100000 setmiterlimit
gsave
0 0 m
519.628125 0 l
519.628125 425.170625 l
0 425.170625 l
cl
1.000 setgray
fill
grestore
gsave
66.028125 39.45 m
512.428125 39.45 l
512.428125 385.05 l
66.028125 385.05 l
cl
1.000 setgray
fill
grestore
1.000 setlinewidth
1 setlinejoin
2 setlinecap
[] 0 setdash
0.000 0.000 1.000 setrgbcolor
gsave
446.4 345.6 66.03 39.45 clipbox
66.028125 1809.018329 m
74.234619 426.170625 m
75.046307 122.595254 l
79.555398 122.595254 l
84.064489 95.210353 l
88.57358 95.210353 l
93.08267 82.111584 l
97.591761 82.111584 l
102.100852 82.111584 l
106.609943 82.111584 l
111.119034 82.111584 l
115.628125 82.111584 l
120.137216 78.634637 l
124.646307 78.634637 l
129.155398 75.187512 l
133.664489 75.187512 l
138.17358 73.862286 l
142.68267 73.862286 l
147.191761 73.862286 l
151.700852 73.862286 l
156.209943 73.862286 l
160.719034 73.862286 l
165.228125 73.862286 l
169.737216 68.480942 l
174.246307 68.480942 l
178.755398 68.480942 l
183.264489 68.480942 l
187.77358 68.480942 l
192.28267 68.028523 l
196.791761 68.028523 l
201.300852 68.028523 l
205.809943 68.028523 l
210.319034 66.115728 l
214.828125 62.245765 l
219.337216 62.245765 l
223.846307 62.245765 l
228.355398 62.245765 l
232.864489 62.245765 l
237.37358 61.086585 l
241.88267 61.086585 l
246.391761 60.492985 l
250.900852 60.446257 l
255.409943 60.446257 l
259.919034 60.446257 l
264.428125 58.491612 l
268.937216 58.491612 l
273.446307 58.491612 l
277.955398 58.491612 l
282.464489 58.491612 l
286.97358 58.491612 l
291.48267 58.491612 l
295.991761 56.995069 l
300.500852 56.995069 l
305.009943 56.995069 l
309.519034 56.995069 l
314.028125 56.995069 l
318.537216 56.598845 l
323.046307 56.598845 l
327.555398 56.598845 l
332.064489 55.108448 l
336.57358 55.108448 l
341.08267 55.108448 l
345.591761 54.869047 l
350.100852 54.869047 l
354.609943 54.869047 l
359.119034 54.869047 l
363.628125 54.869047 l
368.137216 54.869047 l
372.646307 54.648728 l
377.155398 54.648728 l
381.664489 54.648728 l
386.17358 54.648728 l
390.68267 54.648728 l
395.191761 54.648728 l
399.700852 54.209386 l
404.209943 54.209386 l
408.719034 54.209386 l
413.228125 54.209386 l
417.737216 54.209386 l
422.246307 54.209386 l
426.755398 54.209386 l
431.264489 53.93338 l
435.77358 53.840239 l
440.28267 53.840239 l
444.791761 53.840239 l
449.300852 53.780509 l
453.809943 53.780509 l
458.319034 53.759794 l
462.828125 53.429538 l
467.337216 53.334325 l
471.846307 53.334325 l
476.355398 53.334325 l
480.864489 53.334325 l
485.37358 53.334325 l
489.88267 53.334325 l
494.391761 53.334325 l
498.900852 53.334325 l
503.409943 53.334325 l
507.919034 53.334325 l
512.428125 53.334325 l
stroke
grestore
0.000 0.500 0.000 setrgbcolor
gsave
446.4 345.6 66.03 39.45 clipbox
66.028125 328.717752 m
70.537216 109.090572 l
75.046307 109.090572 l
79.555398 104.871848 l
84.064489 97.504516 l
88.57358 78.32071 l
93.08267 78.32071 l
97.591761 78.32071 l
102.100852 78.32071 l
106.609943 78.32071 l
111.119034 78.32071 l
115.628125 78.32071 l
120.137216 78.32071 l
124.646307 78.32071 l
129.155398 71.814821 l
133.664489 71.814821 l
138.17358 71.742233 l
142.68267 71.742233 l
147.191761 71.742233 l
151.700852 71.742233 l
156.209943 71.742233 l
160.719034 71.742233 l
165.228125 71.742233 l
169.737216 71.742233 l
174.246307 69.430551 l
178.755398 69.430551 l
183.264489 69.430551 l
187.77358 65.687428 l
192.28267 64.969828 l
196.791761 64.969828 l
201.300852 64.969828 l
205.809943 64.969828 l
210.319034 64.969828 l
214.828125 64.969828 l
219.337216 64.512944 l
223.846307 64.243035 l
228.355398 63.6422 l
232.864489 61.559259 l
237.37358 61.559259 l
241.88267 61.073824 l
246.391761 61.073824 l
250.900852 61.073824 l
255.409943 61.073824 l
259.919034 59.98323 l
264.428125 59.508367 l
268.937216 58.605696 l
273.446307 58.605696 l
277.955398 58.605696 l
282.464489 58.605696 l
286.97358 58.605696 l
291.48267 57.319516 l
295.991761 56.816622 l
300.500852 55.162034 l
305.009943 55.162034 l
309.519034 55.162034 l
314.028125 55.162034 l
318.537216 55.162034 l
323.046307 55.162034 l
327.555398 54.272822 l
332.064489 53.909611 l
336.57358 53.909611 l
341.08267 53.909611 l
345.591761 53.909611 l
350.100852 53.909611 l
354.609943 53.909611 l
359.119034 53.909611 l
363.628125 53.909611 l
368.137216 53.909611 l
372.646307 53.909611 l
377.155398 53.909611 l
381.664489 53.909611 l
386.17358 53.909611 l
390.68267 53.566905 l
395.191761 53.566905 l
399.700852 53.544623 l
404.209943 53.544623 l
408.719034 53.518134 l
413.228125 53.518134 l
417.737216 53.518134 l
422.246307 53.518134 l
426.755398 53.518134 l
431.264489 53.518134 l
435.77358 53.518134 l
440.28267 53.462499 l
444.791761 53.379956 l
449.300852 53.379956 l
453.809943 53.379956 l
458.319034 53.379956 l
462.828125 53.379956 l
467.337216 53.331566 l
471.846307 53.331566 l
476.355398 53.331566 l
480.864489 53.331566 l
485.37358 53.331566 l
489.88267 53.331566 l
494.391761 53.331566 l
498.900852 53.331566 l
503.409943 53.331566 l
507.919034 53.331566 l
512.428125 53.331566 l
stroke
grestore
1.000 0.000 0.000 setrgbcolor
gsave
446.4 345.6 66.03 39.45 clipbox
66.028125 149.163766 m
70.537216 149.163766 l
75.046307 94.044916 l
79.555398 94.044916 l
84.064489 94.044916 l
88.57358 80.881805 l
93.08267 80.881805 l
97.591761 79.930033 l
102.100852 79.930033 l
106.609943 79.930033 l
111.119034 79.930033 l
115.628125 79.930033 l
120.137216 79.930033 l
124.646307 79.930033 l
129.155398 72.194201 l
133.664489 72.194201 l
138.17358 67.121198 l
142.68267 67.121198 l
147.191761 67.121198 l
151.700852 67.121198 l
156.209943 67.121198 l
160.719034 67.121198 l
165.228125 66.741696 l
169.737216 66.741696 l
174.246307 66.741696 l
178.755398 66.741696 l
183.264489 66.741696 l
187.77358 66.741696 l
192.28267 63.177593 l
196.791761 63.177593 l
201.300852 63.177593 l
205.809943 59.105803 l
210.319034 59.105803 l
214.828125 59.105803 l
219.337216 59.105803 l
223.846307 59.105803 l
228.355398 59.105803 l
232.864489 58.920681 l
237.37358 58.920681 l
241.88267 58.920681 l
246.391761 58.920681 l
250.900852 58.920681 l
255.409943 58.920681 l
259.919034 58.920681 l
264.428125 57.54641 l
268.937216 57.54641 l
273.446307 57.54641 l
277.955398 57.54641 l
282.464489 57.54641 l
286.97358 57.376843 l
291.48267 57.376843 l
295.991761 57.376843 l
300.500852 57.376843 l
305.009943 57.376843 l
309.519034 57.149375 l
314.028125 57.149375 l
318.537216 55.688846 l
323.046307 55.688846 l
327.555398 55.688846 l
332.064489 55.688846 l
336.57358 55.115581 l
341.08267 55.115581 l
345.591761 55.115581 l
350.100852 55.115581 l
354.609943 55.115581 l
359.119034 54.807479 l
363.628125 54.807479 l
368.137216 54.807479 l
372.646307 54.807479 l
377.155398 54.70678 l
381.664489 54.288774 l
386.17358 54.288774 l
390.68267 54.288774 l
395.191761 54.184751 l
399.700852 54.184751 l
404.209943 54.184751 l
408.719034 54.079062 l
413.228125 54.079062 l
417.737216 54.064821 l
422.246307 54.052794 l
426.755398 54.035477 l
431.264489 53.981149 l
435.77358 53.62694 l
440.28267 53.62694 l
444.791761 53.62694 l
449.300852 53.62694 l
453.809943 53.62694 l
458.319034 53.62694 l
462.828125 53.533934 l
467.337216 53.533934 l
471.846307 53.533934 l
476.355398 53.533934 l
480.864489 53.5174 l
485.37358 53.441239 l
489.88267 53.441239 l
494.391761 53.441239 l
498.900852 53.441239 l
503.409943 53.441239 l
507.919034 53.441239 l
512.428125 53.441239 l
stroke
grestore
0.000 0.750 0.750 setrgbcolor
gsave
446.4 345.6 66.03 39.45 clipbox
66.028125 738.120213 m
73.879102 426.170625 m
75.046307 317.217487 l
79.555398 88.703775 l
84.064489 88.703775 l
88.57358 84.931692 l
93.08267 84.931692 l
97.591761 84.931692 l
102.100852 84.931692 l
106.609943 84.931692 l
111.119034 84.931692 l
115.628125 79.382404 l
120.137216 79.382404 l
124.646307 79.382404 l
129.155398 79.382404 l
133.664489 79.382404 l
138.17358 78.917897 l
142.68267 78.917897 l
147.191761 77.442695 l
151.700852 77.442695 l
156.209943 70.783927 l
160.719034 70.783927 l
165.228125 70.783927 l
169.737216 70.783927 l
174.246307 70.783927 l
178.755398 70.783927 l
183.264489 63.516919 l
187.77358 63.516919 l
192.28267 63.516919 l
196.791761 63.516919 l
201.300852 63.516919 l
205.809943 63.516919 l
210.319034 63.516919 l
214.828125 63.516919 l
219.337216 61.108658 l
223.846307 61.108658 l
228.355398 61.108658 l
232.864489 61.108658 l
237.37358 58.95388 l
241.88267 58.95388 l
246.391761 58.787971 l
250.900852 58.564893 l
255.409943 58.564893 l
259.919034 58.564893 l
264.428125 57.440194 l
268.937216 56.600197 l
273.446307 56.600197 l
277.955398 56.600197 l
282.464489 56.600197 l
286.97358 56.600197 l
291.48267 56.600197 l
295.991761 56.600197 l
300.500852 56.600197 l
305.009943 56.600197 l
309.519034 56.600197 l
314.028125 56.437392 l
318.537216 56.437392 l
323.046307 56.437392 l
327.555398 56.437392 l
332.064489 56.437392 l
336.57358 56.437392 l
341.08267 56.437392 l
345.591761 56.274604 l
350.100852 55.965989 l
354.609943 55.965989 l
359.119034 55.965989 l
363.628125 55.965989 l
368.137216 55.963331 l
372.646307 55.963331 l
377.155398 55.902887 l
381.664489 55.902887 l
386.17358 55.618597 l
390.68267 55.618597 l
395.191761 55.329209 l
399.700852 55.0223 l
404.209943 55.0223 l
408.719034 55.0223 l
413.228125 55.0223 l
417.737216 55.0223 l
422.246307 55.0223 l
426.755398 55.0223 l
431.264489 55.0223 l
435.77358 54.947445 l
440.28267 54.941636 l
444.791761 54.941636 l
449.300852 54.919912 l
453.809943 54.813143 l
458.319034 54.43616 l
462.828125 54.320781 l
467.337216 54.320781 l
471.846307 54.320781 l
476.355398 54.094682 l
480.864489 54.094682 l
485.37358 54.094682 l
489.88267 54.094682 l
494.391761 54.094682 l
498.900852 53.982685 l
503.409943 53.982685 l
507.919034 53.982685 l
512.428125 53.982685 l
stroke
grestore
0.750 0.000 0.750 setrgbcolor
gsave
446.4 345.6 66.03 39.45 clipbox
66.028125 93.065266 m
70.537216 93.065266 l
75.046307 93.065266 l
79.555398 93.065266 l
84.064489 93.065266 l
88.57358 93.065266 l
93.08267 85.524541 l
97.591761 85.524541 l
102.100852 73.225368 l
106.609943 73.225368 l
111.119034 73.225368 l
115.628125 73.225368 l
120.137216 73.225368 l
124.646307 73.225368 l
129.155398 73.225368 l
133.664489 73.225368 l
138.17358 73.225368 l
142.68267 73.225368 l
147.191761 73.225368 l
151.700852 73.225368 l
156.209943 73.225368 l
160.719034 73.225368 l
165.228125 70.415536 l
169.737216 70.415536 l
174.246307 68.832848 l
178.755398 68.832848 l
183.264489 68.832848 l
187.77358 68.832848 l
192.28267 68.832848 l
196.791761 68.832848 l
201.300852 68.832848 l
205.809943 68.832848 l
210.319034 67.177811 l
214.828125 66.583311 l
219.337216 65.088261 l
223.846307 64.22933 l
228.355398 63.34366 l
232.864489 62.384485 l
237.37358 61.717171 l
241.88267 61.592198 l
246.391761 61.592198 l
250.900852 56.18809 l
255.409943 56.18809 l
259.919034 56.18809 l
264.428125 56.18809 l
268.937216 56.18809 l
273.446307 56.18809 l
277.955398 56.18809 l
282.464489 56.18809 l
286.97358 56.18809 l
291.48267 56.18809 l
295.991761 55.626616 l
300.500852 55.534841 l
305.009943 55.315265 l
309.519034 55.315265 l
314.028125 55.315265 l
318.537216 55.082423 l
323.046307 55.082423 l
327.555398 55.040528 l
332.064489 54.93561 l
336.57358 54.653481 l
341.08267 54.653481 l
345.591761 54.653481 l
350.100852 54.653481 l
354.609943 54.559993 l
359.119034 54.559993 l
363.628125 54.559993 l
368.137216 54.559993 l
372.646307 54.559993 l
377.155398 54.367181 l
381.664489 54.367181 l
386.17358 54.312918 l
390.68267 54.312918 l
395.191761 54.180692 l
399.700852 54.180692 l
404.209943 54.180692 l
408.719034 53.778718 l
413.228125 53.778718 l
417.737216 53.778718 l
422.246307 53.778718 l
426.755398 53.778718 l
431.264489 53.778718 l
435.77358 53.644599 l
440.28267 53.644599 l
444.791761 53.644599 l
449.300852 53.644599 l
453.809943 53.621232 l
458.319034 53.621232 l
462.828125 53.621232 l
467.337216 53.621232 l
471.846307 53.574831 l
476.355398 53.574831 l
480.864489 53.564367 l
485.37358 53.564367 l
489.88267 53.564367 l
494.391761 53.564367 l
498.900852 53.564367 l
503.409943 53.564367 l
507.919034 53.480653 l
512.428125 53.480653 l
stroke
grestore
0.750 0.750 0.000 setrgbcolor
gsave
446.4 345.6 66.03 39.45 clipbox
66.028125 155.035777 m
70.537216 89.216215 l
75.046307 80.455165 l
79.555398 80.455165 l
84.064489 80.455165 l
88.57358 80.455165 l
93.08267 80.455165 l
97.591761 80.455165 l
102.100852 80.455165 l
106.609943 80.455165 l
111.119034 80.455165 l
115.628125 80.455165 l
120.137216 79.065959 l
124.646307 79.065959 l
129.155398 74.457004 l
133.664489 74.457004 l
138.17358 74.457004 l
142.68267 74.457004 l
147.191761 74.457004 l
151.700852 74.457004 l
156.209943 68.025877 l
160.719034 68.025877 l
165.228125 68.025877 l
169.737216 65.817721 l
174.246307 63.079061 l
178.755398 57.569571 l
183.264489 57.569571 l
187.77358 57.569571 l
192.28267 57.569571 l
196.791761 57.569571 l
201.300852 57.569571 l
205.809943 57.569571 l
210.319034 57.569571 l
214.828125 57.569571 l
219.337216 57.569571 l
223.846307 57.569571 l
228.355398 57.569571 l
232.864489 56.973085 l
237.37358 56.973085 l
241.88267 56.973085 l
246.391761 56.973085 l
250.900852 56.973085 l
255.409943 56.973085 l
259.919034 56.973085 l
264.428125 56.973085 l
268.937216 56.973085 l
273.446307 56.973085 l
277.955398 56.900437 l
282.464489 56.900437 l
286.97358 56.755329 l
291.48267 55.166243 l
295.991761 55.166243 l
300.500852 54.523805 l
305.009943 54.523805 l
309.519034 53.615423 l
314.028125 53.615423 l
318.537216 53.615423 l
323.046307 53.615423 l
327.555398 53.615423 l
332.064489 53.615423 l
336.57358 53.615423 l
341.08267 53.615423 l
345.591761 53.615423 l
350.100852 53.615423 l
354.609943 53.615423 l
359.119034 53.615423 l
363.628125 53.615423 l
368.137216 53.615423 l
372.646307 53.615423 l
377.155398 53.615423 l
381.664489 53.615423 l
386.17358 53.615423 l
390.68267 53.615423 l
395.191761 53.554365 l
399.700852 53.554365 l
404.209943 53.517607 l
408.719034 53.517607 l
413.228125 53.517607 l
417.737216 53.517607 l
422.246307 53.517607 l
426.755398 53.517607 l
431.264489 53.517607 l
435.77358 53.389975 l
440.28267 53.389975 l
444.791761 53.389975 l
449.300852 53.389975 l
453.809943 53.389975 l
458.319034 53.389975 l
462.828125 53.380088 l
467.337216 53.380088 l
471.846307 53.333888 l
476.355398 53.333888 l
480.864489 53.333888 l
485.37358 53.333888 l
489.88267 53.333888 l
494.391761 53.333888 l
498.900852 53.333888 l
503.409943 53.333888 l
507.919034 53.333888 l
512.428125 53.330844 l
stroke
grestore
0.000 setgray
gsave
446.4 345.6 66.03 39.45 clipbox
66.028125 104.248474 m
70.537216 104.248474 l
75.046307 92.519927 l
79.555398 92.519927 l
84.064489 92.519927 l
88.57358 92.519927 l
93.08267 82.465271 l
97.591761 82.465271 l
102.100852 72.699693 l
106.609943 72.699693 l
111.119034 72.699693 l
115.628125 72.699693 l
120.137216 72.699693 l
124.646307 72.699693 l
129.155398 72.699693 l
133.664489 72.699693 l
138.17358 65.172027 l
142.68267 65.172027 l
147.191761 65.172027 l
151.700852 65.172027 l
156.209943 65.172027 l
160.719034 63.379085 l
165.228125 63.379085 l
169.737216 63.379085 l
174.246307 63.379085 l
178.755398 58.811204 l
183.264489 58.811204 l
187.77358 58.811204 l
192.28267 58.811204 l
196.791761 58.811204 l
201.300852 58.811204 l
205.809943 58.811204 l
210.319034 58.811204 l
214.828125 58.811204 l
219.337216 58.811204 l
223.846307 58.811204 l
228.355398 58.811204 l
232.864489 58.477001 l
237.37358 58.477001 l
241.88267 57.343583 l
246.391761 57.343583 l
250.900852 56.56369 l
255.409943 56.56369 l
259.919034 56.56369 l
264.428125 56.56369 l
268.937216 56.56369 l
273.446307 56.56369 l
277.955398 56.533887 l
282.464489 55.493936 l
286.97358 55.493936 l
291.48267 55.493936 l
295.991761 55.493936 l
300.500852 55.335334 l
305.009943 55.335334 l
309.519034 55.335334 l
314.028125 55.335334 l
318.537216 55.335334 l
323.046307 55.335334 l
327.555398 55.130917 l
332.064489 54.905564 l
336.57358 54.586347 l
341.08267 54.586347 l
345.591761 54.232074 l
350.100852 53.98564 l
354.609943 53.672153 l
359.119034 53.672153 l
363.628125 53.672153 l
368.137216 53.672153 l
372.646307 53.672153 l
377.155398 53.653967 l
381.664489 53.653967 l
386.17358 53.653967 l
390.68267 53.653967 l
395.191761 53.653967 l
399.700852 53.653967 l
404.209943 53.653967 l
408.719034 53.653967 l
413.228125 53.587395 l
417.737216 53.587395 l
422.246307 53.408464 l
426.755398 53.408464 l
431.264489 53.3076 l
435.77358 53.3076 l
440.28267 53.3076 l
444.791761 53.3076 l
449.300852 53.3076 l
453.809943 53.3076 l
458.319034 53.3076 l
462.828125 53.3076 l
467.337216 53.3076 l
471.846307 53.3076 l
476.355398 53.3076 l
480.864489 53.3076 l
485.37358 53.3076 l
489.88267 53.3076 l
494.391761 53.3076 l
498.900852 53.3076 l
503.409943 53.3076 l
507.919034 53.207023 l
512.428125 53.207023 l
stroke
grestore
0.000 0.000 1.000 setrgbcolor
gsave
446.4 345.6 66.03 39.45 clipbox
66.028125 93.065266 m
70.537216 93.065266 l
75.046307 93.065266 l
79.555398 93.065266 l
84.064489 93.065266 l
88.57358 93.065266 l
93.08267 85.524541 l
97.591761 85.524541 l
102.100852 73.225368 l
106.609943 73.225368 l
111.119034 73.225368 l
115.628125 73.225368 l
120.137216 73.225368 l
124.646307 73.225368 l
129.155398 73.225368 l
133.664489 73.225368 l
138.17358 73.225368 l
142.68267 73.225368 l
147.191761 73.225368 l
151.700852 73.225368 l
156.209943 73.225368 l
160.719034 73.225368 l
165.228125 70.415536 l
169.737216 70.415536 l
174.246307 68.832848 l
178.755398 68.832848 l
183.264489 68.832848 l
187.77358 68.832848 l
192.28267 68.832848 l
196.791761 68.832848 l
201.300852 68.832848 l
205.809943 68.832848 l
210.319034 67.177811 l
214.828125 66.583311 l
219.337216 65.088261 l
223.846307 64.22933 l
228.355398 63.34366 l
232.864489 62.384485 l
237.37358 61.717171 l
241.88267 61.592198 l
246.391761 61.592198 l
250.900852 56.18809 l
255.409943 56.18809 l
259.919034 56.18809 l
264.428125 56.18809 l
268.937216 56.18809 l
273.446307 56.18809 l
277.955398 56.18809 l
282.464489 56.18809 l
286.97358 56.18809 l
291.48267 56.18809 l
295.991761 55.626616 l
300.500852 55.534841 l
305.009943 55.315265 l
309.519034 55.315265 l
314.028125 55.315265 l
318.537216 55.082423 l
323.046307 55.082423 l
327.555398 55.040528 l
332.064489 54.93561 l
336.57358 54.653481 l
341.08267 54.653481 l
345.591761 54.653481 l
350.100852 54.653481 l
354.609943 54.559993 l
359.119034 54.559993 l
363.628125 54.559993 l
368.137216 54.559993 l
372.646307 54.559993 l
377.155398 54.367181 l
381.664489 54.367181 l
386.17358 54.312918 l
390.68267 54.312918 l
395.191761 54.180692 l
399.700852 54.180692 l
404.209943 54.180692 l
408.719034 53.778718 l
413.228125 53.778718 l
417.737216 53.778718 l
422.246307 53.778718 l
426.755398 53.778718 l
431.264489 53.778718 l
435.77358 53.644599 l
440.28267 53.644599 l
444.791761 53.644599 l
449.300852 53.644599 l
453.809943 53.621232 l
458.319034 53.621232 l
462.828125 53.621232 l
467.337216 53.621232 l
471.846307 53.574831 l
476.355398 53.574831 l
480.864489 53.564367 l
485.37358 53.564367 l
489.88267 53.564367 l
494.391761 53.564367 l
498.900852 53.564367 l
503.409943 53.564367 l
507.919034 53.480653 l
512.428125 53.480653 l
stroke
grestore
0.000 0.500 0.000 setrgbcolor
gsave
446.4 345.6 66.03 39.45 clipbox
66.028125 1238.091499 m
69.257754 426.170625 m
70.537216 104.517091 l
75.046307 96.7242 l
79.555398 96.7242 l
84.064489 83.249027 l
88.57358 83.249027 l
93.08267 77.53223 l
97.591761 77.53223 l
102.100852 77.53223 l
106.609943 77.53223 l
111.119034 76.515399 l
115.628125 76.43489 l
120.137216 76.43489 l
124.646307 76.43489 l
129.155398 76.43489 l
133.664489 76.43489 l
138.17358 75.0551 l
142.68267 73.323967 l
147.191761 72.946147 l
151.700852 72.59918 l
156.209943 72.59918 l
160.719034 70.999427 l
165.228125 67.005876 l
169.737216 67.005876 l
174.246307 67.005876 l
178.755398 67.005876 l
183.264489 67.005876 l
187.77358 67.005876 l
192.28267 67.005876 l
196.791761 67.005876 l
201.300852 67.005876 l
205.809943 67.005876 l
210.319034 67.005876 l
214.828125 66.505965 l
219.337216 66.505965 l
223.846307 66.505965 l
228.355398 65.461681 l
232.864489 61.987074 l
237.37358 61.987074 l
241.88267 60.186991 l
246.391761 59.631501 l
250.900852 59.631501 l
255.409943 59.631501 l
259.919034 59.631501 l
264.428125 59.631501 l
268.937216 59.631501 l
273.446307 59.631501 l
277.955398 59.631501 l
282.464489 59.631501 l
286.97358 59.631501 l
291.48267 59.631501 l
295.991761 59.631501 l
300.500852 59.490736 l
305.009943 59.490736 l
309.519034 59.490736 l
314.028125 59.490736 l
318.537216 59.143016 l
323.046307 57.763201 l
327.555398 57.763201 l
332.064489 57.763201 l
336.57358 55.837311 l
341.08267 55.837311 l
345.591761 55.837311 l
350.100852 55.837311 l
354.609943 55.837311 l
359.119034 55.837311 l
363.628125 55.501895 l
368.137216 55.501895 l
372.646307 55.501895 l
377.155398 54.807958 l
381.664489 54.807958 l
386.17358 54.709952 l
390.68267 54.709952 l
395.191761 54.709952 l
399.700852 54.232177 l
404.209943 54.150713 l
408.719034 54.002692 l
413.228125 54.002692 l
417.737216 53.712885 l
422.246307 53.712885 l
426.755398 53.712885 l
431.264489 53.712885 l
435.77358 53.712885 l
440.28267 53.712885 l
444.791761 53.712885 l
449.300852 53.712885 l
453.809943 53.712885 l
458.319034 53.622838 l
462.828125 53.516418 l
467.337216 53.516418 l
471.846307 53.516418 l
476.355398 53.516418 l
480.864489 53.450261 l
485.37358 53.450261 l
489.88267 53.450261 l
494.391761 53.450261 l
498.900852 53.450261 l
503.409943 53.450261 l
507.919034 53.450261 l
512.428125 53.450261 l
stroke
grestore
1.000 0.000 0.000 setrgbcolor
gsave
446.4 345.6 66.03 39.45 clipbox
66.028125 110.793416 m
70.537216 110.793416 l
75.046307 110.793416 l
79.555398 110.793416 l
84.064489 94.819787 l
88.57358 94.819787 l
93.08267 94.819787 l
97.591761 91.060247 l
102.100852 91.060247 l
106.609943 74.212057 l
111.119034 74.212057 l
115.628125 74.212057 l
120.137216 74.212057 l
124.646307 73.920977 l
129.155398 70.119285 l
133.664489 70.119285 l
138.17358 70.119285 l
142.68267 70.119285 l
147.191761 68.269338 l
151.700852 65.265588 l
156.209943 65.265588 l
160.719034 65.265588 l
165.228125 65.265588 l
169.737216 65.265588 l
174.246307 65.265588 l
178.755398 65.265588 l
183.264489 65.265588 l
187.77358 62.583392 l
192.28267 62.109166 l
196.791761 62.109166 l
201.300852 62.109166 l
205.809943 62.109166 l
210.319034 60.905821 l
214.828125 60.905821 l
219.337216 59.802986 l
223.846307 59.802986 l
228.355398 59.802986 l
232.864489 58.87565 l
237.37358 58.87565 l
241.88267 58.87565 l
246.391761 58.87565 l
250.900852 58.159527 l
255.409943 58.159527 l
259.919034 58.159527 l
264.428125 57.744686 l
268.937216 57.578713 l
273.446307 57.136257 l
277.955398 57.136257 l
282.464489 57.136257 l
286.97358 55.359815 l
291.48267 55.359815 l
295.991761 54.50773 l
300.500852 54.50773 l
305.009943 54.50773 l
309.519034 54.304982 l
314.028125 54.304982 l
318.537216 54.304982 l
323.046307 54.304982 l
327.555398 54.304982 l
332.064489 54.304982 l
336.57358 54.304982 l
341.08267 54.304982 l
345.591761 54.304982 l
350.100852 54.304982 l
354.609943 54.304982 l
359.119034 54.304982 l
363.628125 54.304982 l
368.137216 54.304982 l
372.646307 54.304982 l
377.155398 54.304982 l
381.664489 54.018323 l
386.17358 54.018323 l
390.68267 54.018323 l
395.191761 54.018323 l
399.700852 54.018323 l
404.209943 54.018323 l
408.719034 53.993419 l
413.228125 53.993419 l
417.737216 53.993419 l
422.246307 53.993419 l
426.755398 53.983894 l
431.264489 53.983894 l
435.77358 53.915139 l
440.28267 53.915139 l
444.791761 53.915139 l
449.300852 53.915139 l
453.809943 53.645306 l
458.319034 53.645306 l
462.828125 53.645306 l
467.337216 53.645306 l
471.846307 53.645306 l
476.355398 53.645306 l
480.864489 53.613774 l
485.37358 53.613774 l
489.88267 53.509942 l
494.391761 53.476074 l
498.900852 53.382459 l
503.409943 53.382459 l
507.919034 53.382459 l
512.428125 53.382459 l
stroke
grestore
0 setlinecap
[6 6] 0 setdash
gsave
446.4 345.6 66.03 39.45 clipbox
66.028125 53.207023 m
512.428125 53.207023 l
stroke
grestore
0 setlinejoin
2 setlinecap
[] 0 setdash
0.000 setgray
gsave
66.028125 385.05 m
512.428125 385.05 l
stroke
grestore
gsave
512.428125 39.45 m
512.428125 385.05 l
stroke
grestore
gsave
66.028125 39.45 m
512.428125 39.45 l
stroke
grestore
gsave
66.028125 39.45 m
66.028125 385.05 l
stroke
grestore
0.500 setlinewidth
1 setlinejoin
0 setlinecap
gsave
/o {
gsave
newpath
translate
0.5 setlinewidth
1 setlinejoin
0 setlinecap
0 0 m
0 4 l

gsave
0.000 setgray
fill
grestore
stroke
grestore
} bind def
66.0281 39.45 o
grestore
gsave
/o {
gsave
newpath
translate
0.5 setlinewidth
1 setlinejoin
0 setlinecap
0 0 m
0 -4 l

gsave
0.000 setgray
fill
grestore
stroke
grestore
} bind def
66.0281 385.05 o
grestore
/BitstreamVeraSans-Roman findfont
12.000 scalefont
setfont
gsave
62.207813 26.325000 translate
0.000000 rotate
0.000000 0.000000 m /zero glyphshow
grestore
gsave
/o {
gsave
newpath
translate
0.5 setlinewidth
1 setlinejoin
0 setlinecap
0 0 m
0 4 l

gsave
0.000 setgray
fill
grestore
stroke
grestore
} bind def
156.21 39.45 o
grestore
gsave
/o {
gsave
newpath
translate
0.5 setlinewidth
1 setlinejoin
0 setlinecap
0 0 m
0 -4 l

gsave
0.000 setgray
fill
grestore
stroke
grestore
} bind def
156.21 385.05 o
grestore
gsave
148.569318 26.325000 translate
0.000000 rotate
0.000000 0.000000 m /two glyphshow
7.634766 0.000000 m /zero glyphshow
grestore
gsave
/o {
gsave
newpath
translate
0.5 setlinewidth
1 setlinejoin
0 setlinecap
0 0 m
0 4 l

gsave
0.000 setgray
fill
grestore
stroke
grestore
} bind def
246.392 39.45 o
grestore
gsave
/o {
gsave
newpath
translate
0.5 setlinewidth
1 setlinejoin
0 setlinecap
0 0 m
0 -4 l

gsave
0.000 setgray
fill
grestore
stroke
grestore
} bind def
246.392 385.05 o
grestore
gsave
238.751136 26.325000 translate
0.000000 rotate
0.000000 0.000000 m /four glyphshow
7.634766 0.000000 m /zero glyphshow
grestore
gsave
/o {
gsave
newpath
translate
0.5 setlinewidth
1 setlinejoin
0 setlinecap
0 0 m
0 4 l

gsave
0.000 setgray
fill
grestore
stroke
grestore
} bind def
336.574 39.45 o
grestore
gsave
/o {
gsave
newpath
translate
0.5 setlinewidth
1 setlinejoin
0 setlinecap
0 0 m
0 -4 l

gsave
0.000 setgray
fill
grestore
stroke
grestore
} bind def
336.574 385.05 o
grestore
gsave
328.932955 26.325000 translate
0.000000 rotate
0.000000 0.000000 m /six glyphshow
7.634766 0.000000 m /zero glyphshow
grestore
gsave
/o {
gsave
newpath
translate
0.5 setlinewidth
1 setlinejoin
0 setlinecap
0 0 m
0 4 l

gsave
0.000 setgray
fill
grestore
stroke
grestore
} bind def
426.755 39.45 o
grestore
gsave
/o {
gsave
newpath
translate
0.5 setlinewidth
1 setlinejoin
0 setlinecap
0 0 m
0 -4 l

gsave
0.000 setgray
fill
grestore
stroke
grestore
} bind def
426.755 385.05 o
grestore
gsave
419.114773 26.325000 translate
0.000000 rotate
0.000000 0.000000 m /eight glyphshow
7.634766 0.000000 m /zero glyphshow
grestore
gsave
263.767188 9.700000 translate
0.000000 rotate
0.000000 0.000000 m /I glyphshow
3.539062 0.000000 m /t glyphshow
8.244141 0.000000 m /e glyphshow
15.626953 0.000000 m /r glyphshow
20.560547 0.000000 m /a glyphshow
27.914062 0.000000 m /t glyphshow
32.619141 0.000000 m /i glyphshow
35.953125 0.000000 m /o glyphshow
43.294922 0.000000 m /n glyphshow
grestore
gsave
/o {
gsave
newpath
translate
0.5 setlinewidth
1 setlinejoin
0 setlinecap
0 0 m
4 0 l

gsave
0.000 setgray
fill
grestore
stroke
grestore
} bind def
66.0281 39.45 o
grestore
gsave
/o {
gsave
newpath
translate
0.5 setlinewidth
1 setlinejoin
0 setlinecap
0 0 m
-4 0 l

gsave
0.000 setgray
fill
grestore
stroke
grestore
} bind def
512.428 39.45 o
grestore
gsave
54.387500 36.137500 translate
0.000000 rotate
0.000000 0.000000 m /zero glyphshow
grestore
gsave
/o {
gsave
newpath
translate
0.5 setlinewidth
1 setlinejoin
0 setlinecap
0 0 m
4 0 l

gsave
0.000 setgray
fill
grestore
stroke
grestore
} bind def
66.0281 108.57 o
grestore
gsave
/o {
gsave
newpath
translate
0.5 setlinewidth
1 setlinejoin
0 setlinecap
0 0 m
-4 0 l

gsave
0.000 setgray
fill
grestore
stroke
grestore
} bind def
512.428 108.57 o
grestore
gsave
31.465625 105.257500 translate
0.000000 rotate
0.000000 0.000000 m /two glyphshow
7.634766 0.000000 m /zero glyphshow
15.269531 0.000000 m /zero glyphshow
22.904297 0.000000 m /zero glyphshow
grestore
gsave
/o {
gsave
newpath
translate
0.5 setlinewidth
1 setlinejoin
0 setlinecap
0 0 m
4 0 l

gsave
0.000 setgray
fill
grestore
stroke
grestore
} bind def
66.0281 177.69 o
grestore
gsave
/o {
gsave
newpath
translate
0.5 setlinewidth
1 setlinejoin
0 setlinecap
0 0 m
-4 0 l

gsave
0.000 setgray
fill
grestore
stroke
grestore
} bind def
512.428 177.69 o
grestore
gsave
31.465625 174.377500 translate
0.000000 rotate
0.000000 0.000000 m /four glyphshow
7.634766 0.000000 m /zero glyphshow
15.269531 0.000000 m /zero glyphshow
22.904297 0.000000 m /zero glyphshow
grestore
gsave
/o {
gsave
newpath
translate
0.5 setlinewidth
1 setlinejoin
0 setlinecap
0 0 m
4 0 l

gsave
0.000 setgray
fill
grestore
stroke
grestore
} bind def
66.0281 246.81 o
grestore
gsave
/o {
gsave
newpath
translate
0.5 setlinewidth
1 setlinejoin
0 setlinecap
0 0 m
-4 0 l

gsave
0.000 setgray
fill
grestore
stroke
grestore
} bind def
512.428 246.81 o
grestore
gsave
31.465625 243.497500 translate
0.000000 rotate
0.000000 0.000000 m /six glyphshow
7.634766 0.000000 m /zero glyphshow
15.269531 0.000000 m /zero glyphshow
22.904297 0.000000 m /zero glyphshow
grestore
gsave
/o {
gsave
newpath
translate
0.5 setlinewidth
1 setlinejoin
0 setlinecap
0 0 m
4 0 l

gsave
0.000 setgray
fill
grestore
stroke
grestore
} bind def
66.0281 315.93 o
grestore
gsave
/o {
gsave
newpath
translate
0.5 setlinewidth
1 setlinejoin
0 setlinecap
0 0 m
-4 0 l

gsave
0.000 setgray
fill
grestore
stroke
grestore
} bind def
512.428 315.93 o
grestore
gsave
31.465625 312.617500 translate
0.000000 rotate
0.000000 0.000000 m /eight glyphshow
7.634766 0.000000 m /zero glyphshow
15.269531 0.000000 m /zero glyphshow
22.904297 0.000000 m /zero glyphshow
grestore
gsave
/o {
gsave
newpath
translate
0.5 setlinewidth
1 setlinejoin
0 setlinecap
0 0 m
4 0 l

gsave
0.000 setgray
fill
grestore
stroke
grestore
} bind def
66.0281 385.05 o
grestore
gsave
/o {
gsave
newpath
translate
0.5 setlinewidth
1 setlinejoin
0 setlinecap
0 0 m
-4 0 l

gsave
0.000 setgray
fill
grestore
stroke
grestore
} bind def
512.428 385.05 o
grestore
gsave
23.825000 381.737500 translate
0.000000 rotate
0.000000 0.000000 m /one glyphshow
7.634766 0.000000 m /zero glyphshow
15.269531 0.000000 m /zero glyphshow
22.904297 0.000000 m /zero glyphshow
30.539062 0.000000 m /zero glyphshow
grestore
gsave
16.325000 191.031250 translate
90.000000 rotate
0.000000 0.000000 m /F glyphshow
6.902344 0.000000 m /i glyphshow
10.236328 0.000000 m /t glyphshow
14.941406 0.000000 m /n glyphshow
22.546875 0.000000 m /e glyphshow
29.929688 0.000000 m /s glyphshow
36.181641 0.000000 m /s glyphshow
grestore
gsave
70.537216 53.034223 translate
0.000000 rotate
0.000000 0.000000 m /three glyphshow
7.634766 0.000000 m /nine glyphshow
15.269531 0.000000 m /eight glyphshow
22.904297 0.000000 m /period glyphshow
26.718750 0.000000 m /zero glyphshow
34.353516 0.000000 m /six glyphshow
grestore
/BitstreamVeraSans-Roman findfont
14.400 scalefont
setfont
gsave
166.509375 407.330000 translate
0.000000 rotate
0.000000 0.000000 m /C glyphshow
10.037231 0.000000 m /o glyphshow
18.832092 0.000000 m /n glyphshow
27.942810 0.000000 m /v glyphshow
36.449890 0.000000 m /e glyphshow
45.293884 0.000000 m /r glyphshow
51.203918 0.000000 m /g glyphshow
60.328674 0.000000 m /e glyphshow
69.172668 0.000000 m /n glyphshow
78.283386 0.000000 m /c glyphshow
86.186829 0.000000 m /e glyphshow
95.030823 0.000000 m /space glyphshow
99.600220 0.000000 m /f glyphshow
104.660950 0.000000 m /o glyphshow
113.455811 0.000000 m /r glyphshow
119.365845 0.000000 m /space glyphshow
123.935242 0.000000 m /P glyphshow
132.603760 0.000000 m /S glyphshow
141.728516 0.000000 m /O glyphshow
153.043213 0.000000 m /comma glyphshow
157.612610 0.000000 m /space glyphshow
162.182007 0.000000 m /t glyphshow
167.818298 0.000000 m /e glyphshow
176.662292 0.000000 m /r glyphshow
182.572327 0.000000 m /r glyphshow
188.482361 0.000000 m /a glyphshow
197.291260 0.000000 m /i glyphshow
201.285095 0.000000 m /n glyphshow
210.395813 0.000000 m /space glyphshow
214.965210 0.000000 m /o glyphshow
223.760071 0.000000 m /n glyphshow
232.870789 0.000000 m /l glyphshow
236.864624 0.000000 m /y glyphshow
grestore

end
showpage
