%!PS-Adobe-3.0 EPSF-3.0
%%Title: conv_BEE_a.eps
%%Creator: matplotlib version 1.5.1, http://matplotlib.org/
%%CreationDate: Sun Nov 11 19:45:56 2018
%%Orientation: portrait
%%BoundingBox: 46 183 565 608
%%EndComments
%%BeginProlog
/mpldict 8 dict def
mpldict begin
/m { moveto } bind def
/l { lineto } bind def
/r { rlineto } bind def
/c { curveto } bind def
/cl { closepath } bind def
/box {
m
1 index 0 r
0 exch r
neg 0 r
cl
} bind def
/clipbox {
box
clip
newpath
} bind def
%!PS-Adobe-3.0 Resource-Font
%%Title: Bitstream Vera Sans
%%Copyright: Copyright (c) 2003 by Bitstream, Inc. All Rights Reserved.
%%Creator: Converted from TrueType to type 3 by PPR
25 dict begin
/_d{bind def}bind def
/_m{moveto}_d
/_l{lineto}_d
/_cl{closepath eofill}_d
/_c{curveto}_d
/_sc{7 -1 roll{setcachedevice}{pop pop pop pop pop pop}ifelse}_d
/_e{exec}_d
/FontName /BitstreamVeraSans-Roman def
/PaintType 0 def
/FontMatrix[.001 0 0 .001 0 0]def
/FontBBox[-183 -236 1287 928]def
/FontType 3 def
/Encoding [ /space /comma /period /zero /one /two /four /five /six /eight /B /C /E /F /I /a /c /e /f /g /i /l /n /o /r /s /t /v /y ] def
/FontInfo 10 dict dup begin
/FamilyName (Bitstream Vera Sans) def
/FullName (Bitstream Vera Sans) def
/Notice (Copyright (c) 2003 by Bitstream, Inc. All Rights Reserved. Bitstream Vera is a trademark of Bitstream, Inc.) def
/Weight (Roman) def
/Version (Release 1.10) def
/ItalicAngle 0.0 def
/isFixedPitch false def
/UnderlinePosition -213 def
/UnderlineThickness 143 def
end readonly def
/CharStrings 29 dict dup begin
/space{318 0 0 0 0 0 _sc
}_d
/comma{318 0 77 -115 220 124 _sc
117 124 _m
220 124 _l
220 40 _l
140 -115 _l
77 -115 _l
117 40 _l
117 124 _l
_cl}_d
/period{318 0 107 0 210 124 _sc
107 124 _m
210 124 _l
210 0 _l
107 0 _l
107 124 _l
_cl}_d
/zero{636 0 66 -13 570 742 _sc
318 664 _m
267 664 229 639 203 589 _c
177 539 165 464 165 364 _c
165 264 177 189 203 139 _c
229 89 267 64 318 64 _c
369 64 407 89 433 139 _c
458 189 471 264 471 364 _c
471 464 458 539 433 589 _c
407 639 369 664 318 664 _c
318 742 _m
399 742 461 709 505 645 _c
548 580 570 486 570 364 _c
570 241 548 147 505 83 _c
461 19 399 -13 318 -13 _c
236 -13 173 19 130 83 _c
87 147 66 241 66 364 _c
66 486 87 580 130 645 _c
173 709 236 742 318 742 _c
_cl}_d
/one{636 0 110 0 544 729 _sc
124 83 _m
285 83 _l
285 639 _l
110 604 _l
110 694 _l
284 729 _l
383 729 _l
383 83 _l
544 83 _l
544 0 _l
124 0 _l
124 83 _l
_cl}_d
/two{{636 0 73 0 536 742 _sc
192 83 _m
536 83 _l
536 0 _l
73 0 _l
73 83 _l
110 121 161 173 226 239 _c
290 304 331 346 348 365 _c
380 400 402 430 414 455 _c
426 479 433 504 433 528 _c
433 566 419 598 392 622 _c
365 646 330 659 286 659 _c
255 659 222 653 188 643 _c
154 632 117 616 78 594 _c
78 694 _l
118 710 155 722 189 730 _c
223 738 255 742 284 742 _c
}_e{359 742 419 723 464 685 _c
509 647 532 597 532 534 _c
532 504 526 475 515 449 _c
504 422 484 390 454 354 _c
446 344 420 317 376 272 _c
332 227 271 164 192 83 _c
_cl}_e}_d
/four{636 0 49 0 580 729 _sc
378 643 _m
129 254 _l
378 254 _l
378 643 _l
352 729 _m
476 729 _l
476 254 _l
580 254 _l
580 172 _l
476 172 _l
476 0 _l
378 0 _l
378 172 _l
49 172 _l
49 267 _l
352 729 _l
_cl}_d
/five{{636 0 77 -13 549 729 _sc
108 729 _m
495 729 _l
495 646 _l
198 646 _l
198 467 _l
212 472 227 476 241 478 _c
255 480 270 482 284 482 _c
365 482 429 459 477 415 _c
525 370 549 310 549 234 _c
549 155 524 94 475 51 _c
426 8 357 -13 269 -13 _c
238 -13 207 -10 175 -6 _c
143 -1 111 6 77 17 _c
77 116 _l
106 100 136 88 168 80 _c
199 72 232 69 267 69 _c
}_e{323 69 368 83 401 113 _c
433 143 450 183 450 234 _c
450 284 433 324 401 354 _c
368 384 323 399 267 399 _c
241 399 214 396 188 390 _c
162 384 135 375 108 363 _c
108 729 _l
_cl}_e}_d
/six{{636 0 70 -13 573 742 _sc
330 404 _m
286 404 251 388 225 358 _c
199 328 186 286 186 234 _c
186 181 199 139 225 109 _c
251 79 286 64 330 64 _c
374 64 409 79 435 109 _c
461 139 474 181 474 234 _c
474 286 461 328 435 358 _c
409 388 374 404 330 404 _c
526 713 _m
526 623 _l
501 635 476 644 451 650 _c
425 656 400 659 376 659 _c
310 659 260 637 226 593 _c
}_e{192 549 172 482 168 394 _c
187 422 211 444 240 459 _c
269 474 301 482 336 482 _c
409 482 467 459 509 415 _c
551 371 573 310 573 234 _c
573 159 550 99 506 54 _c
462 9 403 -13 330 -13 _c
246 -13 181 19 137 83 _c
92 147 70 241 70 364 _c
70 479 97 571 152 639 _c
206 707 280 742 372 742 _c
396 742 421 739 447 735 _c
472 730 498 723 526 713 _c
_cl}_e}_d
/eight{{636 0 68 -13 568 742 _sc
318 346 _m
271 346 234 333 207 308 _c
180 283 167 249 167 205 _c
167 161 180 126 207 101 _c
234 76 271 64 318 64 _c
364 64 401 76 428 102 _c
455 127 469 161 469 205 _c
469 249 455 283 429 308 _c
402 333 365 346 318 346 _c
219 388 _m
177 398 144 418 120 447 _c
96 476 85 511 85 553 _c
85 611 105 657 147 691 _c
188 725 245 742 318 742 _c
}_e{390 742 447 725 489 691 _c
530 657 551 611 551 553 _c
551 511 539 476 515 447 _c
491 418 459 398 417 388 _c
464 377 501 355 528 323 _c
554 291 568 251 568 205 _c
568 134 546 80 503 43 _c
459 5 398 -13 318 -13 _c
237 -13 175 5 132 43 _c
89 80 68 134 68 205 _c
68 251 81 291 108 323 _c
134 355 171 377 219 388 _c
183 544 _m
183 506 194 476 218 455 _c
}_e{242 434 275 424 318 424 _c
360 424 393 434 417 455 _c
441 476 453 506 453 544 _c
453 582 441 611 417 632 _c
393 653 360 664 318 664 _c
275 664 242 653 218 632 _c
194 611 183 582 183 544 _c
_cl}_e}_d
/B{{686 0 98 0 615 729 _sc
197 348 _m
197 81 _l
355 81 _l
408 81 447 92 473 114 _c
498 136 511 169 511 215 _c
511 260 498 293 473 315 _c
447 337 408 348 355 348 _c
197 348 _l
197 648 _m
197 428 _l
343 428 _l
391 428 426 437 450 455 _c
474 473 486 500 486 538 _c
486 574 474 602 450 620 _c
426 638 391 648 343 648 _c
197 648 _l
98 729 _m
350 729 _l
}_e{425 729 483 713 524 682 _c
564 650 585 606 585 549 _c
585 504 574 468 553 442 _c
532 416 502 399 462 393 _c
510 382 548 360 575 327 _c
601 294 615 253 615 204 _c
615 138 592 88 548 53 _c
504 17 441 0 360 0 _c
98 0 _l
98 729 _l
_cl}_e}_d
/C{{698 0 56 -13 644 742 _sc
644 673 _m
644 569 _l
610 599 575 622 537 638 _c
499 653 460 661 418 661 _c
334 661 270 635 226 584 _c
182 533 160 460 160 364 _c
160 268 182 194 226 143 _c
270 92 334 67 418 67 _c
460 67 499 74 537 90 _c
575 105 610 128 644 159 _c
644 56 _l
609 32 572 15 534 4 _c
496 -7 455 -13 412 -13 _c
302 -13 215 20 151 87 _c
}_e{87 154 56 246 56 364 _c
56 481 87 573 151 641 _c
215 708 302 742 412 742 _c
456 742 497 736 535 725 _c
573 713 610 696 644 673 _c
_cl}_e}_d
/E{632 0 98 0 568 729 _sc
98 729 _m
559 729 _l
559 646 _l
197 646 _l
197 430 _l
544 430 _l
544 347 _l
197 347 _l
197 83 _l
568 83 _l
568 0 _l
98 0 _l
98 729 _l
_cl}_d
/F{575 0 98 0 517 729 _sc
98 729 _m
517 729 _l
517 646 _l
197 646 _l
197 431 _l
486 431 _l
486 348 _l
197 348 _l
197 0 _l
98 0 _l
98 729 _l
_cl}_d
/I{295 0 98 0 197 729 _sc
98 729 _m
197 729 _l
197 0 _l
98 0 _l
98 729 _l
_cl}_d
/a{{613 0 60 -13 522 560 _sc
343 275 _m
270 275 220 266 192 250 _c
164 233 150 205 150 165 _c
150 133 160 107 181 89 _c
202 70 231 61 267 61 _c
317 61 357 78 387 114 _c
417 149 432 196 432 255 _c
432 275 _l
343 275 _l
522 312 _m
522 0 _l
432 0 _l
432 83 _l
411 49 385 25 355 10 _c
325 -5 287 -13 243 -13 _c
187 -13 142 2 109 33 _c
76 64 60 106 60 159 _c
}_e{60 220 80 266 122 298 _c
163 329 224 345 306 345 _c
432 345 _l
432 354 _l
432 395 418 427 391 450 _c
364 472 326 484 277 484 _c
245 484 215 480 185 472 _c
155 464 127 453 100 439 _c
100 522 _l
132 534 164 544 195 550 _c
226 556 256 560 286 560 _c
365 560 424 539 463 498 _c
502 457 522 395 522 312 _c
_cl}_e}_d
/c{{550 0 55 -13 488 560 _sc
488 526 _m
488 442 _l
462 456 437 466 411 473 _c
385 480 360 484 334 484 _c
276 484 230 465 198 428 _c
166 391 150 339 150 273 _c
150 206 166 154 198 117 _c
230 80 276 62 334 62 _c
360 62 385 65 411 72 _c
437 79 462 90 488 104 _c
488 21 _l
462 9 436 0 410 -5 _c
383 -10 354 -13 324 -13 _c
242 -13 176 12 128 64 _c
}_e{79 115 55 185 55 273 _c
55 362 79 432 128 483 _c
177 534 244 560 330 560 _c
358 560 385 557 411 551 _c
437 545 463 537 488 526 _c
_cl}_e}_d
/e{{615 0 55 -13 562 560 _sc
562 296 _m
562 252 _l
149 252 _l
153 190 171 142 205 110 _c
238 78 284 62 344 62 _c
378 62 412 66 444 74 _c
476 82 509 95 541 113 _c
541 28 _l
509 14 476 3 442 -3 _c
408 -9 373 -13 339 -13 _c
251 -13 182 12 131 62 _c
80 112 55 181 55 268 _c
55 357 79 428 127 481 _c
175 533 241 560 323 560 _c
397 560 455 536 498 489 _c
}_e{540 441 562 377 562 296 _c
472 322 _m
471 371 457 410 431 440 _c
404 469 368 484 324 484 _c
274 484 234 469 204 441 _c
174 413 156 373 152 322 _c
472 322 _l
_cl}_e}_d
/f{352 0 23 0 371 760 _sc
371 760 _m
371 685 _l
285 685 _l
253 685 230 678 218 665 _c
205 652 199 629 199 595 _c
199 547 _l
347 547 _l
347 477 _l
199 477 _l
199 0 _l
109 0 _l
109 477 _l
23 477 _l
23 547 _l
109 547 _l
109 585 _l
109 645 123 690 151 718 _c
179 746 224 760 286 760 _c
371 760 _l
_cl}_d
/g{{635 0 55 -207 544 560 _sc
454 280 _m
454 344 440 395 414 431 _c
387 467 349 485 301 485 _c
253 485 215 467 188 431 _c
161 395 148 344 148 280 _c
148 215 161 165 188 129 _c
215 93 253 75 301 75 _c
349 75 387 93 414 129 _c
440 165 454 215 454 280 _c
544 68 _m
544 -24 523 -93 482 -139 _c
440 -184 377 -207 292 -207 _c
260 -207 231 -204 203 -200 _c
175 -195 147 -188 121 -178 _c
}_e{121 -91 _l
147 -105 173 -115 199 -122 _c
225 -129 251 -133 278 -133 _c
336 -133 380 -117 410 -87 _c
439 -56 454 -10 454 52 _c
454 96 _l
435 64 411 40 382 24 _c
353 8 319 0 279 0 _c
211 0 157 25 116 76 _c
75 127 55 195 55 280 _c
55 364 75 432 116 483 _c
157 534 211 560 279 560 _c
319 560 353 552 382 536 _c
411 520 435 496 454 464 _c
454 547 _l
544 547 _l
}_e{544 68 _l
_cl}_e}_d
/i{278 0 94 0 184 760 _sc
94 547 _m
184 547 _l
184 0 _l
94 0 _l
94 547 _l
94 760 _m
184 760 _l
184 646 _l
94 646 _l
94 760 _l
_cl}_d
/l{278 0 94 0 184 760 _sc
94 760 _m
184 760 _l
184 0 _l
94 0 _l
94 760 _l
_cl}_d
/n{634 0 91 0 549 560 _sc
549 330 _m
549 0 _l
459 0 _l
459 327 _l
459 379 448 417 428 443 _c
408 469 378 482 338 482 _c
289 482 251 466 223 435 _c
195 404 181 362 181 309 _c
181 0 _l
91 0 _l
91 547 _l
181 547 _l
181 462 _l
202 494 227 519 257 535 _c
286 551 320 560 358 560 _c
420 560 468 540 500 501 _c
532 462 549 405 549 330 _c
_cl}_d
/o{612 0 55 -13 557 560 _sc
306 484 _m
258 484 220 465 192 427 _c
164 389 150 338 150 273 _c
150 207 163 156 191 118 _c
219 80 257 62 306 62 _c
354 62 392 80 420 118 _c
448 156 462 207 462 273 _c
462 337 448 389 420 427 _c
392 465 354 484 306 484 _c
306 560 _m
384 560 445 534 490 484 _c
534 433 557 363 557 273 _c
557 183 534 113 490 63 _c
445 12 384 -13 306 -13 _c
227 -13 165 12 121 63 _c
77 113 55 183 55 273 _c
55 363 77 433 121 484 _c
165 534 227 560 306 560 _c
_cl}_d
/r{411 0 91 0 411 560 _sc
411 463 _m
401 469 390 473 378 476 _c
366 478 353 480 339 480 _c
288 480 249 463 222 430 _c
194 397 181 350 181 288 _c
181 0 _l
91 0 _l
91 547 _l
181 547 _l
181 462 _l
199 495 224 520 254 536 _c
284 552 321 560 365 560 _c
371 560 378 559 386 559 _c
393 558 401 557 411 555 _c
411 463 _l
_cl}_d
/s{{521 0 54 -13 472 560 _sc
443 531 _m
443 446 _l
417 458 391 468 364 475 _c
336 481 308 485 279 485 _c
234 485 200 478 178 464 _c
156 450 145 430 145 403 _c
145 382 153 366 169 354 _c
185 342 217 330 265 320 _c
296 313 _l
360 299 405 279 432 255 _c
458 230 472 195 472 151 _c
472 100 452 60 412 31 _c
372 1 316 -13 246 -13 _c
216 -13 186 -10 154 -5 _c
}_e{122 0 89 8 54 20 _c
54 113 _l
87 95 120 82 152 74 _c
184 65 216 61 248 61 _c
290 61 323 68 346 82 _c
368 96 380 117 380 144 _c
380 168 371 187 355 200 _c
339 213 303 226 247 238 _c
216 245 _l
160 257 119 275 95 299 _c
70 323 58 356 58 399 _c
58 450 76 490 112 518 _c
148 546 200 560 268 560 _c
301 560 332 557 362 552 _c
391 547 418 540 443 531 _c
}_e{_cl}_e}_d
/t{392 0 27 0 368 702 _sc
183 702 _m
183 547 _l
368 547 _l
368 477 _l
183 477 _l
183 180 _l
183 135 189 106 201 94 _c
213 81 238 75 276 75 _c
368 75 _l
368 0 _l
276 0 _l
206 0 158 13 132 39 _c
106 65 93 112 93 180 _c
93 477 _l
27 477 _l
27 547 _l
93 547 _l
93 702 _l
183 702 _l
_cl}_d
/v{592 0 30 0 562 547 _sc
30 547 _m
125 547 _l
296 88 _l
467 547 _l
562 547 _l
357 0 _l
235 0 _l
30 547 _l
_cl}_d
/y{592 0 30 -207 562 547 _sc
322 -50 _m
296 -114 271 -157 247 -177 _c
223 -197 191 -207 151 -207 _c
79 -207 _l
79 -132 _l
132 -132 _l
156 -132 175 -126 189 -114 _c
203 -102 218 -75 235 -31 _c
251 9 _l
30 547 _l
125 547 _l
296 119 _l
467 547 _l
562 547 _l
322 -50 _l
_cl}_d
end readonly def

/BuildGlyph
 {exch begin
 CharStrings exch
 2 copy known not{pop /.notdef}if
 true 3 1 roll get exec
 end}_d

/BuildChar {
 1 index /Encoding get exch get
 1 index /BuildGlyph get exec
}_d

FontName currentdict end definefont pop
end
%%EndProlog
mpldict begin
46.186 183.415 translate
519.628 425.171 0 0 clipbox
100000 setmiterlimit
gsave
0 0 m
519.628125 0 l
519.628125 425.170625 l
0 425.170625 l
cl
1.000 setgray
fill
grestore
gsave
66.028125 39.45 m
512.428125 39.45 l
512.428125 385.05 l
66.028125 385.05 l
cl
1.000 setgray
fill
grestore
1.000 setlinewidth
1 setlinejoin
2 setlinecap
[] 0 setdash
0.000 0.000 1.000 setrgbcolor
gsave
446.4 345.6 66.03 39.45 clipbox
66.028125 576.60699 m
67.592195 426.170625 m
70.537216 142.910885 l
75.046307 139.848956 l
79.555398 133.696683 l
84.064489 119.220829 l
88.57358 116.618413 l
93.08267 111.410234 l
97.591761 111.410234 l
102.100852 106.345879 l
106.609943 106.345879 l
111.119034 106.345879 l
115.628125 102.792681 l
120.137216 98.939017 l
124.646307 95.73979 l
129.155398 94.860998 l
133.664489 94.860998 l
138.17358 89.040955 l
142.68267 78.087582 l
147.191761 78.087582 l
151.700852 78.087582 l
156.209943 78.087582 l
160.719034 74.50955 l
165.228125 73.910749 l
169.737216 73.780305 l
174.246307 73.780305 l
178.755398 73.780305 l
183.264489 69.448007 l
187.77358 69.448007 l
192.28267 67.953066 l
196.791761 67.953066 l
201.300852 67.953066 l
205.809943 67.953066 l
210.319034 67.953066 l
214.828125 67.953066 l
219.337216 67.412287 l
223.846307 65.795354 l
228.355398 65.795354 l
232.864489 65.795354 l
237.37358 65.536961 l
241.88267 65.536961 l
246.391761 65.536961 l
250.900852 65.536961 l
255.409943 65.227915 l
259.919034 61.765836 l
264.428125 61.760273 l
268.937216 61.760273 l
273.446307 61.308581 l
277.955398 61.308581 l
282.464489 60.504011 l
286.97358 59.325708 l
291.48267 59.325708 l
295.991761 59.325708 l
300.500852 59.325708 l
305.009943 59.325708 l
309.519034 59.325708 l
314.028125 59.325708 l
318.537216 59.325708 l
323.046307 59.286524 l
327.555398 59.286524 l
332.064489 59.286524 l
336.57358 59.286524 l
341.08267 59.24894 l
345.591761 59.24894 l
350.100852 59.24894 l
354.609943 59.24894 l
359.119034 59.24894 l
363.628125 59.24894 l
368.137216 59.049603 l
372.646307 58.811994 l
377.155398 58.811994 l
381.664489 58.811994 l
386.17358 58.406166 l
390.68267 58.384516 l
395.191761 58.384516 l
399.700852 58.384516 l
404.209943 58.384516 l
408.719034 56.740913 l
413.228125 56.735399 l
417.737216 56.257181 l
422.246307 56.052631 l
426.755398 56.052631 l
431.264489 56.052631 l
435.77358 56.010047 l
440.28267 55.938748 l
444.791761 55.309954 l
449.300852 55.309954 l
453.809943 55.203589 l
458.319034 55.160699 l
462.828125 55.153588 l
467.337216 55.153588 l
471.846307 55.153588 l
476.355398 55.153588 l
480.864489 55.153425 l
485.37358 55.153425 l
489.88267 55.153425 l
494.391761 55.153425 l
498.900852 55.153425 l
503.409943 55.153425 l
507.919034 55.153425 l
512.428125 55.153425 l
stroke
grestore
0.000 0.500 0.000 setrgbcolor
gsave
446.4 345.6 66.03 39.45 clipbox
66.028125 113.464087 m
70.537216 113.464087 l
75.046307 107.05328 l
79.555398 103.375992 l
84.064489 103.375992 l
88.57358 103.375073 l
93.08267 103.375073 l
97.591761 103.375073 l
102.100852 100.143418 l
106.609943 99.343356 l
111.119034 99.343356 l
115.628125 99.343356 l
120.137216 99.155726 l
124.646307 99.155726 l
129.155398 80.883253 l
133.664489 80.883253 l
138.17358 80.883253 l
142.68267 80.883253 l
147.191761 80.883253 l
151.700852 79.86063 l
156.209943 79.86063 l
160.719034 79.86063 l
165.228125 79.86063 l
169.737216 79.32521 l
174.246307 77.896697 l
178.755398 77.691306 l
183.264489 76.399816 l
187.77358 76.399816 l
192.28267 76.399816 l
196.791761 69.476247 l
201.300852 69.476247 l
205.809943 69.476247 l
210.319034 69.476247 l
214.828125 69.476247 l
219.337216 69.476247 l
223.846307 69.476247 l
228.355398 69.435189 l
232.864489 69.435189 l
237.37358 68.033509 l
241.88267 66.526017 l
246.391761 66.526017 l
250.900852 62.853064 l
255.409943 61.587673 l
259.919034 61.587673 l
264.428125 60.036521 l
268.937216 60.036521 l
273.446307 60.036521 l
277.955398 60.036521 l
282.464489 59.731791 l
286.97358 59.731791 l
291.48267 59.691521 l
295.991761 59.691521 l
300.500852 59.459426 l
305.009943 59.459426 l
309.519034 59.459426 l
314.028125 58.911627 l
318.537216 58.911627 l
323.046307 58.911627 l
327.555398 58.911627 l
332.064489 58.911627 l
336.57358 56.225936 l
341.08267 56.225936 l
345.591761 56.225936 l
350.100852 53.56471 l
354.609943 53.56471 l
359.119034 53.518021 l
363.628125 53.518021 l
368.137216 53.518021 l
372.646307 53.518021 l
377.155398 53.518021 l
381.664489 53.518021 l
386.17358 53.518021 l
390.68267 53.518021 l
395.191761 53.518021 l
399.700852 53.494919 l
404.209943 53.481487 l
408.719034 53.481487 l
413.228125 53.481487 l
417.737216 53.481487 l
422.246307 53.481487 l
426.755398 53.481487 l
431.264489 53.481487 l
435.77358 53.476373 l
440.28267 53.476373 l
444.791761 53.476373 l
449.300852 53.476373 l
453.809943 53.476373 l
458.319034 53.476373 l
462.828125 53.476373 l
467.337216 53.476373 l
471.846307 53.476373 l
476.355398 53.476373 l
480.864489 53.476373 l
485.37358 53.476373 l
489.88267 53.450232 l
494.391761 53.450232 l
498.900852 53.450175 l
503.409943 53.450175 l
507.919034 53.450175 l
512.428125 53.450175 l
stroke
grestore
1.000 0.000 0.000 setrgbcolor
gsave
446.4 345.6 66.03 39.45 clipbox
66.028125 2264.757046 m
69.894333 426.170625 m
70.537216 120.446056 l
75.046307 120.446056 l
79.555398 110.503741 l
84.064489 109.460361 l
88.57358 105.930139 l
93.08267 92.594796 l
97.591761 91.290072 l
102.100852 91.089127 l
106.609943 91.089127 l
111.119034 85.000651 l
115.628125 85.000651 l
120.137216 85.000651 l
124.646307 85.000651 l
129.155398 85.000651 l
133.664489 85.000651 l
138.17358 84.800782 l
142.68267 83.274842 l
147.191761 74.576154 l
151.700852 74.574239 l
156.209943 74.574239 l
160.719034 74.574239 l
165.228125 74.574239 l
169.737216 74.515031 l
174.246307 72.719057 l
178.755398 65.615801 l
183.264489 65.475515 l
187.77358 63.307467 l
192.28267 63.307467 l
196.791761 63.307467 l
201.300852 63.307467 l
205.809943 62.59731 l
210.319034 62.59731 l
214.828125 62.59731 l
219.337216 62.59731 l
223.846307 60.87701 l
228.355398 60.87701 l
232.864489 59.994526 l
237.37358 59.994526 l
241.88267 59.994526 l
246.391761 59.994526 l
250.900852 59.994526 l
255.409943 59.992364 l
259.919034 59.992153 l
264.428125 59.992153 l
268.937216 59.992153 l
273.446307 59.992153 l
277.955398 59.992153 l
282.464489 59.992153 l
286.97358 59.982279 l
291.48267 59.982279 l
295.991761 59.982279 l
300.500852 59.982279 l
305.009943 59.982279 l
309.519034 59.907811 l
314.028125 59.907811 l
318.537216 59.907811 l
323.046307 59.906041 l
327.555398 59.906041 l
332.064489 59.906041 l
336.57358 59.906041 l
341.08267 59.906041 l
345.591761 59.906041 l
350.100852 59.906041 l
354.609943 59.906041 l
359.119034 59.906041 l
363.628125 59.906041 l
368.137216 59.694263 l
372.646307 59.694263 l
377.155398 59.694263 l
381.664489 59.564695 l
386.17358 57.355628 l
390.68267 56.761345 l
395.191761 55.568736 l
399.700852 55.568736 l
404.209943 55.568736 l
408.719034 55.55542 l
413.228125 55.55542 l
417.737216 55.545105 l
422.246307 55.545105 l
426.755398 54.948925 l
431.264489 54.948925 l
435.77358 54.948925 l
440.28267 54.948925 l
444.791761 54.948925 l
449.300852 54.948925 l
453.809943 54.188598 l
458.319034 54.188598 l
462.828125 54.188598 l
467.337216 54.105296 l
471.846307 54.105296 l
476.355398 54.105296 l
480.864489 54.089539 l
485.37358 53.935005 l
489.88267 53.935005 l
494.391761 53.935005 l
498.900852 53.935005 l
503.409943 53.935005 l
507.919034 53.935005 l
512.428125 53.935005 l
stroke
grestore
0.000 0.750 0.750 setrgbcolor
gsave
446.4 345.6 66.03 39.45 clipbox
66.028125 265.28054 m
70.537216 109.897566 l
75.046307 109.897566 l
79.555398 109.897566 l
84.064489 109.897566 l
88.57358 88.004287 l
93.08267 88.004287 l
97.591761 84.856503 l
102.100852 84.856503 l
106.609943 84.856503 l
111.119034 84.856503 l
115.628125 84.054583 l
120.137216 84.054583 l
124.646307 83.928649 l
129.155398 81.952137 l
133.664489 81.952137 l
138.17358 74.396195 l
142.68267 74.396195 l
147.191761 74.396195 l
151.700852 74.396195 l
156.209943 74.396195 l
160.719034 70.901144 l
165.228125 70.901144 l
169.737216 70.901144 l
174.246307 70.901144 l
178.755398 70.901144 l
183.264489 70.05193 l
187.77358 70.05193 l
192.28267 70.05193 l
196.791761 70.05193 l
201.300852 69.522152 l
205.809943 66.785497 l
210.319034 66.785497 l
214.828125 66.777536 l
219.337216 66.777536 l
223.846307 66.771831 l
228.355398 66.535579 l
232.864489 66.535579 l
237.37358 66.535579 l
241.88267 66.535579 l
246.391761 61.794708 l
250.900852 61.794708 l
255.409943 61.794708 l
259.919034 61.684015 l
264.428125 61.684015 l
268.937216 61.684015 l
273.446307 61.056021 l
277.955398 61.056021 l
282.464489 61.042949 l
286.97358 61.042949 l
291.48267 61.042949 l
295.991761 61.042949 l
300.500852 61.042949 l
305.009943 61.042949 l
309.519034 61.042949 l
314.028125 60.224139 l
318.537216 58.196531 l
323.046307 58.196531 l
327.555398 58.196531 l
332.064489 58.196531 l
336.57358 58.196531 l
341.08267 58.161404 l
345.591761 58.161404 l
350.100852 58.161404 l
354.609943 58.161404 l
359.119034 58.161404 l
363.628125 58.161404 l
368.137216 58.161404 l
372.646307 57.974824 l
377.155398 57.974824 l
381.664489 57.974824 l
386.17358 57.974824 l
390.68267 57.974824 l
395.191761 57.007951 l
399.700852 57.007951 l
404.209943 57.007951 l
408.719034 57.007951 l
413.228125 57.007951 l
417.737216 56.876019 l
422.246307 56.876019 l
426.755398 56.876019 l
431.264489 56.876019 l
435.77358 56.876019 l
440.28267 56.266076 l
444.791761 56.266076 l
449.300852 56.253002 l
453.809943 56.253002 l
458.319034 56.253002 l
462.828125 56.214586 l
467.337216 56.214586 l
471.846307 56.136913 l
476.355398 56.1239 l
480.864489 56.123669 l
485.37358 56.123669 l
489.88267 56.123669 l
494.391761 56.003585 l
498.900852 56.003585 l
503.409943 56.003585 l
507.919034 56.003585 l
512.428125 56.003585 l
stroke
grestore
0.750 0.000 0.750 setrgbcolor
gsave
446.4 345.6 66.03 39.45 clipbox
66.028125 139.682408 m
70.537216 136.364017 l
75.046307 136.364017 l
79.555398 136.364017 l
84.064489 98.750174 l
88.57358 98.750174 l
93.08267 98.750174 l
97.591761 98.750174 l
102.100852 89.221254 l
106.609943 86.60417 l
111.119034 86.359146 l
115.628125 86.212957 l
120.137216 85.947574 l
124.646307 85.730448 l
129.155398 85.175127 l
133.664489 85.162929 l
138.17358 85.162929 l
142.68267 84.323595 l
147.191761 84.323595 l
151.700852 83.856659 l
156.209943 83.124546 l
160.719034 82.343369 l
165.228125 75.081811 l
169.737216 73.596129 l
174.246307 73.228821 l
178.755398 73.228821 l
183.264489 73.228821 l
187.77358 67.984994 l
192.28267 67.984994 l
196.791761 67.936162 l
201.300852 66.616456 l
205.809943 66.616456 l
210.319034 66.616456 l
214.828125 66.616456 l
219.337216 66.616456 l
223.846307 63.441749 l
228.355398 63.441749 l
232.864489 62.654588 l
237.37358 62.6014 l
241.88267 62.507089 l
246.391761 62.493724 l
250.900852 62.493724 l
255.409943 62.183065 l
259.919034 61.875099 l
264.428125 61.875099 l
268.937216 61.723287 l
273.446307 61.701915 l
277.955398 61.055362 l
282.464489 59.887004 l
286.97358 59.887004 l
291.48267 59.887004 l
295.991761 59.887004 l
300.500852 59.887004 l
305.009943 59.887004 l
309.519034 59.887004 l
314.028125 59.887004 l
318.537216 59.210047 l
323.046307 59.210047 l
327.555398 59.048487 l
332.064489 59.048487 l
336.57358 58.788177 l
341.08267 58.788177 l
345.591761 58.78809 l
350.100852 58.78809 l
354.609943 58.78809 l
359.119034 58.78809 l
363.628125 58.78809 l
368.137216 58.78809 l
372.646307 58.78809 l
377.155398 58.78809 l
381.664489 58.734889 l
386.17358 58.599315 l
390.68267 58.599315 l
395.191761 58.405606 l
399.700852 58.405606 l
404.209943 58.405606 l
408.719034 58.392053 l
413.228125 58.392053 l
417.737216 58.093281 l
422.246307 58.093281 l
426.755398 58.093281 l
431.264489 57.769414 l
435.77358 55.304396 l
440.28267 55.302353 l
444.791761 55.302353 l
449.300852 55.0324 l
453.809943 55.0324 l
458.319034 55.0324 l
462.828125 55.0324 l
467.337216 55.0324 l
471.846307 54.225556 l
476.355398 54.225556 l
480.864489 54.180469 l
485.37358 54.180469 l
489.88267 54.180469 l
494.391761 54.180469 l
498.900852 54.180469 l
503.409943 54.180469 l
507.919034 54.180469 l
512.428125 53.975448 l
stroke
grestore
0.750 0.750 0.000 setrgbcolor
gsave
446.4 345.6 66.03 39.45 clipbox
66.028125 634.105421 m
67.854696 426.170625 m
70.537216 120.7956 l
75.046307 120.652701 l
79.555398 120.358384 l
84.064489 96.278463 l
88.57358 93.205445 l
93.08267 91.620791 l
97.591761 91.620791 l
102.100852 91.620791 l
106.609943 89.285724 l
111.119034 88.515121 l
115.628125 88.515121 l
120.137216 75.020426 l
124.646307 75.020426 l
129.155398 75.020426 l
133.664489 75.020426 l
138.17358 72.581498 l
142.68267 72.581498 l
147.191761 69.788161 l
151.700852 69.788161 l
156.209943 69.788161 l
160.719034 69.788161 l
165.228125 69.788161 l
169.737216 69.788161 l
174.246307 69.788161 l
178.755398 69.788161 l
183.264489 69.788161 l
187.77358 69.788161 l
192.28267 69.788161 l
196.791761 69.585045 l
201.300852 69.580142 l
205.809943 69.580142 l
210.319034 69.298844 l
214.828125 69.298844 l
219.337216 69.298844 l
223.846307 69.298844 l
228.355398 69.298844 l
232.864489 68.760806 l
237.37358 63.877457 l
241.88267 62.404569 l
246.391761 61.918287 l
250.900852 61.918287 l
255.409943 61.918287 l
259.919034 61.918287 l
264.428125 61.918287 l
268.937216 61.918287 l
273.446307 61.918287 l
277.955398 61.918287 l
282.464489 61.918287 l
286.97358 61.918287 l
291.48267 61.918287 l
295.991761 61.918287 l
300.500852 61.918287 l
305.009943 61.918287 l
309.519034 60.520441 l
314.028125 60.520441 l
318.537216 57.89893 l
323.046307 57.730056 l
327.555398 57.577467 l
332.064489 57.577467 l
336.57358 57.577467 l
341.08267 57.157173 l
345.591761 55.938619 l
350.100852 55.938619 l
354.609943 55.86767 l
359.119034 55.726887 l
363.628125 55.726887 l
368.137216 55.622032 l
372.646307 55.622032 l
377.155398 55.61832 l
381.664489 55.61832 l
386.17358 55.61832 l
390.68267 55.61832 l
395.191761 55.61832 l
399.700852 55.61832 l
404.209943 55.203373 l
408.719034 54.538128 l
413.228125 54.538128 l
417.737216 54.538128 l
422.246307 54.538128 l
426.755398 54.538128 l
431.264489 54.538128 l
435.77358 54.538128 l
440.28267 54.538128 l
444.791761 54.538128 l
449.300852 54.538128 l
453.809943 54.48852 l
458.319034 54.363458 l
462.828125 54.308122 l
467.337216 54.219006 l
471.846307 54.219006 l
476.355398 54.219006 l
480.864489 54.219006 l
485.37358 54.216205 l
489.88267 54.216205 l
494.391761 54.216205 l
498.900852 54.177404 l
503.409943 54.177404 l
507.919034 54.177404 l
512.428125 54.177404 l
stroke
grestore
0.000 setgray
gsave
446.4 345.6 66.03 39.45 clipbox
66.028125 541.942788 m
67.25288 426.170625 m
70.537216 115.712802 l
75.046307 115.712802 l
79.555398 86.19336 l
84.064489 86.096673 l
88.57358 86.096673 l
93.08267 81.005528 l
97.591761 78.39547 l
102.100852 78.39547 l
106.609943 78.39547 l
111.119034 78.39547 l
115.628125 78.39547 l
120.137216 78.39547 l
124.646307 78.39547 l
129.155398 77.299448 l
133.664489 77.030775 l
138.17358 76.842912 l
142.68267 76.842912 l
147.191761 75.945832 l
151.700852 75.945832 l
156.209943 71.595668 l
160.719034 69.303575 l
165.228125 69.220539 l
169.737216 67.332868 l
174.246307 67.332868 l
178.755398 67.259542 l
183.264489 67.259542 l
187.77358 65.350601 l
192.28267 65.350601 l
196.791761 64.174148 l
201.300852 63.646895 l
205.809943 63.612561 l
210.319034 63.612561 l
214.828125 63.612561 l
219.337216 59.761435 l
223.846307 59.336113 l
228.355398 57.014222 l
232.864489 57.014222 l
237.37358 57.014222 l
241.88267 57.014222 l
246.391761 56.44192 l
250.900852 56.44192 l
255.409943 56.44192 l
259.919034 56.319654 l
264.428125 56.045139 l
268.937216 56.045139 l
273.446307 54.877807 l
277.955398 54.832889 l
282.464489 54.832889 l
286.97358 54.832889 l
291.48267 54.183918 l
295.991761 54.183918 l
300.500852 54.183918 l
305.009943 54.183918 l
309.519034 53.953293 l
314.028125 53.841553 l
318.537216 53.841553 l
323.046307 53.841553 l
327.555398 53.841553 l
332.064489 53.841553 l
336.57358 53.841553 l
341.08267 53.836329 l
345.591761 53.836329 l
350.100852 53.801453 l
354.609943 53.801453 l
359.119034 53.801453 l
363.628125 53.801453 l
368.137216 53.801453 l
372.646307 53.801453 l
377.155398 53.791492 l
381.664489 53.790672 l
386.17358 53.790672 l
390.68267 53.790672 l
395.191761 53.751844 l
399.700852 53.751844 l
404.209943 53.751844 l
408.719034 53.736012 l
413.228125 53.733988 l
417.737216 53.733988 l
422.246307 53.51235 l
426.755398 53.51235 l
431.264489 53.51235 l
435.77358 53.51235 l
440.28267 53.51235 l
444.791761 53.51235 l
449.300852 53.510085 l
453.809943 53.510085 l
458.319034 53.510085 l
462.828125 53.510085 l
467.337216 53.510085 l
471.846307 53.510085 l
476.355398 53.510085 l
480.864489 53.510085 l
485.37358 53.510085 l
489.88267 53.510085 l
494.391761 53.510085 l
498.900852 53.510085 l
503.409943 53.510085 l
507.919034 53.510085 l
512.428125 53.510085 l
stroke
grestore
0.000 0.000 1.000 setrgbcolor
gsave
446.4 345.6 66.03 39.45 clipbox
66.028125 202.512175 m
70.537216 202.512175 l
75.046307 202.512175 l
79.555398 166.559046 l
84.064489 133.550716 l
88.57358 130.265535 l
93.08267 130.265535 l
97.591761 130.265535 l
102.100852 130.265535 l
106.609943 111.701838 l
111.119034 87.965527 l
115.628125 87.965527 l
120.137216 87.965527 l
124.646307 87.183968 l
129.155398 87.183968 l
133.664489 87.183968 l
138.17358 84.509419 l
142.68267 73.532061 l
147.191761 73.532061 l
151.700852 72.078516 l
156.209943 69.673398 l
160.719034 69.673398 l
165.228125 67.981944 l
169.737216 67.981944 l
174.246307 67.981944 l
178.755398 66.416629 l
183.264489 66.416629 l
187.77358 66.296672 l
192.28267 66.296672 l
196.791761 66.296672 l
201.300852 65.479061 l
205.809943 65.479061 l
210.319034 62.804537 l
214.828125 62.804537 l
219.337216 62.804537 l
223.846307 62.30886 l
228.355398 62.231681 l
232.864489 62.231681 l
237.37358 62.231681 l
241.88267 62.180283 l
246.391761 61.89621 l
250.900852 61.727058 l
255.409943 61.727058 l
259.919034 61.727058 l
264.428125 60.911247 l
268.937216 60.803055 l
273.446307 60.803055 l
277.955398 60.803055 l
282.464489 58.84938 l
286.97358 58.84938 l
291.48267 58.84938 l
295.991761 58.84938 l
300.500852 57.308361 l
305.009943 57.308361 l
309.519034 57.308361 l
314.028125 56.717471 l
318.537216 56.717471 l
323.046307 56.717471 l
327.555398 56.717471 l
332.064489 56.717471 l
336.57358 56.717471 l
341.08267 56.717471 l
345.591761 56.717471 l
350.100852 56.717471 l
354.609943 56.696057 l
359.119034 56.696057 l
363.628125 56.696057 l
368.137216 56.696057 l
372.646307 56.696057 l
377.155398 56.696057 l
381.664489 54.807859 l
386.17358 54.768304 l
390.68267 54.768304 l
395.191761 54.768304 l
399.700852 54.768304 l
404.209943 54.768304 l
408.719034 54.768304 l
413.228125 54.768304 l
417.737216 54.601018 l
422.246307 54.598351 l
426.755398 54.598351 l
431.264489 54.549459 l
435.77358 54.549459 l
440.28267 54.549459 l
444.791761 54.549459 l
449.300852 54.549459 l
453.809943 54.549338 l
458.319034 54.549338 l
462.828125 54.549338 l
467.337216 54.549338 l
471.846307 54.423433 l
476.355398 54.423433 l
480.864489 54.423433 l
485.37358 54.423433 l
489.88267 54.423433 l
494.391761 54.423433 l
498.900852 54.423433 l
503.409943 54.423433 l
507.919034 54.396497 l
512.428125 54.396497 l
stroke
grestore
0.000 0.500 0.000 setrgbcolor
gsave
446.4 345.6 66.03 39.45 clipbox
66.028125 541.942788 m
67.25288 426.170625 m
70.537216 115.712802 l
75.046307 115.712802 l
79.555398 86.19336 l
84.064489 86.096673 l
88.57358 86.096673 l
93.08267 81.005528 l
97.591761 78.39547 l
102.100852 78.39547 l
106.609943 78.39547 l
111.119034 78.39547 l
115.628125 78.39547 l
120.137216 78.39547 l
124.646307 78.39547 l
129.155398 77.299448 l
133.664489 77.030775 l
138.17358 76.842912 l
142.68267 76.842912 l
147.191761 75.945832 l
151.700852 75.945832 l
156.209943 71.595668 l
160.719034 69.303575 l
165.228125 69.220539 l
169.737216 67.332868 l
174.246307 67.332868 l
178.755398 67.259542 l
183.264489 67.259542 l
187.77358 65.350601 l
192.28267 65.350601 l
196.791761 64.174148 l
201.300852 63.646895 l
205.809943 63.612561 l
210.319034 63.612561 l
214.828125 63.612561 l
219.337216 59.761435 l
223.846307 59.336113 l
228.355398 57.014222 l
232.864489 57.014222 l
237.37358 57.014222 l
241.88267 57.014222 l
246.391761 56.44192 l
250.900852 56.44192 l
255.409943 56.44192 l
259.919034 56.319654 l
264.428125 56.045139 l
268.937216 56.045139 l
273.446307 54.877807 l
277.955398 54.832889 l
282.464489 54.832889 l
286.97358 54.832889 l
291.48267 54.183918 l
295.991761 54.183918 l
300.500852 54.183918 l
305.009943 54.183918 l
309.519034 53.953293 l
314.028125 53.841553 l
318.537216 53.841553 l
323.046307 53.841553 l
327.555398 53.841553 l
332.064489 53.841553 l
336.57358 53.841553 l
341.08267 53.836329 l
345.591761 53.836329 l
350.100852 53.801453 l
354.609943 53.801453 l
359.119034 53.801453 l
363.628125 53.801453 l
368.137216 53.801453 l
372.646307 53.801453 l
377.155398 53.791492 l
381.664489 53.790672 l
386.17358 53.790672 l
390.68267 53.790672 l
395.191761 53.751844 l
399.700852 53.751844 l
404.209943 53.751844 l
408.719034 53.736012 l
413.228125 53.733988 l
417.737216 53.733988 l
422.246307 53.51235 l
426.755398 53.51235 l
431.264489 53.51235 l
435.77358 53.51235 l
440.28267 53.51235 l
444.791761 53.51235 l
449.300852 53.510085 l
453.809943 53.510085 l
458.319034 53.510085 l
462.828125 53.510085 l
467.337216 53.510085 l
471.846307 53.510085 l
476.355398 53.510085 l
480.864489 53.510085 l
485.37358 53.510085 l
489.88267 53.510085 l
494.391761 53.510085 l
498.900852 53.510085 l
503.409943 53.510085 l
507.919034 53.510085 l
512.428125 53.510085 l
stroke
grestore
1.000 0.000 0.000 setrgbcolor
gsave
446.4 345.6 66.03 39.45 clipbox
66.028125 2103.420065 m
69.982691 426.170625 m
70.537216 190.980226 l
75.046307 95.12188 l
79.555398 95.12188 l
84.064489 95.12188 l
88.57358 95.12188 l
93.08267 95.12188 l
97.591761 95.12188 l
102.100852 95.12188 l
106.609943 95.12188 l
111.119034 95.12188 l
115.628125 95.12188 l
120.137216 94.069364 l
124.646307 82.01192 l
129.155398 82.01192 l
133.664489 82.01192 l
138.17358 78.472026 l
142.68267 78.472026 l
147.191761 76.742113 l
151.700852 76.742113 l
156.209943 74.097267 l
160.719034 72.349002 l
165.228125 72.349002 l
169.737216 67.642762 l
174.246307 67.642762 l
178.755398 67.642762 l
183.264489 66.491502 l
187.77358 66.491502 l
192.28267 66.491502 l
196.791761 65.694876 l
201.300852 65.694876 l
205.809943 64.191718 l
210.319034 64.191718 l
214.828125 64.189339 l
219.337216 64.189339 l
223.846307 64.052504 l
228.355398 64.052504 l
232.864489 60.617749 l
237.37358 60.598827 l
241.88267 55.839505 l
246.391761 55.839505 l
250.900852 55.839505 l
255.409943 54.861907 l
259.919034 54.861907 l
264.428125 54.67846 l
268.937216 54.67846 l
273.446307 54.67846 l
277.955398 54.67846 l
282.464489 54.67846 l
286.97358 54.631819 l
291.48267 54.631819 l
295.991761 54.322531 l
300.500852 54.322531 l
305.009943 54.322531 l
309.519034 54.322531 l
314.028125 54.322531 l
318.537216 54.322531 l
323.046307 54.322531 l
327.555398 54.231814 l
332.064489 54.136911 l
336.57358 54.136911 l
341.08267 54.136911 l
345.591761 54.136911 l
350.100852 54.136911 l
354.609943 54.136911 l
359.119034 54.136911 l
363.628125 54.136911 l
368.137216 54.136911 l
372.646307 54.136911 l
377.155398 54.136911 l
381.664489 54.136911 l
386.17358 54.136911 l
390.68267 54.136911 l
395.191761 54.136911 l
399.700852 54.136911 l
404.209943 54.136911 l
408.719034 54.127471 l
413.228125 54.113904 l
417.737216 54.113904 l
422.246307 54.113904 l
426.755398 54.113904 l
431.264489 54.113904 l
435.77358 53.592716 l
440.28267 53.592716 l
444.791761 53.592716 l
449.300852 53.592716 l
453.809943 53.592716 l
458.319034 53.592716 l
462.828125 53.527942 l
467.337216 53.459108 l
471.846307 53.459108 l
476.355398 53.459108 l
480.864489 53.459108 l
485.37358 53.459108 l
489.88267 53.459108 l
494.391761 53.459108 l
498.900852 53.459108 l
503.409943 53.459108 l
507.919034 53.459108 l
512.428125 53.459108 l
stroke
grestore
0 setlinecap
[6 6] 0 setdash
gsave
446.4 345.6 66.03 39.45 clipbox
66.028125 53.450175 m
512.428125 53.450175 l
stroke
grestore
0 setlinejoin
2 setlinecap
[] 0 setdash
0.000 setgray
gsave
66.028125 385.05 m
512.428125 385.05 l
stroke
grestore
gsave
512.428125 39.45 m
512.428125 385.05 l
stroke
grestore
gsave
66.028125 39.45 m
512.428125 39.45 l
stroke
grestore
gsave
66.028125 39.45 m
66.028125 385.05 l
stroke
grestore
0.500 setlinewidth
1 setlinejoin
0 setlinecap
gsave
/o {
gsave
newpath
translate
0.5 setlinewidth
1 setlinejoin
0 setlinecap
0 0 m
0 4 l

gsave
0.000 setgray
fill
grestore
stroke
grestore
} bind def
66.0281 39.45 o
grestore
gsave
/o {
gsave
newpath
translate
0.5 setlinewidth
1 setlinejoin
0 setlinecap
0 0 m
0 -4 l

gsave
0.000 setgray
fill
grestore
stroke
grestore
} bind def
66.0281 385.05 o
grestore
/BitstreamVeraSans-Roman findfont
12.000 scalefont
setfont
gsave
62.207813 26.325000 translate
0.000000 rotate
0.000000 0.000000 m /zero glyphshow
grestore
gsave
/o {
gsave
newpath
translate
0.5 setlinewidth
1 setlinejoin
0 setlinecap
0 0 m
0 4 l

gsave
0.000 setgray
fill
grestore
stroke
grestore
} bind def
156.21 39.45 o
grestore
gsave
/o {
gsave
newpath
translate
0.5 setlinewidth
1 setlinejoin
0 setlinecap
0 0 m
0 -4 l

gsave
0.000 setgray
fill
grestore
stroke
grestore
} bind def
156.21 385.05 o
grestore
gsave
148.569318 26.325000 translate
0.000000 rotate
0.000000 0.000000 m /two glyphshow
7.634766 0.000000 m /zero glyphshow
grestore
gsave
/o {
gsave
newpath
translate
0.5 setlinewidth
1 setlinejoin
0 setlinecap
0 0 m
0 4 l

gsave
0.000 setgray
fill
grestore
stroke
grestore
} bind def
246.392 39.45 o
grestore
gsave
/o {
gsave
newpath
translate
0.5 setlinewidth
1 setlinejoin
0 setlinecap
0 0 m
0 -4 l

gsave
0.000 setgray
fill
grestore
stroke
grestore
} bind def
246.392 385.05 o
grestore
gsave
238.751136 26.325000 translate
0.000000 rotate
0.000000 0.000000 m /four glyphshow
7.634766 0.000000 m /zero glyphshow
grestore
gsave
/o {
gsave
newpath
translate
0.5 setlinewidth
1 setlinejoin
0 setlinecap
0 0 m
0 4 l

gsave
0.000 setgray
fill
grestore
stroke
grestore
} bind def
336.574 39.45 o
grestore
gsave
/o {
gsave
newpath
translate
0.5 setlinewidth
1 setlinejoin
0 setlinecap
0 0 m
0 -4 l

gsave
0.000 setgray
fill
grestore
stroke
grestore
} bind def
336.574 385.05 o
grestore
gsave
328.932955 26.325000 translate
0.000000 rotate
0.000000 0.000000 m /six glyphshow
7.634766 0.000000 m /zero glyphshow
grestore
gsave
/o {
gsave
newpath
translate
0.5 setlinewidth
1 setlinejoin
0 setlinecap
0 0 m
0 4 l

gsave
0.000 setgray
fill
grestore
stroke
grestore
} bind def
426.755 39.45 o
grestore
gsave
/o {
gsave
newpath
translate
0.5 setlinewidth
1 setlinejoin
0 setlinecap
0 0 m
0 -4 l

gsave
0.000 setgray
fill
grestore
stroke
grestore
} bind def
426.755 385.05 o
grestore
gsave
419.114773 26.325000 translate
0.000000 rotate
0.000000 0.000000 m /eight glyphshow
7.634766 0.000000 m /zero glyphshow
grestore
gsave
263.767188 9.700000 translate
0.000000 rotate
0.000000 0.000000 m /I glyphshow
3.539062 0.000000 m /t glyphshow
8.244141 0.000000 m /e glyphshow
15.626953 0.000000 m /r glyphshow
20.560547 0.000000 m /a glyphshow
27.914062 0.000000 m /t glyphshow
32.619141 0.000000 m /i glyphshow
35.953125 0.000000 m /o glyphshow
43.294922 0.000000 m /n glyphshow
grestore
gsave
/o {
gsave
newpath
translate
0.5 setlinewidth
1 setlinejoin
0 setlinecap
0 0 m
4 0 l

gsave
0.000 setgray
fill
grestore
stroke
grestore
} bind def
66.0281 39.45 o
grestore
gsave
/o {
gsave
newpath
translate
0.5 setlinewidth
1 setlinejoin
0 setlinecap
0 0 m
-4 0 l

gsave
0.000 setgray
fill
grestore
stroke
grestore
} bind def
512.428 39.45 o
grestore
gsave
54.387500 36.137500 translate
0.000000 rotate
0.000000 0.000000 m /zero glyphshow
grestore
gsave
/o {
gsave
newpath
translate
0.5 setlinewidth
1 setlinejoin
0 setlinecap
0 0 m
4 0 l

gsave
0.000 setgray
fill
grestore
stroke
grestore
} bind def
66.0281 108.57 o
grestore
gsave
/o {
gsave
newpath
translate
0.5 setlinewidth
1 setlinejoin
0 setlinecap
0 0 m
-4 0 l

gsave
0.000 setgray
fill
grestore
stroke
grestore
} bind def
512.428 108.57 o
grestore
gsave
31.465625 105.257500 translate
0.000000 rotate
0.000000 0.000000 m /two glyphshow
7.634766 0.000000 m /zero glyphshow
15.269531 0.000000 m /zero glyphshow
22.904297 0.000000 m /zero glyphshow
grestore
gsave
/o {
gsave
newpath
translate
0.5 setlinewidth
1 setlinejoin
0 setlinecap
0 0 m
4 0 l

gsave
0.000 setgray
fill
grestore
stroke
grestore
} bind def
66.0281 177.69 o
grestore
gsave
/o {
gsave
newpath
translate
0.5 setlinewidth
1 setlinejoin
0 setlinecap
0 0 m
-4 0 l

gsave
0.000 setgray
fill
grestore
stroke
grestore
} bind def
512.428 177.69 o
grestore
gsave
31.465625 174.377500 translate
0.000000 rotate
0.000000 0.000000 m /four glyphshow
7.634766 0.000000 m /zero glyphshow
15.269531 0.000000 m /zero glyphshow
22.904297 0.000000 m /zero glyphshow
grestore
gsave
/o {
gsave
newpath
translate
0.5 setlinewidth
1 setlinejoin
0 setlinecap
0 0 m
4 0 l

gsave
0.000 setgray
fill
grestore
stroke
grestore
} bind def
66.0281 246.81 o
grestore
gsave
/o {
gsave
newpath
translate
0.5 setlinewidth
1 setlinejoin
0 setlinecap
0 0 m
-4 0 l

gsave
0.000 setgray
fill
grestore
stroke
grestore
} bind def
512.428 246.81 o
grestore
gsave
31.465625 243.497500 translate
0.000000 rotate
0.000000 0.000000 m /six glyphshow
7.634766 0.000000 m /zero glyphshow
15.269531 0.000000 m /zero glyphshow
22.904297 0.000000 m /zero glyphshow
grestore
gsave
/o {
gsave
newpath
translate
0.5 setlinewidth
1 setlinejoin
0 setlinecap
0 0 m
4 0 l

gsave
0.000 setgray
fill
grestore
stroke
grestore
} bind def
66.0281 315.93 o
grestore
gsave
/o {
gsave
newpath
translate
0.5 setlinewidth
1 setlinejoin
0 setlinecap
0 0 m
-4 0 l

gsave
0.000 setgray
fill
grestore
stroke
grestore
} bind def
512.428 315.93 o
grestore
gsave
31.465625 312.617500 translate
0.000000 rotate
0.000000 0.000000 m /eight glyphshow
7.634766 0.000000 m /zero glyphshow
15.269531 0.000000 m /zero glyphshow
22.904297 0.000000 m /zero glyphshow
grestore
gsave
/o {
gsave
newpath
translate
0.5 setlinewidth
1 setlinejoin
0 setlinecap
0 0 m
4 0 l

gsave
0.000 setgray
fill
grestore
stroke
grestore
} bind def
66.0281 385.05 o
grestore
gsave
/o {
gsave
newpath
translate
0.5 setlinewidth
1 setlinejoin
0 setlinecap
0 0 m
-4 0 l

gsave
0.000 setgray
fill
grestore
stroke
grestore
} bind def
512.428 385.05 o
grestore
gsave
23.825000 381.737500 translate
0.000000 rotate
0.000000 0.000000 m /one glyphshow
7.634766 0.000000 m /zero glyphshow
15.269531 0.000000 m /zero glyphshow
22.904297 0.000000 m /zero glyphshow
30.539062 0.000000 m /zero glyphshow
grestore
gsave
16.325000 191.031250 translate
90.000000 rotate
0.000000 0.000000 m /F glyphshow
6.902344 0.000000 m /i glyphshow
10.236328 0.000000 m /t glyphshow
14.941406 0.000000 m /n glyphshow
22.546875 0.000000 m /e glyphshow
29.929688 0.000000 m /s glyphshow
36.181641 0.000000 m /s glyphshow
grestore
gsave
70.537216 53.277375 translate
0.000000 rotate
0.000000 0.000000 m /four glyphshow
7.634766 0.000000 m /zero glyphshow
15.269531 0.000000 m /five glyphshow
22.904297 0.000000 m /period glyphshow
26.718750 0.000000 m /one glyphshow
34.353516 0.000000 m /zero glyphshow
grestore
/BitstreamVeraSans-Roman findfont
14.400 scalefont
setfont
gsave
167.056250 407.330000 translate
0.000000 rotate
0.000000 0.000000 m /C glyphshow
10.037231 0.000000 m /o glyphshow
18.832092 0.000000 m /n glyphshow
27.942810 0.000000 m /v glyphshow
36.449890 0.000000 m /e glyphshow
45.293884 0.000000 m /r glyphshow
51.203918 0.000000 m /g glyphshow
60.328674 0.000000 m /e glyphshow
69.172668 0.000000 m /n glyphshow
78.283386 0.000000 m /c glyphshow
86.186829 0.000000 m /e glyphshow
95.030823 0.000000 m /space glyphshow
99.600220 0.000000 m /f glyphshow
104.660950 0.000000 m /o glyphshow
113.455811 0.000000 m /r glyphshow
119.365845 0.000000 m /space glyphshow
123.935242 0.000000 m /B glyphshow
133.796997 0.000000 m /E glyphshow
142.879639 0.000000 m /E glyphshow
151.962280 0.000000 m /comma glyphshow
156.531677 0.000000 m /space glyphshow
161.101074 0.000000 m /t glyphshow
166.737366 0.000000 m /e glyphshow
175.581360 0.000000 m /r glyphshow
181.491394 0.000000 m /r glyphshow
187.401428 0.000000 m /a glyphshow
196.210327 0.000000 m /i glyphshow
200.204163 0.000000 m /n glyphshow
209.314880 0.000000 m /space glyphshow
213.884277 0.000000 m /o glyphshow
222.679138 0.000000 m /n glyphshow
231.789856 0.000000 m /l glyphshow
235.783691 0.000000 m /y glyphshow
grestore

end
showpage
