%!PS-Adobe-3.0 EPSF-3.0
%%Title: conv_DE_a.eps
%%Creator: matplotlib version 1.5.1, http://matplotlib.org/
%%CreationDate: Sun Nov 11 19:45:50 2018
%%Orientation: portrait
%%BoundingBox: 46 183 565 608
%%EndComments
%%BeginProlog
/mpldict 8 dict def
mpldict begin
/m { moveto } bind def
/l { lineto } bind def
/r { rlineto } bind def
/c { curveto } bind def
/cl { closepath } bind def
/box {
m
1 index 0 r
0 exch r
neg 0 r
cl
} bind def
/clipbox {
box
clip
newpath
} bind def
%!PS-Adobe-3.0 Resource-Font
%%Title: Bitstream Vera Sans
%%Copyright: Copyright (c) 2003 by Bitstream, Inc. All Rights Reserved.
%%Creator: Converted from TrueType to type 3 by PPR
25 dict begin
/_d{bind def}bind def
/_m{moveto}_d
/_l{lineto}_d
/_cl{closepath eofill}_d
/_c{curveto}_d
/_sc{7 -1 roll{setcachedevice}{pop pop pop pop pop pop}ifelse}_d
/_e{exec}_d
/FontName /BitstreamVeraSans-Roman def
/PaintType 0 def
/FontMatrix[.001 0 0 .001 0 0]def
/FontBBox[-183 -236 1287 928]def
/FontType 3 def
/Encoding [ /space /comma /period /zero /one /two /four /five /six /seven /eight /C /D /E /F /I /a /c /e /f /g /i /l /n /o /r /s /t /v /y ] def
/FontInfo 10 dict dup begin
/FamilyName (Bitstream Vera Sans) def
/FullName (Bitstream Vera Sans) def
/Notice (Copyright (c) 2003 by Bitstream, Inc. All Rights Reserved. Bitstream Vera is a trademark of Bitstream, Inc.) def
/Weight (Roman) def
/Version (Release 1.10) def
/ItalicAngle 0.0 def
/isFixedPitch false def
/UnderlinePosition -213 def
/UnderlineThickness 143 def
end readonly def
/CharStrings 30 dict dup begin
/space{318 0 0 0 0 0 _sc
}_d
/comma{318 0 77 -115 220 124 _sc
117 124 _m
220 124 _l
220 40 _l
140 -115 _l
77 -115 _l
117 40 _l
117 124 _l
_cl}_d
/period{318 0 107 0 210 124 _sc
107 124 _m
210 124 _l
210 0 _l
107 0 _l
107 124 _l
_cl}_d
/zero{636 0 66 -13 570 742 _sc
318 664 _m
267 664 229 639 203 589 _c
177 539 165 464 165 364 _c
165 264 177 189 203 139 _c
229 89 267 64 318 64 _c
369 64 407 89 433 139 _c
458 189 471 264 471 364 _c
471 464 458 539 433 589 _c
407 639 369 664 318 664 _c
318 742 _m
399 742 461 709 505 645 _c
548 580 570 486 570 364 _c
570 241 548 147 505 83 _c
461 19 399 -13 318 -13 _c
236 -13 173 19 130 83 _c
87 147 66 241 66 364 _c
66 486 87 580 130 645 _c
173 709 236 742 318 742 _c
_cl}_d
/one{636 0 110 0 544 729 _sc
124 83 _m
285 83 _l
285 639 _l
110 604 _l
110 694 _l
284 729 _l
383 729 _l
383 83 _l
544 83 _l
544 0 _l
124 0 _l
124 83 _l
_cl}_d
/two{{636 0 73 0 536 742 _sc
192 83 _m
536 83 _l
536 0 _l
73 0 _l
73 83 _l
110 121 161 173 226 239 _c
290 304 331 346 348 365 _c
380 400 402 430 414 455 _c
426 479 433 504 433 528 _c
433 566 419 598 392 622 _c
365 646 330 659 286 659 _c
255 659 222 653 188 643 _c
154 632 117 616 78 594 _c
78 694 _l
118 710 155 722 189 730 _c
223 738 255 742 284 742 _c
}_e{359 742 419 723 464 685 _c
509 647 532 597 532 534 _c
532 504 526 475 515 449 _c
504 422 484 390 454 354 _c
446 344 420 317 376 272 _c
332 227 271 164 192 83 _c
_cl}_e}_d
/four{636 0 49 0 580 729 _sc
378 643 _m
129 254 _l
378 254 _l
378 643 _l
352 729 _m
476 729 _l
476 254 _l
580 254 _l
580 172 _l
476 172 _l
476 0 _l
378 0 _l
378 172 _l
49 172 _l
49 267 _l
352 729 _l
_cl}_d
/five{{636 0 77 -13 549 729 _sc
108 729 _m
495 729 _l
495 646 _l
198 646 _l
198 467 _l
212 472 227 476 241 478 _c
255 480 270 482 284 482 _c
365 482 429 459 477 415 _c
525 370 549 310 549 234 _c
549 155 524 94 475 51 _c
426 8 357 -13 269 -13 _c
238 -13 207 -10 175 -6 _c
143 -1 111 6 77 17 _c
77 116 _l
106 100 136 88 168 80 _c
199 72 232 69 267 69 _c
}_e{323 69 368 83 401 113 _c
433 143 450 183 450 234 _c
450 284 433 324 401 354 _c
368 384 323 399 267 399 _c
241 399 214 396 188 390 _c
162 384 135 375 108 363 _c
108 729 _l
_cl}_e}_d
/six{{636 0 70 -13 573 742 _sc
330 404 _m
286 404 251 388 225 358 _c
199 328 186 286 186 234 _c
186 181 199 139 225 109 _c
251 79 286 64 330 64 _c
374 64 409 79 435 109 _c
461 139 474 181 474 234 _c
474 286 461 328 435 358 _c
409 388 374 404 330 404 _c
526 713 _m
526 623 _l
501 635 476 644 451 650 _c
425 656 400 659 376 659 _c
310 659 260 637 226 593 _c
}_e{192 549 172 482 168 394 _c
187 422 211 444 240 459 _c
269 474 301 482 336 482 _c
409 482 467 459 509 415 _c
551 371 573 310 573 234 _c
573 159 550 99 506 54 _c
462 9 403 -13 330 -13 _c
246 -13 181 19 137 83 _c
92 147 70 241 70 364 _c
70 479 97 571 152 639 _c
206 707 280 742 372 742 _c
396 742 421 739 447 735 _c
472 730 498 723 526 713 _c
_cl}_e}_d
/seven{636 0 82 0 551 729 _sc
82 729 _m
551 729 _l
551 687 _l
286 0 _l
183 0 _l
432 646 _l
82 646 _l
82 729 _l
_cl}_d
/eight{{636 0 68 -13 568 742 _sc
318 346 _m
271 346 234 333 207 308 _c
180 283 167 249 167 205 _c
167 161 180 126 207 101 _c
234 76 271 64 318 64 _c
364 64 401 76 428 102 _c
455 127 469 161 469 205 _c
469 249 455 283 429 308 _c
402 333 365 346 318 346 _c
219 388 _m
177 398 144 418 120 447 _c
96 476 85 511 85 553 _c
85 611 105 657 147 691 _c
188 725 245 742 318 742 _c
}_e{390 742 447 725 489 691 _c
530 657 551 611 551 553 _c
551 511 539 476 515 447 _c
491 418 459 398 417 388 _c
464 377 501 355 528 323 _c
554 291 568 251 568 205 _c
568 134 546 80 503 43 _c
459 5 398 -13 318 -13 _c
237 -13 175 5 132 43 _c
89 80 68 134 68 205 _c
68 251 81 291 108 323 _c
134 355 171 377 219 388 _c
183 544 _m
183 506 194 476 218 455 _c
}_e{242 434 275 424 318 424 _c
360 424 393 434 417 455 _c
441 476 453 506 453 544 _c
453 582 441 611 417 632 _c
393 653 360 664 318 664 _c
275 664 242 653 218 632 _c
194 611 183 582 183 544 _c
_cl}_e}_d
/C{{698 0 56 -13 644 742 _sc
644 673 _m
644 569 _l
610 599 575 622 537 638 _c
499 653 460 661 418 661 _c
334 661 270 635 226 584 _c
182 533 160 460 160 364 _c
160 268 182 194 226 143 _c
270 92 334 67 418 67 _c
460 67 499 74 537 90 _c
575 105 610 128 644 159 _c
644 56 _l
609 32 572 15 534 4 _c
496 -7 455 -13 412 -13 _c
302 -13 215 20 151 87 _c
}_e{87 154 56 246 56 364 _c
56 481 87 573 151 641 _c
215 708 302 742 412 742 _c
456 742 497 736 535 725 _c
573 713 610 696 644 673 _c
_cl}_e}_d
/D{770 0 98 0 711 729 _sc
197 648 _m
197 81 _l
316 81 _l
416 81 490 103 537 149 _c
583 195 607 267 607 365 _c
607 463 583 534 537 580 _c
490 625 416 648 316 648 _c
197 648 _l
98 729 _m
301 729 _l
442 729 546 699 612 641 _c
678 582 711 490 711 365 _c
711 239 677 147 611 88 _c
545 29 441 0 301 0 _c
98 0 _l
98 729 _l
_cl}_d
/E{632 0 98 0 568 729 _sc
98 729 _m
559 729 _l
559 646 _l
197 646 _l
197 430 _l
544 430 _l
544 347 _l
197 347 _l
197 83 _l
568 83 _l
568 0 _l
98 0 _l
98 729 _l
_cl}_d
/F{575 0 98 0 517 729 _sc
98 729 _m
517 729 _l
517 646 _l
197 646 _l
197 431 _l
486 431 _l
486 348 _l
197 348 _l
197 0 _l
98 0 _l
98 729 _l
_cl}_d
/I{295 0 98 0 197 729 _sc
98 729 _m
197 729 _l
197 0 _l
98 0 _l
98 729 _l
_cl}_d
/a{{613 0 60 -13 522 560 _sc
343 275 _m
270 275 220 266 192 250 _c
164 233 150 205 150 165 _c
150 133 160 107 181 89 _c
202 70 231 61 267 61 _c
317 61 357 78 387 114 _c
417 149 432 196 432 255 _c
432 275 _l
343 275 _l
522 312 _m
522 0 _l
432 0 _l
432 83 _l
411 49 385 25 355 10 _c
325 -5 287 -13 243 -13 _c
187 -13 142 2 109 33 _c
76 64 60 106 60 159 _c
}_e{60 220 80 266 122 298 _c
163 329 224 345 306 345 _c
432 345 _l
432 354 _l
432 395 418 427 391 450 _c
364 472 326 484 277 484 _c
245 484 215 480 185 472 _c
155 464 127 453 100 439 _c
100 522 _l
132 534 164 544 195 550 _c
226 556 256 560 286 560 _c
365 560 424 539 463 498 _c
502 457 522 395 522 312 _c
_cl}_e}_d
/c{{550 0 55 -13 488 560 _sc
488 526 _m
488 442 _l
462 456 437 466 411 473 _c
385 480 360 484 334 484 _c
276 484 230 465 198 428 _c
166 391 150 339 150 273 _c
150 206 166 154 198 117 _c
230 80 276 62 334 62 _c
360 62 385 65 411 72 _c
437 79 462 90 488 104 _c
488 21 _l
462 9 436 0 410 -5 _c
383 -10 354 -13 324 -13 _c
242 -13 176 12 128 64 _c
}_e{79 115 55 185 55 273 _c
55 362 79 432 128 483 _c
177 534 244 560 330 560 _c
358 560 385 557 411 551 _c
437 545 463 537 488 526 _c
_cl}_e}_d
/e{{615 0 55 -13 562 560 _sc
562 296 _m
562 252 _l
149 252 _l
153 190 171 142 205 110 _c
238 78 284 62 344 62 _c
378 62 412 66 444 74 _c
476 82 509 95 541 113 _c
541 28 _l
509 14 476 3 442 -3 _c
408 -9 373 -13 339 -13 _c
251 -13 182 12 131 62 _c
80 112 55 181 55 268 _c
55 357 79 428 127 481 _c
175 533 241 560 323 560 _c
397 560 455 536 498 489 _c
}_e{540 441 562 377 562 296 _c
472 322 _m
471 371 457 410 431 440 _c
404 469 368 484 324 484 _c
274 484 234 469 204 441 _c
174 413 156 373 152 322 _c
472 322 _l
_cl}_e}_d
/f{352 0 23 0 371 760 _sc
371 760 _m
371 685 _l
285 685 _l
253 685 230 678 218 665 _c
205 652 199 629 199 595 _c
199 547 _l
347 547 _l
347 477 _l
199 477 _l
199 0 _l
109 0 _l
109 477 _l
23 477 _l
23 547 _l
109 547 _l
109 585 _l
109 645 123 690 151 718 _c
179 746 224 760 286 760 _c
371 760 _l
_cl}_d
/g{{635 0 55 -207 544 560 _sc
454 280 _m
454 344 440 395 414 431 _c
387 467 349 485 301 485 _c
253 485 215 467 188 431 _c
161 395 148 344 148 280 _c
148 215 161 165 188 129 _c
215 93 253 75 301 75 _c
349 75 387 93 414 129 _c
440 165 454 215 454 280 _c
544 68 _m
544 -24 523 -93 482 -139 _c
440 -184 377 -207 292 -207 _c
260 -207 231 -204 203 -200 _c
175 -195 147 -188 121 -178 _c
}_e{121 -91 _l
147 -105 173 -115 199 -122 _c
225 -129 251 -133 278 -133 _c
336 -133 380 -117 410 -87 _c
439 -56 454 -10 454 52 _c
454 96 _l
435 64 411 40 382 24 _c
353 8 319 0 279 0 _c
211 0 157 25 116 76 _c
75 127 55 195 55 280 _c
55 364 75 432 116 483 _c
157 534 211 560 279 560 _c
319 560 353 552 382 536 _c
411 520 435 496 454 464 _c
454 547 _l
544 547 _l
}_e{544 68 _l
_cl}_e}_d
/i{278 0 94 0 184 760 _sc
94 547 _m
184 547 _l
184 0 _l
94 0 _l
94 547 _l
94 760 _m
184 760 _l
184 646 _l
94 646 _l
94 760 _l
_cl}_d
/l{278 0 94 0 184 760 _sc
94 760 _m
184 760 _l
184 0 _l
94 0 _l
94 760 _l
_cl}_d
/n{634 0 91 0 549 560 _sc
549 330 _m
549 0 _l
459 0 _l
459 327 _l
459 379 448 417 428 443 _c
408 469 378 482 338 482 _c
289 482 251 466 223 435 _c
195 404 181 362 181 309 _c
181 0 _l
91 0 _l
91 547 _l
181 547 _l
181 462 _l
202 494 227 519 257 535 _c
286 551 320 560 358 560 _c
420 560 468 540 500 501 _c
532 462 549 405 549 330 _c
_cl}_d
/o{612 0 55 -13 557 560 _sc
306 484 _m
258 484 220 465 192 427 _c
164 389 150 338 150 273 _c
150 207 163 156 191 118 _c
219 80 257 62 306 62 _c
354 62 392 80 420 118 _c
448 156 462 207 462 273 _c
462 337 448 389 420 427 _c
392 465 354 484 306 484 _c
306 560 _m
384 560 445 534 490 484 _c
534 433 557 363 557 273 _c
557 183 534 113 490 63 _c
445 12 384 -13 306 -13 _c
227 -13 165 12 121 63 _c
77 113 55 183 55 273 _c
55 363 77 433 121 484 _c
165 534 227 560 306 560 _c
_cl}_d
/r{411 0 91 0 411 560 _sc
411 463 _m
401 469 390 473 378 476 _c
366 478 353 480 339 480 _c
288 480 249 463 222 430 _c
194 397 181 350 181 288 _c
181 0 _l
91 0 _l
91 547 _l
181 547 _l
181 462 _l
199 495 224 520 254 536 _c
284 552 321 560 365 560 _c
371 560 378 559 386 559 _c
393 558 401 557 411 555 _c
411 463 _l
_cl}_d
/s{{521 0 54 -13 472 560 _sc
443 531 _m
443 446 _l
417 458 391 468 364 475 _c
336 481 308 485 279 485 _c
234 485 200 478 178 464 _c
156 450 145 430 145 403 _c
145 382 153 366 169 354 _c
185 342 217 330 265 320 _c
296 313 _l
360 299 405 279 432 255 _c
458 230 472 195 472 151 _c
472 100 452 60 412 31 _c
372 1 316 -13 246 -13 _c
216 -13 186 -10 154 -5 _c
}_e{122 0 89 8 54 20 _c
54 113 _l
87 95 120 82 152 74 _c
184 65 216 61 248 61 _c
290 61 323 68 346 82 _c
368 96 380 117 380 144 _c
380 168 371 187 355 200 _c
339 213 303 226 247 238 _c
216 245 _l
160 257 119 275 95 299 _c
70 323 58 356 58 399 _c
58 450 76 490 112 518 _c
148 546 200 560 268 560 _c
301 560 332 557 362 552 _c
391 547 418 540 443 531 _c
}_e{_cl}_e}_d
/t{392 0 27 0 368 702 _sc
183 702 _m
183 547 _l
368 547 _l
368 477 _l
183 477 _l
183 180 _l
183 135 189 106 201 94 _c
213 81 238 75 276 75 _c
368 75 _l
368 0 _l
276 0 _l
206 0 158 13 132 39 _c
106 65 93 112 93 180 _c
93 477 _l
27 477 _l
27 547 _l
93 547 _l
93 702 _l
183 702 _l
_cl}_d
/v{592 0 30 0 562 547 _sc
30 547 _m
125 547 _l
296 88 _l
467 547 _l
562 547 _l
357 0 _l
235 0 _l
30 547 _l
_cl}_d
/y{592 0 30 -207 562 547 _sc
322 -50 _m
296 -114 271 -157 247 -177 _c
223 -197 191 -207 151 -207 _c
79 -207 _l
79 -132 _l
132 -132 _l
156 -132 175 -126 189 -114 _c
203 -102 218 -75 235 -31 _c
251 9 _l
30 547 _l
125 547 _l
296 119 _l
467 547 _l
562 547 _l
322 -50 _l
_cl}_d
end readonly def

/BuildGlyph
 {exch begin
 CharStrings exch
 2 copy known not{pop /.notdef}if
 true 3 1 roll get exec
 end}_d

/BuildChar {
 1 index /Encoding get exch get
 1 index /BuildGlyph get exec
}_d

FontName currentdict end definefont pop
end
%%EndProlog
mpldict begin
46.186 183.415 translate
519.628 425.171 0 0 clipbox
100000 setmiterlimit
gsave
0 0 m
519.628125 0 l
519.628125 425.170625 l
0 425.170625 l
cl
1.000 setgray
fill
grestore
gsave
66.028125 39.45 m
512.428125 39.45 l
512.428125 385.05 l
66.028125 385.05 l
cl
1.000 setgray
fill
grestore
1.000 setlinewidth
1 setlinejoin
2 setlinecap
[] 0 setdash
0.000 0.000 1.000 setrgbcolor
gsave
446.4 345.6 66.03 39.45 clipbox
66.028125 150.733249 m
70.537216 74.78017 l
75.046307 74.78017 l
79.555398 74.78017 l
84.064489 74.78017 l
88.57358 74.78017 l
93.08267 74.78017 l
97.591761 74.78017 l
102.100852 74.78017 l
106.609943 74.78017 l
111.119034 74.78017 l
115.628125 74.78017 l
120.137216 74.78017 l
124.646307 74.78017 l
129.155398 73.680859 l
133.664489 73.680859 l
138.17358 73.680859 l
142.68267 73.680859 l
147.191761 73.680859 l
151.700852 73.680859 l
156.209943 72.212372 l
160.719034 72.212372 l
165.228125 72.212372 l
169.737216 72.212372 l
174.246307 72.212372 l
178.755398 72.212372 l
183.264489 72.212372 l
187.77358 72.212372 l
192.28267 70.522108 l
196.791761 70.522108 l
201.300852 70.522108 l
205.809943 70.522108 l
210.319034 70.522108 l
214.828125 70.522108 l
219.337216 70.522108 l
223.846307 68.807865 l
228.355398 68.807865 l
232.864489 68.807865 l
237.37358 68.807865 l
241.88267 68.807865 l
246.391761 68.807865 l
250.900852 68.807865 l
255.409943 68.807865 l
259.919034 68.807865 l
264.428125 68.807865 l
268.937216 68.807865 l
273.446307 68.807865 l
277.955398 68.547772 l
282.464489 68.547772 l
286.97358 68.547772 l
291.48267 68.547772 l
295.991761 68.547772 l
300.500852 67.520211 l
305.009943 67.520211 l
309.519034 67.520211 l
314.028125 67.520211 l
318.537216 67.520211 l
323.046307 67.520211 l
327.555398 67.520211 l
332.064489 67.520211 l
336.57358 63.365156 l
341.08267 63.365156 l
345.591761 61.697721 l
350.100852 61.697721 l
354.609943 61.697721 l
359.119034 61.697721 l
363.628125 61.697721 l
368.137216 61.032563 l
372.646307 61.032563 l
377.155398 61.032563 l
381.664489 61.032563 l
386.17358 61.032563 l
390.68267 61.032563 l
395.191761 61.032563 l
399.700852 61.032563 l
404.209943 61.032563 l
408.719034 61.032563 l
413.228125 61.032563 l
417.737216 61.032563 l
422.246307 61.032563 l
426.755398 61.032563 l
431.264489 61.032563 l
435.77358 58.287709 l
440.28267 58.287709 l
444.791761 58.287709 l
449.300852 58.287709 l
453.809943 58.287709 l
458.319034 58.287709 l
462.828125 58.287709 l
467.337216 58.287709 l
471.846307 58.287709 l
476.355398 58.287709 l
480.864489 58.287709 l
485.37358 58.287709 l
489.88267 58.287709 l
494.391761 58.287709 l
498.900852 58.287709 l
503.409943 58.287709 l
507.919034 58.287709 l
512.428125 58.287709 l
stroke
grestore
0.000 0.500 0.000 setrgbcolor
gsave
446.4 345.6 66.03 39.45 clipbox
66.028125 93.15183 m
70.537216 93.15183 l
75.046307 90.595942 l
79.555398 90.595942 l
84.064489 90.595942 l
88.57358 90.595942 l
93.08267 88.202702 l
97.591761 88.202702 l
102.100852 88.202702 l
106.609943 88.202702 l
111.119034 88.202702 l
115.628125 88.202702 l
120.137216 88.202702 l
124.646307 88.156263 l
129.155398 88.156263 l
133.664489 86.622697 l
138.17358 86.622697 l
142.68267 86.622697 l
147.191761 86.622697 l
151.700852 73.353486 l
156.209943 73.353486 l
160.719034 73.353486 l
165.228125 73.353486 l
169.737216 73.353486 l
174.246307 62.6465 l
178.755398 62.6465 l
183.264489 62.6465 l
187.77358 62.6465 l
192.28267 62.6465 l
196.791761 62.6465 l
201.300852 62.6465 l
205.809943 62.6465 l
210.319034 62.6465 l
214.828125 62.6465 l
219.337216 62.6465 l
223.846307 62.6465 l
228.355398 62.6465 l
232.864489 62.6465 l
237.37358 62.6465 l
241.88267 62.6465 l
246.391761 62.6465 l
250.900852 62.6465 l
255.409943 62.6465 l
259.919034 62.6465 l
264.428125 62.6465 l
268.937216 62.6465 l
273.446307 62.6465 l
277.955398 62.6465 l
282.464489 62.6465 l
286.97358 62.6465 l
291.48267 62.6465 l
295.991761 62.6465 l
300.500852 62.6465 l
305.009943 62.6465 l
309.519034 62.6465 l
314.028125 62.6465 l
318.537216 62.6465 l
323.046307 62.6465 l
327.555398 62.6465 l
332.064489 62.6465 l
336.57358 62.6465 l
341.08267 62.6465 l
345.591761 62.6465 l
350.100852 62.6465 l
354.609943 62.6465 l
359.119034 62.6465 l
363.628125 62.6465 l
368.137216 62.6465 l
372.646307 62.6465 l
377.155398 62.6465 l
381.664489 62.6465 l
386.17358 62.6465 l
390.68267 62.6465 l
395.191761 62.6465 l
399.700852 62.6465 l
404.209943 62.6465 l
408.719034 62.6465 l
413.228125 62.6465 l
417.737216 62.6465 l
422.246307 62.6465 l
426.755398 62.6465 l
431.264489 62.6465 l
435.77358 62.6465 l
440.28267 62.6465 l
444.791761 62.6465 l
449.300852 62.044632 l
453.809943 62.044632 l
458.319034 62.044632 l
462.828125 62.044632 l
467.337216 62.044632 l
471.846307 62.044632 l
476.355398 62.044632 l
480.864489 62.044632 l
485.37358 62.044632 l
489.88267 62.044632 l
494.391761 62.044632 l
498.900852 62.044632 l
503.409943 62.044632 l
507.919034 62.044632 l
512.428125 62.044632 l
stroke
grestore
1.000 0.000 0.000 setrgbcolor
gsave
446.4 345.6 66.03 39.45 clipbox
66.028125 613.480201 m
67.878722 426.170625 m
70.537216 157.089108 l
75.046307 135.878449 l
79.555398 135.878449 l
84.064489 135.878449 l
88.57358 135.878449 l
93.08267 109.478219 l
97.591761 100.853132 l
102.100852 97.418666 l
106.609943 87.023163 l
111.119034 69.656078 l
115.628125 69.656078 l
120.137216 69.656078 l
124.646307 69.656078 l
129.155398 69.656078 l
133.664489 69.656078 l
138.17358 69.656078 l
142.68267 69.656078 l
147.191761 69.656078 l
151.700852 69.656078 l
156.209943 69.656078 l
160.719034 69.295742 l
165.228125 69.295742 l
169.737216 69.295742 l
174.246307 67.702644 l
178.755398 67.702644 l
183.264489 67.702644 l
187.77358 67.702644 l
192.28267 67.702644 l
196.791761 67.702644 l
201.300852 67.702644 l
205.809943 67.702644 l
210.319034 67.702644 l
214.828125 67.702644 l
219.337216 67.702644 l
223.846307 67.702644 l
228.355398 67.624177 l
232.864489 67.624177 l
237.37358 67.624177 l
241.88267 67.624177 l
246.391761 67.624177 l
250.900852 67.624177 l
255.409943 67.624177 l
259.919034 67.624177 l
264.428125 67.624177 l
268.937216 67.624177 l
273.446307 67.624177 l
277.955398 67.624177 l
282.464489 67.624177 l
286.97358 67.624177 l
291.48267 64.878364 l
295.991761 64.878364 l
300.500852 64.878364 l
305.009943 64.878364 l
309.519034 64.878364 l
314.028125 64.878364 l
318.537216 64.878364 l
323.046307 64.878364 l
327.555398 64.878364 l
332.064489 64.878364 l
336.57358 64.878364 l
341.08267 64.878364 l
345.591761 64.878364 l
350.100852 64.878364 l
354.609943 64.878364 l
359.119034 64.878364 l
363.628125 64.878364 l
368.137216 64.878364 l
372.646307 64.878364 l
377.155398 64.819423 l
381.664489 64.819423 l
386.17358 64.819423 l
390.68267 64.819423 l
395.191761 64.819423 l
399.700852 64.819423 l
404.209943 64.819423 l
408.719034 64.819423 l
413.228125 64.819423 l
417.737216 64.819423 l
422.246307 64.819423 l
426.755398 64.819423 l
431.264489 64.819423 l
435.77358 64.819423 l
440.28267 64.819423 l
444.791761 62.169672 l
449.300852 62.169672 l
453.809943 62.169672 l
458.319034 62.169672 l
462.828125 62.169672 l
467.337216 62.169672 l
471.846307 62.169672 l
476.355398 62.169672 l
480.864489 62.169672 l
485.37358 62.169672 l
489.88267 62.169672 l
494.391761 62.169672 l
498.900852 62.169672 l
503.409943 62.169672 l
507.919034 62.169672 l
512.428125 62.169672 l
stroke
grestore
0.000 0.750 0.750 setrgbcolor
gsave
446.4 345.6 66.03 39.45 clipbox
66.028125 294.31443 m
70.537216 177.412136 l
75.046307 132.951363 l
79.555398 111.303626 l
84.064489 94.672068 l
88.57358 94.672068 l
93.08267 94.672068 l
97.591761 94.672068 l
102.100852 94.672068 l
106.609943 74.329251 l
111.119034 74.329251 l
115.628125 74.329251 l
120.137216 74.329251 l
124.646307 74.329251 l
129.155398 74.329251 l
133.664489 74.329251 l
138.17358 74.329251 l
142.68267 74.329251 l
147.191761 74.329251 l
151.700852 74.329251 l
156.209943 74.329251 l
160.719034 74.329251 l
165.228125 74.329251 l
169.737216 74.329251 l
174.246307 74.329251 l
178.755398 74.329251 l
183.264489 74.329251 l
187.77358 74.329251 l
192.28267 74.329251 l
196.791761 70.611148 l
201.300852 70.611148 l
205.809943 70.611148 l
210.319034 70.611148 l
214.828125 70.611148 l
219.337216 70.611148 l
223.846307 70.611148 l
228.355398 70.611148 l
232.864489 70.611148 l
237.37358 70.611148 l
241.88267 70.611148 l
246.391761 70.611148 l
250.900852 70.611148 l
255.409943 70.611148 l
259.919034 70.611148 l
264.428125 70.611148 l
268.937216 70.611148 l
273.446307 69.945364 l
277.955398 69.945364 l
282.464489 69.945364 l
286.97358 69.945364 l
291.48267 69.945364 l
295.991761 69.945364 l
300.500852 69.945364 l
305.009943 69.945364 l
309.519034 69.945364 l
314.028125 69.945364 l
318.537216 69.945364 l
323.046307 69.945364 l
327.555398 69.945364 l
332.064489 69.945364 l
336.57358 69.162987 l
341.08267 69.162987 l
345.591761 69.162987 l
350.100852 69.162987 l
354.609943 69.162987 l
359.119034 69.162987 l
363.628125 69.162987 l
368.137216 69.162987 l
372.646307 69.162987 l
377.155398 68.638051 l
381.664489 65.160218 l
386.17358 65.160218 l
390.68267 65.160218 l
395.191761 64.571284 l
399.700852 60.812728 l
404.209943 60.812728 l
408.719034 60.812728 l
413.228125 60.812728 l
417.737216 60.812728 l
422.246307 60.812728 l
426.755398 60.812728 l
431.264489 60.812728 l
435.77358 60.812728 l
440.28267 60.812728 l
444.791761 60.812728 l
449.300852 60.812728 l
453.809943 60.812728 l
458.319034 60.812728 l
462.828125 60.812728 l
467.337216 60.812728 l
471.846307 60.812728 l
476.355398 60.812728 l
480.864489 60.812728 l
485.37358 60.812728 l
489.88267 60.812728 l
494.391761 60.812728 l
498.900852 60.812728 l
503.409943 60.812728 l
507.919034 60.812728 l
512.428125 60.812728 l
stroke
grestore
0.750 0.000 0.750 setrgbcolor
gsave
446.4 345.6 66.03 39.45 clipbox
66.028125 430.955997 m
75.231685 426.170625 m
79.555398 314.55779 l
84.064489 314.55779 l
88.57358 82.824573 l
93.08267 82.824573 l
97.591761 82.824573 l
102.100852 82.824573 l
106.609943 76.414426 l
111.119034 76.414426 l
115.628125 76.414426 l
120.137216 72.055557 l
124.646307 72.055557 l
129.155398 72.055557 l
133.664489 72.055557 l
138.17358 72.055557 l
142.68267 72.055557 l
147.191761 72.055557 l
151.700852 72.055557 l
156.209943 72.055557 l
160.719034 71.870639 l
165.228125 71.870639 l
169.737216 71.870639 l
174.246307 71.870639 l
178.755398 71.870639 l
183.264489 71.870639 l
187.77358 71.870639 l
192.28267 71.870639 l
196.791761 71.870639 l
201.300852 71.870639 l
205.809943 71.291742 l
210.319034 71.291742 l
214.828125 71.291742 l
219.337216 71.291742 l
223.846307 71.291742 l
228.355398 71.291742 l
232.864489 71.291742 l
237.37358 71.291742 l
241.88267 66.351827 l
246.391761 66.351827 l
250.900852 66.351827 l
255.409943 66.351827 l
259.919034 66.351827 l
264.428125 66.351827 l
268.937216 66.351827 l
273.446307 66.351827 l
277.955398 66.351827 l
282.464489 66.351827 l
286.97358 66.351827 l
291.48267 66.351827 l
295.991761 66.351827 l
300.500852 66.351827 l
305.009943 66.351827 l
309.519034 66.351827 l
314.028125 66.045976 l
318.537216 66.045976 l
323.046307 66.045976 l
327.555398 66.045976 l
332.064489 66.045976 l
336.57358 66.045976 l
341.08267 66.045976 l
345.591761 66.045976 l
350.100852 66.045976 l
354.609943 66.045976 l
359.119034 63.55676 l
363.628125 61.854466 l
368.137216 61.854466 l
372.646307 61.854466 l
377.155398 61.854466 l
381.664489 61.854466 l
386.17358 61.854466 l
390.68267 61.854466 l
395.191761 61.854466 l
399.700852 61.854466 l
404.209943 61.854466 l
408.719034 61.854466 l
413.228125 61.854466 l
417.737216 61.854466 l
422.246307 60.205894 l
426.755398 60.205894 l
431.264489 60.205894 l
435.77358 60.205894 l
440.28267 60.205894 l
444.791761 60.205894 l
449.300852 60.205894 l
453.809943 60.205894 l
458.319034 60.205894 l
462.828125 60.205894 l
467.337216 60.205894 l
471.846307 60.205894 l
476.355398 60.205894 l
480.864489 60.205894 l
485.37358 60.205894 l
489.88267 60.205894 l
494.391761 60.205894 l
498.900852 60.205894 l
503.409943 60.205894 l
507.919034 60.205894 l
512.428125 60.205894 l
stroke
grestore
0.750 0.750 0.000 setrgbcolor
gsave
446.4 345.6 66.03 39.45 clipbox
66.028125 105.742953 m
70.537216 105.742953 l
75.046307 105.742953 l
79.555398 105.742953 l
84.064489 105.742953 l
88.57358 105.742953 l
93.08267 102.518939 l
97.591761 102.518939 l
102.100852 98.096923 l
106.609943 84.042296 l
111.119034 84.042296 l
115.628125 84.042296 l
120.137216 84.042296 l
124.646307 84.042296 l
129.155398 84.042296 l
133.664489 84.042296 l
138.17358 84.042296 l
142.68267 84.042296 l
147.191761 84.042296 l
151.700852 84.042296 l
156.209943 82.803942 l
160.719034 72.435167 l
165.228125 72.435167 l
169.737216 72.435167 l
174.246307 72.435167 l
178.755398 72.435167 l
183.264489 72.435167 l
187.77358 72.435167 l
192.28267 67.407619 l
196.791761 67.407619 l
201.300852 67.407619 l
205.809943 67.407619 l
210.319034 67.407619 l
214.828125 67.407619 l
219.337216 67.407619 l
223.846307 67.407619 l
228.355398 67.407619 l
232.864489 67.407619 l
237.37358 67.407619 l
241.88267 67.407619 l
246.391761 67.407619 l
250.900852 67.407619 l
255.409943 67.407619 l
259.919034 67.407619 l
264.428125 67.407619 l
268.937216 67.407619 l
273.446307 67.407619 l
277.955398 67.407619 l
282.464489 67.407619 l
286.97358 67.407619 l
291.48267 67.407619 l
295.991761 67.407619 l
300.500852 67.407619 l
305.009943 67.407619 l
309.519034 67.179167 l
314.028125 67.179167 l
318.537216 67.179167 l
323.046307 67.179167 l
327.555398 67.179167 l
332.064489 67.179167 l
336.57358 67.179167 l
341.08267 67.179167 l
345.591761 67.179167 l
350.100852 66.591649 l
354.609943 66.591649 l
359.119034 66.591649 l
363.628125 66.591649 l
368.137216 66.591649 l
372.646307 66.591649 l
377.155398 66.591649 l
381.664489 66.591649 l
386.17358 66.591649 l
390.68267 65.280396 l
395.191761 65.280396 l
399.700852 61.071247 l
404.209943 61.071247 l
408.719034 61.071247 l
413.228125 61.071247 l
417.737216 61.071247 l
422.246307 61.071247 l
426.755398 61.071247 l
431.264489 61.071247 l
435.77358 61.071247 l
440.28267 61.071247 l
444.791761 61.071247 l
449.300852 61.071247 l
453.809943 61.071247 l
458.319034 61.071247 l
462.828125 61.071247 l
467.337216 60.880717 l
471.846307 60.880717 l
476.355398 60.880717 l
480.864489 60.880717 l
485.37358 60.880717 l
489.88267 60.880717 l
494.391761 60.823873 l
498.900852 60.823873 l
503.409943 60.823873 l
507.919034 60.823873 l
512.428125 60.823873 l
stroke
grestore
0.000 setgray
gsave
446.4 345.6 66.03 39.45 clipbox
66.028125 145.631702 m
70.537216 145.631702 l
75.046307 145.631702 l
79.555398 145.631702 l
84.064489 107.534844 l
88.57358 107.534844 l
93.08267 102.112156 l
97.591761 91.753028 l
102.100852 91.753028 l
106.609943 91.753028 l
111.119034 91.753028 l
115.628125 90.294277 l
120.137216 90.294277 l
124.646307 90.294277 l
129.155398 90.294277 l
133.664489 90.294277 l
138.17358 88.109284 l
142.68267 88.109284 l
147.191761 88.109284 l
151.700852 84.65099 l
156.209943 84.65099 l
160.719034 84.65099 l
165.228125 84.65099 l
169.737216 75.516311 l
174.246307 75.516311 l
178.755398 75.516311 l
183.264489 75.516311 l
187.77358 75.516311 l
192.28267 75.516311 l
196.791761 75.516311 l
201.300852 75.516311 l
205.809943 75.516311 l
210.319034 75.516311 l
214.828125 72.422129 l
219.337216 72.422129 l
223.846307 72.422129 l
228.355398 72.422129 l
232.864489 72.422129 l
237.37358 72.422129 l
241.88267 72.422129 l
246.391761 72.422129 l
250.900852 72.422129 l
255.409943 72.422129 l
259.919034 72.422129 l
264.428125 72.422129 l
268.937216 72.422129 l
273.446307 72.422129 l
277.955398 72.422129 l
282.464489 72.422129 l
286.97358 72.422129 l
291.48267 72.422129 l
295.991761 72.422129 l
300.500852 70.544288 l
305.009943 70.544288 l
309.519034 70.544288 l
314.028125 67.942089 l
318.537216 67.942089 l
323.046307 67.942089 l
327.555398 67.942089 l
332.064489 67.942089 l
336.57358 67.942089 l
341.08267 67.942089 l
345.591761 67.942089 l
350.100852 67.942089 l
354.609943 67.942089 l
359.119034 67.942089 l
363.628125 67.942089 l
368.137216 67.942089 l
372.646307 67.942089 l
377.155398 67.942089 l
381.664489 67.942089 l
386.17358 67.942089 l
390.68267 67.942089 l
395.191761 67.942089 l
399.700852 64.554767 l
404.209943 64.554767 l
408.719034 64.554767 l
413.228125 64.554767 l
417.737216 64.554767 l
422.246307 64.554767 l
426.755398 64.554767 l
431.264489 64.554767 l
435.77358 64.554767 l
440.28267 60.210428 l
444.791761 60.210428 l
449.300852 60.210428 l
453.809943 60.210428 l
458.319034 60.210428 l
462.828125 60.210428 l
467.337216 60.210428 l
471.846307 60.210428 l
476.355398 60.210428 l
480.864489 60.210428 l
485.37358 60.210428 l
489.88267 60.210428 l
494.391761 60.210428 l
498.900852 60.210428 l
503.409943 60.210428 l
507.919034 60.210428 l
512.428125 60.210428 l
stroke
grestore
0.000 0.000 1.000 setrgbcolor
gsave
446.4 345.6 66.03 39.45 clipbox
66.028125 84.018123 m
70.537216 84.018123 l
75.046307 84.018123 l
79.555398 84.018123 l
84.064489 84.018123 l
88.57358 84.018123 l
93.08267 84.018123 l
97.591761 84.018123 l
102.100852 84.018123 l
106.609943 81.55803 l
111.119034 81.55803 l
115.628125 81.55803 l
120.137216 81.55803 l
124.646307 81.55803 l
129.155398 81.55803 l
133.664489 81.55803 l
138.17358 81.55803 l
142.68267 81.55803 l
147.191761 81.55803 l
151.700852 81.55803 l
156.209943 81.55803 l
160.719034 81.55803 l
165.228125 81.55803 l
169.737216 81.55803 l
174.246307 81.55803 l
178.755398 80.284283 l
183.264489 78.426268 l
187.77358 78.426268 l
192.28267 78.426268 l
196.791761 78.426268 l
201.300852 78.426268 l
205.809943 78.426268 l
210.319034 78.426268 l
214.828125 78.426268 l
219.337216 78.426268 l
223.846307 78.426268 l
228.355398 78.426268 l
232.864489 74.896094 l
237.37358 74.896094 l
241.88267 74.896094 l
246.391761 74.896094 l
250.900852 74.896094 l
255.409943 71.202727 l
259.919034 71.202727 l
264.428125 71.202727 l
268.937216 71.202727 l
273.446307 71.202727 l
277.955398 71.202727 l
282.464489 71.202727 l
286.97358 71.202727 l
291.48267 71.202727 l
295.991761 71.202727 l
300.500852 71.202727 l
305.009943 70.197207 l
309.519034 70.197207 l
314.028125 70.197207 l
318.537216 69.083745 l
323.046307 69.083745 l
327.555398 69.083745 l
332.064489 64.50556 l
336.57358 64.50556 l
341.08267 64.50556 l
345.591761 64.50556 l
350.100852 64.50556 l
354.609943 64.50556 l
359.119034 64.50556 l
363.628125 64.50556 l
368.137216 64.50556 l
372.646307 64.50556 l
377.155398 64.50556 l
381.664489 64.50556 l
386.17358 64.50556 l
390.68267 64.50556 l
395.191761 64.50556 l
399.700852 64.50556 l
404.209943 64.50556 l
408.719034 64.50556 l
413.228125 62.694786 l
417.737216 62.694786 l
422.246307 62.694786 l
426.755398 59.784621 l
431.264489 59.784621 l
435.77358 59.784621 l
440.28267 57.268183 l
444.791761 57.268183 l
449.300852 57.268183 l
453.809943 57.268183 l
458.319034 57.268183 l
462.828125 57.268183 l
467.337216 57.268183 l
471.846307 57.268183 l
476.355398 57.268183 l
480.864489 57.268183 l
485.37358 57.268183 l
489.88267 57.268183 l
494.391761 57.268183 l
498.900852 57.268183 l
503.409943 57.268183 l
507.919034 57.268183 l
512.428125 57.268183 l
stroke
grestore
0.000 0.500 0.000 setrgbcolor
gsave
446.4 345.6 66.03 39.45 clipbox
66.028125 1947.296184 m
73.962776 426.170625 m
75.046307 131.923794 l
79.555398 131.923794 l
84.064489 101.036544 l
88.57358 101.036544 l
93.08267 101.036544 l
97.591761 95.387017 l
102.100852 95.387017 l
106.609943 95.387017 l
111.119034 95.387017 l
115.628125 93.09869 l
120.137216 93.09869 l
124.646307 93.09869 l
129.155398 93.09869 l
133.664489 89.92942 l
138.17358 89.92942 l
142.68267 83.689317 l
147.191761 83.689317 l
151.700852 81.306553 l
156.209943 81.306553 l
160.719034 81.306553 l
165.228125 81.306553 l
169.737216 81.306553 l
174.246307 81.306553 l
178.755398 81.306553 l
183.264489 81.306553 l
187.77358 77.989679 l
192.28267 77.989679 l
196.791761 77.989679 l
201.300852 77.989679 l
205.809943 77.989679 l
210.319034 77.989679 l
214.828125 77.989679 l
219.337216 77.989679 l
223.846307 77.989679 l
228.355398 68.677061 l
232.864489 68.677061 l
237.37358 68.677061 l
241.88267 68.677061 l
246.391761 68.677061 l
250.900852 68.677061 l
255.409943 68.677061 l
259.919034 68.677061 l
264.428125 68.677061 l
268.937216 68.677061 l
273.446307 66.284809 l
277.955398 66.284809 l
282.464489 66.284809 l
286.97358 66.284809 l
291.48267 66.284809 l
295.991761 66.284809 l
300.500852 66.284809 l
305.009943 66.284809 l
309.519034 66.284809 l
314.028125 66.284809 l
318.537216 66.284809 l
323.046307 66.284809 l
327.555398 66.284809 l
332.064489 66.284809 l
336.57358 66.284809 l
341.08267 66.284809 l
345.591761 66.284809 l
350.100852 66.284809 l
354.609943 66.284809 l
359.119034 66.284809 l
363.628125 66.284809 l
368.137216 66.284809 l
372.646307 66.284809 l
377.155398 66.284809 l
381.664489 66.284809 l
386.17358 66.284809 l
390.68267 66.284809 l
395.191761 66.284809 l
399.700852 62.513386 l
404.209943 62.513386 l
408.719034 62.513386 l
413.228125 62.513386 l
417.737216 62.513386 l
422.246307 62.513386 l
426.755398 62.513386 l
431.264489 62.513386 l
435.77358 62.513386 l
440.28267 62.513386 l
444.791761 62.513386 l
449.300852 62.513386 l
453.809943 62.055868 l
458.319034 62.055868 l
462.828125 62.055868 l
467.337216 62.055868 l
471.846307 62.055868 l
476.355398 62.055868 l
480.864489 62.055868 l
485.37358 61.37171 l
489.88267 61.37171 l
494.391761 61.37171 l
498.900852 61.37171 l
503.409943 61.37171 l
507.919034 61.37171 l
512.428125 60.882777 l
stroke
grestore
1.000 0.000 0.000 setrgbcolor
gsave
446.4 345.6 66.03 39.45 clipbox
66.028125 396.329954 m
70.537216 261.520123 l
75.046307 142.247687 l
79.555398 142.247687 l
84.064489 109.321161 l
88.57358 91.127356 l
93.08267 91.127356 l
97.591761 87.251073 l
102.100852 87.251073 l
106.609943 87.251073 l
111.119034 87.251073 l
115.628125 87.251073 l
120.137216 87.251073 l
124.646307 87.251073 l
129.155398 87.251073 l
133.664489 86.46631 l
138.17358 82.448948 l
142.68267 82.448948 l
147.191761 82.448948 l
151.700852 82.448948 l
156.209943 82.448948 l
160.719034 82.448948 l
165.228125 82.448948 l
169.737216 82.448948 l
174.246307 82.448948 l
178.755398 82.448948 l
183.264489 82.448948 l
187.77358 80.444062 l
192.28267 80.444062 l
196.791761 80.444062 l
201.300852 80.444062 l
205.809943 80.444062 l
210.319034 80.444062 l
214.828125 80.444062 l
219.337216 80.444062 l
223.846307 80.444062 l
228.355398 80.444062 l
232.864489 80.444062 l
237.37358 80.444062 l
241.88267 80.444062 l
246.391761 75.634407 l
250.900852 75.634407 l
255.409943 75.634407 l
259.919034 75.634407 l
264.428125 67.309656 l
268.937216 67.309656 l
273.446307 67.309656 l
277.955398 67.309656 l
282.464489 67.309656 l
286.97358 67.309656 l
291.48267 67.309656 l
295.991761 67.309656 l
300.500852 67.309656 l
305.009943 67.309656 l
309.519034 67.309656 l
314.028125 67.309656 l
318.537216 67.309656 l
323.046307 67.309656 l
327.555398 67.309656 l
332.064489 67.309656 l
336.57358 67.309656 l
341.08267 67.309656 l
345.591761 67.309656 l
350.100852 67.309656 l
354.609943 67.309656 l
359.119034 67.309656 l
363.628125 67.309656 l
368.137216 67.309656 l
372.646307 64.998216 l
377.155398 64.998216 l
381.664489 64.998216 l
386.17358 64.998216 l
390.68267 64.998216 l
395.191761 64.998216 l
399.700852 64.998216 l
404.209943 64.998216 l
408.719034 64.998216 l
413.228125 64.998216 l
417.737216 64.998216 l
422.246307 64.998216 l
426.755398 64.998216 l
431.264489 64.998216 l
435.77358 64.998216 l
440.28267 64.998216 l
444.791761 64.998216 l
449.300852 64.998216 l
453.809943 64.998216 l
458.319034 64.998216 l
462.828125 64.998216 l
467.337216 64.998216 l
471.846307 64.998216 l
476.355398 64.998216 l
480.864489 64.998216 l
485.37358 64.998216 l
489.88267 64.998216 l
494.391761 64.998216 l
498.900852 64.998216 l
503.409943 64.998216 l
507.919034 64.998216 l
512.428125 64.998216 l
stroke
grestore
0 setlinecap
[6 6] 0 setdash
gsave
446.4 345.6 66.03 39.45 clipbox
66.028125 57.268183 m
512.428125 57.268183 l
stroke
grestore
0 setlinejoin
2 setlinecap
[] 0 setdash
0.000 setgray
gsave
66.028125 385.05 m
512.428125 385.05 l
stroke
grestore
gsave
512.428125 39.45 m
512.428125 385.05 l
stroke
grestore
gsave
66.028125 39.45 m
512.428125 39.45 l
stroke
grestore
gsave
66.028125 39.45 m
66.028125 385.05 l
stroke
grestore
0.500 setlinewidth
1 setlinejoin
0 setlinecap
gsave
/o {
gsave
newpath
translate
0.5 setlinewidth
1 setlinejoin
0 setlinecap
0 0 m
0 4 l

gsave
0.000 setgray
fill
grestore
stroke
grestore
} bind def
66.0281 39.45 o
grestore
gsave
/o {
gsave
newpath
translate
0.5 setlinewidth
1 setlinejoin
0 setlinecap
0 0 m
0 -4 l

gsave
0.000 setgray
fill
grestore
stroke
grestore
} bind def
66.0281 385.05 o
grestore
/BitstreamVeraSans-Roman findfont
12.000 scalefont
setfont
gsave
62.207813 26.325000 translate
0.000000 rotate
0.000000 0.000000 m /zero glyphshow
grestore
gsave
/o {
gsave
newpath
translate
0.5 setlinewidth
1 setlinejoin
0 setlinecap
0 0 m
0 4 l

gsave
0.000 setgray
fill
grestore
stroke
grestore
} bind def
156.21 39.45 o
grestore
gsave
/o {
gsave
newpath
translate
0.5 setlinewidth
1 setlinejoin
0 setlinecap
0 0 m
0 -4 l

gsave
0.000 setgray
fill
grestore
stroke
grestore
} bind def
156.21 385.05 o
grestore
gsave
148.569318 26.325000 translate
0.000000 rotate
0.000000 0.000000 m /two glyphshow
7.634766 0.000000 m /zero glyphshow
grestore
gsave
/o {
gsave
newpath
translate
0.5 setlinewidth
1 setlinejoin
0 setlinecap
0 0 m
0 4 l

gsave
0.000 setgray
fill
grestore
stroke
grestore
} bind def
246.392 39.45 o
grestore
gsave
/o {
gsave
newpath
translate
0.5 setlinewidth
1 setlinejoin
0 setlinecap
0 0 m
0 -4 l

gsave
0.000 setgray
fill
grestore
stroke
grestore
} bind def
246.392 385.05 o
grestore
gsave
238.751136 26.325000 translate
0.000000 rotate
0.000000 0.000000 m /four glyphshow
7.634766 0.000000 m /zero glyphshow
grestore
gsave
/o {
gsave
newpath
translate
0.5 setlinewidth
1 setlinejoin
0 setlinecap
0 0 m
0 4 l

gsave
0.000 setgray
fill
grestore
stroke
grestore
} bind def
336.574 39.45 o
grestore
gsave
/o {
gsave
newpath
translate
0.5 setlinewidth
1 setlinejoin
0 setlinecap
0 0 m
0 -4 l

gsave
0.000 setgray
fill
grestore
stroke
grestore
} bind def
336.574 385.05 o
grestore
gsave
328.932955 26.325000 translate
0.000000 rotate
0.000000 0.000000 m /six glyphshow
7.634766 0.000000 m /zero glyphshow
grestore
gsave
/o {
gsave
newpath
translate
0.5 setlinewidth
1 setlinejoin
0 setlinecap
0 0 m
0 4 l

gsave
0.000 setgray
fill
grestore
stroke
grestore
} bind def
426.755 39.45 o
grestore
gsave
/o {
gsave
newpath
translate
0.5 setlinewidth
1 setlinejoin
0 setlinecap
0 0 m
0 -4 l

gsave
0.000 setgray
fill
grestore
stroke
grestore
} bind def
426.755 385.05 o
grestore
gsave
419.114773 26.325000 translate
0.000000 rotate
0.000000 0.000000 m /eight glyphshow
7.634766 0.000000 m /zero glyphshow
grestore
gsave
263.767188 9.700000 translate
0.000000 rotate
0.000000 0.000000 m /I glyphshow
3.539062 0.000000 m /t glyphshow
8.244141 0.000000 m /e glyphshow
15.626953 0.000000 m /r glyphshow
20.560547 0.000000 m /a glyphshow
27.914062 0.000000 m /t glyphshow
32.619141 0.000000 m /i glyphshow
35.953125 0.000000 m /o glyphshow
43.294922 0.000000 m /n glyphshow
grestore
gsave
/o {
gsave
newpath
translate
0.5 setlinewidth
1 setlinejoin
0 setlinecap
0 0 m
4 0 l

gsave
0.000 setgray
fill
grestore
stroke
grestore
} bind def
66.0281 39.45 o
grestore
gsave
/o {
gsave
newpath
translate
0.5 setlinewidth
1 setlinejoin
0 setlinecap
0 0 m
-4 0 l

gsave
0.000 setgray
fill
grestore
stroke
grestore
} bind def
512.428 39.45 o
grestore
gsave
54.387500 36.137500 translate
0.000000 rotate
0.000000 0.000000 m /zero glyphshow
grestore
gsave
/o {
gsave
newpath
translate
0.5 setlinewidth
1 setlinejoin
0 setlinecap
0 0 m
4 0 l

gsave
0.000 setgray
fill
grestore
stroke
grestore
} bind def
66.0281 108.57 o
grestore
gsave
/o {
gsave
newpath
translate
0.5 setlinewidth
1 setlinejoin
0 setlinecap
0 0 m
-4 0 l

gsave
0.000 setgray
fill
grestore
stroke
grestore
} bind def
512.428 108.57 o
grestore
gsave
31.465625 105.257500 translate
0.000000 rotate
0.000000 0.000000 m /two glyphshow
7.634766 0.000000 m /zero glyphshow
15.269531 0.000000 m /zero glyphshow
22.904297 0.000000 m /zero glyphshow
grestore
gsave
/o {
gsave
newpath
translate
0.5 setlinewidth
1 setlinejoin
0 setlinecap
0 0 m
4 0 l

gsave
0.000 setgray
fill
grestore
stroke
grestore
} bind def
66.0281 177.69 o
grestore
gsave
/o {
gsave
newpath
translate
0.5 setlinewidth
1 setlinejoin
0 setlinecap
0 0 m
-4 0 l

gsave
0.000 setgray
fill
grestore
stroke
grestore
} bind def
512.428 177.69 o
grestore
gsave
31.465625 174.377500 translate
0.000000 rotate
0.000000 0.000000 m /four glyphshow
7.634766 0.000000 m /zero glyphshow
15.269531 0.000000 m /zero glyphshow
22.904297 0.000000 m /zero glyphshow
grestore
gsave
/o {
gsave
newpath
translate
0.5 setlinewidth
1 setlinejoin
0 setlinecap
0 0 m
4 0 l

gsave
0.000 setgray
fill
grestore
stroke
grestore
} bind def
66.0281 246.81 o
grestore
gsave
/o {
gsave
newpath
translate
0.5 setlinewidth
1 setlinejoin
0 setlinecap
0 0 m
-4 0 l

gsave
0.000 setgray
fill
grestore
stroke
grestore
} bind def
512.428 246.81 o
grestore
gsave
31.465625 243.497500 translate
0.000000 rotate
0.000000 0.000000 m /six glyphshow
7.634766 0.000000 m /zero glyphshow
15.269531 0.000000 m /zero glyphshow
22.904297 0.000000 m /zero glyphshow
grestore
gsave
/o {
gsave
newpath
translate
0.5 setlinewidth
1 setlinejoin
0 setlinecap
0 0 m
4 0 l

gsave
0.000 setgray
fill
grestore
stroke
grestore
} bind def
66.0281 315.93 o
grestore
gsave
/o {
gsave
newpath
translate
0.5 setlinewidth
1 setlinejoin
0 setlinecap
0 0 m
-4 0 l

gsave
0.000 setgray
fill
grestore
stroke
grestore
} bind def
512.428 315.93 o
grestore
gsave
31.465625 312.617500 translate
0.000000 rotate
0.000000 0.000000 m /eight glyphshow
7.634766 0.000000 m /zero glyphshow
15.269531 0.000000 m /zero glyphshow
22.904297 0.000000 m /zero glyphshow
grestore
gsave
/o {
gsave
newpath
translate
0.5 setlinewidth
1 setlinejoin
0 setlinecap
0 0 m
4 0 l

gsave
0.000 setgray
fill
grestore
stroke
grestore
} bind def
66.0281 385.05 o
grestore
gsave
/o {
gsave
newpath
translate
0.5 setlinewidth
1 setlinejoin
0 setlinecap
0 0 m
-4 0 l

gsave
0.000 setgray
fill
grestore
stroke
grestore
} bind def
512.428 385.05 o
grestore
gsave
23.825000 381.737500 translate
0.000000 rotate
0.000000 0.000000 m /one glyphshow
7.634766 0.000000 m /zero glyphshow
15.269531 0.000000 m /zero glyphshow
22.904297 0.000000 m /zero glyphshow
30.539062 0.000000 m /zero glyphshow
grestore
gsave
16.325000 191.031250 translate
90.000000 rotate
0.000000 0.000000 m /F glyphshow
6.902344 0.000000 m /i glyphshow
10.236328 0.000000 m /t glyphshow
14.941406 0.000000 m /n glyphshow
22.546875 0.000000 m /e glyphshow
29.929688 0.000000 m /s glyphshow
36.181641 0.000000 m /s glyphshow
grestore
gsave
70.537216 57.095383 translate
0.000000 rotate
0.000000 0.000000 m /five glyphshow
7.634766 0.000000 m /one glyphshow
15.269531 0.000000 m /five glyphshow
22.904297 0.000000 m /period glyphshow
26.718750 0.000000 m /five glyphshow
34.353516 0.000000 m /seven glyphshow
grestore
/BitstreamVeraSans-Roman findfont
14.400 scalefont
setfont
gsave
170.993750 407.330000 translate
0.000000 rotate
0.000000 0.000000 m /C glyphshow
10.037231 0.000000 m /o glyphshow
18.832092 0.000000 m /n glyphshow
27.942810 0.000000 m /v glyphshow
36.449890 0.000000 m /e glyphshow
45.293884 0.000000 m /r glyphshow
51.203918 0.000000 m /g glyphshow
60.328674 0.000000 m /e glyphshow
69.172668 0.000000 m /n glyphshow
78.283386 0.000000 m /c glyphshow
86.186829 0.000000 m /e glyphshow
95.030823 0.000000 m /space glyphshow
99.600220 0.000000 m /f glyphshow
104.660950 0.000000 m /o glyphshow
113.455811 0.000000 m /r glyphshow
119.365845 0.000000 m /space glyphshow
123.935242 0.000000 m /D glyphshow
135.004272 0.000000 m /E glyphshow
144.086914 0.000000 m /comma glyphshow
148.656311 0.000000 m /space glyphshow
153.225708 0.000000 m /t glyphshow
158.862000 0.000000 m /e glyphshow
167.705994 0.000000 m /r glyphshow
173.616028 0.000000 m /r glyphshow
179.526062 0.000000 m /a glyphshow
188.334961 0.000000 m /i glyphshow
192.328796 0.000000 m /n glyphshow
201.439514 0.000000 m /space glyphshow
206.008911 0.000000 m /o glyphshow
214.803772 0.000000 m /n glyphshow
223.914490 0.000000 m /l glyphshow
227.908325 0.000000 m /y glyphshow
grestore

end
showpage
