%!PS-Adobe-3.0 EPSF-3.0
%%Title: conv_GA_b.eps
%%Creator: matplotlib version 1.5.1, http://matplotlib.org/
%%CreationDate: Sun Nov 11 19:45:54 2018
%%Orientation: portrait
%%BoundingBox: 46 183 565 608
%%EndComments
%%BeginProlog
/mpldict 8 dict def
mpldict begin
/m { moveto } bind def
/l { lineto } bind def
/r { rlineto } bind def
/c { curveto } bind def
/cl { closepath } bind def
/box {
m
1 index 0 r
0 exch r
neg 0 r
cl
} bind def
/clipbox {
box
clip
newpath
} bind def
%!PS-Adobe-3.0 Resource-Font
%%Title: Bitstream Vera Sans
%%Copyright: Copyright (c) 2003 by Bitstream, Inc. All Rights Reserved.
%%Creator: Converted from TrueType to type 3 by PPR
25 dict begin
/_d{bind def}bind def
/_m{moveto}_d
/_l{lineto}_d
/_cl{closepath eofill}_d
/_c{curveto}_d
/_sc{7 -1 roll{setcachedevice}{pop pop pop pop pop pop}ifelse}_d
/_e{exec}_d
/FontName /BitstreamVeraSans-Roman def
/PaintType 0 def
/FontMatrix[.001 0 0 .001 0 0]def
/FontBBox[-183 -236 1287 928]def
/FontType 3 def
/Encoding [ /space /comma /period /zero /one /two /three /four /five /six /eight /nine /A /C /F /G /I /a /c /d /e /f /g /i /k /n /o /r /s /t /v /w ] def
/FontInfo 10 dict dup begin
/FamilyName (Bitstream Vera Sans) def
/FullName (Bitstream Vera Sans) def
/Notice (Copyright (c) 2003 by Bitstream, Inc. All Rights Reserved. Bitstream Vera is a trademark of Bitstream, Inc.) def
/Weight (Roman) def
/Version (Release 1.10) def
/ItalicAngle 0.0 def
/isFixedPitch false def
/UnderlinePosition -213 def
/UnderlineThickness 143 def
end readonly def
/CharStrings 32 dict dup begin
/space{318 0 0 0 0 0 _sc
}_d
/comma{318 0 77 -115 220 124 _sc
117 124 _m
220 124 _l
220 40 _l
140 -115 _l
77 -115 _l
117 40 _l
117 124 _l
_cl}_d
/period{318 0 107 0 210 124 _sc
107 124 _m
210 124 _l
210 0 _l
107 0 _l
107 124 _l
_cl}_d
/zero{636 0 66 -13 570 742 _sc
318 664 _m
267 664 229 639 203 589 _c
177 539 165 464 165 364 _c
165 264 177 189 203 139 _c
229 89 267 64 318 64 _c
369 64 407 89 433 139 _c
458 189 471 264 471 364 _c
471 464 458 539 433 589 _c
407 639 369 664 318 664 _c
318 742 _m
399 742 461 709 505 645 _c
548 580 570 486 570 364 _c
570 241 548 147 505 83 _c
461 19 399 -13 318 -13 _c
236 -13 173 19 130 83 _c
87 147 66 241 66 364 _c
66 486 87 580 130 645 _c
173 709 236 742 318 742 _c
_cl}_d
/one{636 0 110 0 544 729 _sc
124 83 _m
285 83 _l
285 639 _l
110 604 _l
110 694 _l
284 729 _l
383 729 _l
383 83 _l
544 83 _l
544 0 _l
124 0 _l
124 83 _l
_cl}_d
/two{{636 0 73 0 536 742 _sc
192 83 _m
536 83 _l
536 0 _l
73 0 _l
73 83 _l
110 121 161 173 226 239 _c
290 304 331 346 348 365 _c
380 400 402 430 414 455 _c
426 479 433 504 433 528 _c
433 566 419 598 392 622 _c
365 646 330 659 286 659 _c
255 659 222 653 188 643 _c
154 632 117 616 78 594 _c
78 694 _l
118 710 155 722 189 730 _c
223 738 255 742 284 742 _c
}_e{359 742 419 723 464 685 _c
509 647 532 597 532 534 _c
532 504 526 475 515 449 _c
504 422 484 390 454 354 _c
446 344 420 317 376 272 _c
332 227 271 164 192 83 _c
_cl}_e}_d
/three{{636 0 76 -13 556 742 _sc
406 393 _m
453 383 490 362 516 330 _c
542 298 556 258 556 212 _c
556 140 531 84 482 45 _c
432 6 362 -13 271 -13 _c
240 -13 208 -10 176 -4 _c
144 1 110 10 76 22 _c
76 117 _l
103 101 133 89 166 81 _c
198 73 232 69 268 69 _c
330 69 377 81 409 105 _c
441 129 458 165 458 212 _c
458 254 443 288 413 312 _c
383 336 341 349 287 349 _c
}_e{202 349 _l
202 430 _l
291 430 _l
339 430 376 439 402 459 _c
428 478 441 506 441 543 _c
441 580 427 609 401 629 _c
374 649 336 659 287 659 _c
260 659 231 656 200 650 _c
169 644 135 635 98 623 _c
98 711 _l
135 721 170 729 203 734 _c
235 739 266 742 296 742 _c
370 742 429 725 473 691 _c
517 657 539 611 539 553 _c
539 513 527 479 504 451 _c
481 423 448 403 406 393 _c
_cl}_e}_d
/four{636 0 49 0 580 729 _sc
378 643 _m
129 254 _l
378 254 _l
378 643 _l
352 729 _m
476 729 _l
476 254 _l
580 254 _l
580 172 _l
476 172 _l
476 0 _l
378 0 _l
378 172 _l
49 172 _l
49 267 _l
352 729 _l
_cl}_d
/five{{636 0 77 -13 549 729 _sc
108 729 _m
495 729 _l
495 646 _l
198 646 _l
198 467 _l
212 472 227 476 241 478 _c
255 480 270 482 284 482 _c
365 482 429 459 477 415 _c
525 370 549 310 549 234 _c
549 155 524 94 475 51 _c
426 8 357 -13 269 -13 _c
238 -13 207 -10 175 -6 _c
143 -1 111 6 77 17 _c
77 116 _l
106 100 136 88 168 80 _c
199 72 232 69 267 69 _c
}_e{323 69 368 83 401 113 _c
433 143 450 183 450 234 _c
450 284 433 324 401 354 _c
368 384 323 399 267 399 _c
241 399 214 396 188 390 _c
162 384 135 375 108 363 _c
108 729 _l
_cl}_e}_d
/six{{636 0 70 -13 573 742 _sc
330 404 _m
286 404 251 388 225 358 _c
199 328 186 286 186 234 _c
186 181 199 139 225 109 _c
251 79 286 64 330 64 _c
374 64 409 79 435 109 _c
461 139 474 181 474 234 _c
474 286 461 328 435 358 _c
409 388 374 404 330 404 _c
526 713 _m
526 623 _l
501 635 476 644 451 650 _c
425 656 400 659 376 659 _c
310 659 260 637 226 593 _c
}_e{192 549 172 482 168 394 _c
187 422 211 444 240 459 _c
269 474 301 482 336 482 _c
409 482 467 459 509 415 _c
551 371 573 310 573 234 _c
573 159 550 99 506 54 _c
462 9 403 -13 330 -13 _c
246 -13 181 19 137 83 _c
92 147 70 241 70 364 _c
70 479 97 571 152 639 _c
206 707 280 742 372 742 _c
396 742 421 739 447 735 _c
472 730 498 723 526 713 _c
_cl}_e}_d
/eight{{636 0 68 -13 568 742 _sc
318 346 _m
271 346 234 333 207 308 _c
180 283 167 249 167 205 _c
167 161 180 126 207 101 _c
234 76 271 64 318 64 _c
364 64 401 76 428 102 _c
455 127 469 161 469 205 _c
469 249 455 283 429 308 _c
402 333 365 346 318 346 _c
219 388 _m
177 398 144 418 120 447 _c
96 476 85 511 85 553 _c
85 611 105 657 147 691 _c
188 725 245 742 318 742 _c
}_e{390 742 447 725 489 691 _c
530 657 551 611 551 553 _c
551 511 539 476 515 447 _c
491 418 459 398 417 388 _c
464 377 501 355 528 323 _c
554 291 568 251 568 205 _c
568 134 546 80 503 43 _c
459 5 398 -13 318 -13 _c
237 -13 175 5 132 43 _c
89 80 68 134 68 205 _c
68 251 81 291 108 323 _c
134 355 171 377 219 388 _c
183 544 _m
183 506 194 476 218 455 _c
}_e{242 434 275 424 318 424 _c
360 424 393 434 417 455 _c
441 476 453 506 453 544 _c
453 582 441 611 417 632 _c
393 653 360 664 318 664 _c
275 664 242 653 218 632 _c
194 611 183 582 183 544 _c
_cl}_e}_d
/nine{{636 0 63 -13 566 742 _sc
110 15 _m
110 105 _l
134 93 159 84 185 78 _c
210 72 235 69 260 69 _c
324 69 374 90 408 134 _c
442 178 462 244 468 334 _c
448 306 424 284 396 269 _c
367 254 335 247 300 247 _c
226 247 168 269 126 313 _c
84 357 63 417 63 494 _c
63 568 85 628 129 674 _c
173 719 232 742 306 742 _c
390 742 455 709 499 645 _c
543 580 566 486 566 364 _c
}_e{566 248 538 157 484 89 _c
429 21 356 -13 264 -13 _c
239 -13 214 -10 189 -6 _c
163 -2 137 5 110 15 _c
306 324 _m
350 324 385 339 411 369 _c
437 399 450 441 450 494 _c
450 546 437 588 411 618 _c
385 648 350 664 306 664 _c
262 664 227 648 201 618 _c
175 588 162 546 162 494 _c
162 441 175 399 201 369 _c
227 339 262 324 306 324 _c
_cl}_e}_d
/A{684 0 8 0 676 729 _sc
342 632 _m
208 269 _l
476 269 _l
342 632 _l
286 729 _m
398 729 _l
676 0 _l
573 0 _l
507 187 _l
178 187 _l
112 0 _l
8 0 _l
286 729 _l
_cl}_d
/C{{698 0 56 -13 644 742 _sc
644 673 _m
644 569 _l
610 599 575 622 537 638 _c
499 653 460 661 418 661 _c
334 661 270 635 226 584 _c
182 533 160 460 160 364 _c
160 268 182 194 226 143 _c
270 92 334 67 418 67 _c
460 67 499 74 537 90 _c
575 105 610 128 644 159 _c
644 56 _l
609 32 572 15 534 4 _c
496 -7 455 -13 412 -13 _c
302 -13 215 20 151 87 _c
}_e{87 154 56 246 56 364 _c
56 481 87 573 151 641 _c
215 708 302 742 412 742 _c
456 742 497 736 535 725 _c
573 713 610 696 644 673 _c
_cl}_e}_d
/F{575 0 98 0 517 729 _sc
98 729 _m
517 729 _l
517 646 _l
197 646 _l
197 431 _l
486 431 _l
486 348 _l
197 348 _l
197 0 _l
98 0 _l
98 729 _l
_cl}_d
/G{{775 0 56 -13 693 742 _sc
595 104 _m
595 300 _l
434 300 _l
434 381 _l
693 381 _l
693 68 _l
655 40 613 20 567 7 _c
521 -6 472 -13 420 -13 _c
306 -13 216 20 152 86 _c
88 152 56 245 56 364 _c
56 482 88 575 152 642 _c
216 708 306 742 420 742 _c
467 742 512 736 555 724 _c
598 712 638 695 674 673 _c
674 568 _l
637 598 598 621 557 637 _c
516 653 473 661 428 661 _c
}_e{338 661 271 636 227 586 _c
182 536 160 462 160 364 _c
160 265 182 191 227 141 _c
271 91 338 67 428 67 _c
462 67 493 70 521 76 _c
549 82 573 91 595 104 _c
_cl}_e}_d
/I{295 0 98 0 197 729 _sc
98 729 _m
197 729 _l
197 0 _l
98 0 _l
98 729 _l
_cl}_d
/a{{613 0 60 -13 522 560 _sc
343 275 _m
270 275 220 266 192 250 _c
164 233 150 205 150 165 _c
150 133 160 107 181 89 _c
202 70 231 61 267 61 _c
317 61 357 78 387 114 _c
417 149 432 196 432 255 _c
432 275 _l
343 275 _l
522 312 _m
522 0 _l
432 0 _l
432 83 _l
411 49 385 25 355 10 _c
325 -5 287 -13 243 -13 _c
187 -13 142 2 109 33 _c
76 64 60 106 60 159 _c
}_e{60 220 80 266 122 298 _c
163 329 224 345 306 345 _c
432 345 _l
432 354 _l
432 395 418 427 391 450 _c
364 472 326 484 277 484 _c
245 484 215 480 185 472 _c
155 464 127 453 100 439 _c
100 522 _l
132 534 164 544 195 550 _c
226 556 256 560 286 560 _c
365 560 424 539 463 498 _c
502 457 522 395 522 312 _c
_cl}_e}_d
/c{{550 0 55 -13 488 560 _sc
488 526 _m
488 442 _l
462 456 437 466 411 473 _c
385 480 360 484 334 484 _c
276 484 230 465 198 428 _c
166 391 150 339 150 273 _c
150 206 166 154 198 117 _c
230 80 276 62 334 62 _c
360 62 385 65 411 72 _c
437 79 462 90 488 104 _c
488 21 _l
462 9 436 0 410 -5 _c
383 -10 354 -13 324 -13 _c
242 -13 176 12 128 64 _c
}_e{79 115 55 185 55 273 _c
55 362 79 432 128 483 _c
177 534 244 560 330 560 _c
358 560 385 557 411 551 _c
437 545 463 537 488 526 _c
_cl}_e}_d
/d{{635 0 55 -13 544 760 _sc
454 464 _m
454 760 _l
544 760 _l
544 0 _l
454 0 _l
454 82 _l
435 49 411 25 382 10 _c
353 -5 319 -13 279 -13 _c
213 -13 159 13 117 65 _c
75 117 55 187 55 273 _c
55 359 75 428 117 481 _c
159 533 213 560 279 560 _c
319 560 353 552 382 536 _c
411 520 435 496 454 464 _c
148 273 _m
148 207 161 155 188 117 _c
215 79 253 61 301 61 _c
}_e{348 61 385 79 413 117 _c
440 155 454 207 454 273 _c
454 339 440 390 413 428 _c
385 466 348 485 301 485 _c
253 485 215 466 188 428 _c
161 390 148 339 148 273 _c
_cl}_e}_d
/e{{615 0 55 -13 562 560 _sc
562 296 _m
562 252 _l
149 252 _l
153 190 171 142 205 110 _c
238 78 284 62 344 62 _c
378 62 412 66 444 74 _c
476 82 509 95 541 113 _c
541 28 _l
509 14 476 3 442 -3 _c
408 -9 373 -13 339 -13 _c
251 -13 182 12 131 62 _c
80 112 55 181 55 268 _c
55 357 79 428 127 481 _c
175 533 241 560 323 560 _c
397 560 455 536 498 489 _c
}_e{540 441 562 377 562 296 _c
472 322 _m
471 371 457 410 431 440 _c
404 469 368 484 324 484 _c
274 484 234 469 204 441 _c
174 413 156 373 152 322 _c
472 322 _l
_cl}_e}_d
/f{352 0 23 0 371 760 _sc
371 760 _m
371 685 _l
285 685 _l
253 685 230 678 218 665 _c
205 652 199 629 199 595 _c
199 547 _l
347 547 _l
347 477 _l
199 477 _l
199 0 _l
109 0 _l
109 477 _l
23 477 _l
23 547 _l
109 547 _l
109 585 _l
109 645 123 690 151 718 _c
179 746 224 760 286 760 _c
371 760 _l
_cl}_d
/g{{635 0 55 -207 544 560 _sc
454 280 _m
454 344 440 395 414 431 _c
387 467 349 485 301 485 _c
253 485 215 467 188 431 _c
161 395 148 344 148 280 _c
148 215 161 165 188 129 _c
215 93 253 75 301 75 _c
349 75 387 93 414 129 _c
440 165 454 215 454 280 _c
544 68 _m
544 -24 523 -93 482 -139 _c
440 -184 377 -207 292 -207 _c
260 -207 231 -204 203 -200 _c
175 -195 147 -188 121 -178 _c
}_e{121 -91 _l
147 -105 173 -115 199 -122 _c
225 -129 251 -133 278 -133 _c
336 -133 380 -117 410 -87 _c
439 -56 454 -10 454 52 _c
454 96 _l
435 64 411 40 382 24 _c
353 8 319 0 279 0 _c
211 0 157 25 116 76 _c
75 127 55 195 55 280 _c
55 364 75 432 116 483 _c
157 534 211 560 279 560 _c
319 560 353 552 382 536 _c
411 520 435 496 454 464 _c
454 547 _l
544 547 _l
}_e{544 68 _l
_cl}_e}_d
/i{278 0 94 0 184 760 _sc
94 547 _m
184 547 _l
184 0 _l
94 0 _l
94 547 _l
94 760 _m
184 760 _l
184 646 _l
94 646 _l
94 760 _l
_cl}_d
/k{579 0 91 0 576 760 _sc
91 760 _m
181 760 _l
181 311 _l
449 547 _l
564 547 _l
274 291 _l
576 0 _l
459 0 _l
181 267 _l
181 0 _l
91 0 _l
91 760 _l
_cl}_d
/n{634 0 91 0 549 560 _sc
549 330 _m
549 0 _l
459 0 _l
459 327 _l
459 379 448 417 428 443 _c
408 469 378 482 338 482 _c
289 482 251 466 223 435 _c
195 404 181 362 181 309 _c
181 0 _l
91 0 _l
91 547 _l
181 547 _l
181 462 _l
202 494 227 519 257 535 _c
286 551 320 560 358 560 _c
420 560 468 540 500 501 _c
532 462 549 405 549 330 _c
_cl}_d
/o{612 0 55 -13 557 560 _sc
306 484 _m
258 484 220 465 192 427 _c
164 389 150 338 150 273 _c
150 207 163 156 191 118 _c
219 80 257 62 306 62 _c
354 62 392 80 420 118 _c
448 156 462 207 462 273 _c
462 337 448 389 420 427 _c
392 465 354 484 306 484 _c
306 560 _m
384 560 445 534 490 484 _c
534 433 557 363 557 273 _c
557 183 534 113 490 63 _c
445 12 384 -13 306 -13 _c
227 -13 165 12 121 63 _c
77 113 55 183 55 273 _c
55 363 77 433 121 484 _c
165 534 227 560 306 560 _c
_cl}_d
/r{411 0 91 0 411 560 _sc
411 463 _m
401 469 390 473 378 476 _c
366 478 353 480 339 480 _c
288 480 249 463 222 430 _c
194 397 181 350 181 288 _c
181 0 _l
91 0 _l
91 547 _l
181 547 _l
181 462 _l
199 495 224 520 254 536 _c
284 552 321 560 365 560 _c
371 560 378 559 386 559 _c
393 558 401 557 411 555 _c
411 463 _l
_cl}_d
/s{{521 0 54 -13 472 560 _sc
443 531 _m
443 446 _l
417 458 391 468 364 475 _c
336 481 308 485 279 485 _c
234 485 200 478 178 464 _c
156 450 145 430 145 403 _c
145 382 153 366 169 354 _c
185 342 217 330 265 320 _c
296 313 _l
360 299 405 279 432 255 _c
458 230 472 195 472 151 _c
472 100 452 60 412 31 _c
372 1 316 -13 246 -13 _c
216 -13 186 -10 154 -5 _c
}_e{122 0 89 8 54 20 _c
54 113 _l
87 95 120 82 152 74 _c
184 65 216 61 248 61 _c
290 61 323 68 346 82 _c
368 96 380 117 380 144 _c
380 168 371 187 355 200 _c
339 213 303 226 247 238 _c
216 245 _l
160 257 119 275 95 299 _c
70 323 58 356 58 399 _c
58 450 76 490 112 518 _c
148 546 200 560 268 560 _c
301 560 332 557 362 552 _c
391 547 418 540 443 531 _c
}_e{_cl}_e}_d
/t{392 0 27 0 368 702 _sc
183 702 _m
183 547 _l
368 547 _l
368 477 _l
183 477 _l
183 180 _l
183 135 189 106 201 94 _c
213 81 238 75 276 75 _c
368 75 _l
368 0 _l
276 0 _l
206 0 158 13 132 39 _c
106 65 93 112 93 180 _c
93 477 _l
27 477 _l
27 547 _l
93 547 _l
93 702 _l
183 702 _l
_cl}_d
/v{592 0 30 0 562 547 _sc
30 547 _m
125 547 _l
296 88 _l
467 547 _l
562 547 _l
357 0 _l
235 0 _l
30 547 _l
_cl}_d
/w{818 0 42 0 776 547 _sc
42 547 _m
132 547 _l
244 120 _l
356 547 _l
462 547 _l
574 120 _l
686 547 _l
776 547 _l
633 0 _l
527 0 _l
409 448 _l
291 0 _l
185 0 _l
42 547 _l
_cl}_d
end readonly def

/BuildGlyph
 {exch begin
 CharStrings exch
 2 copy known not{pop /.notdef}if
 true 3 1 roll get exec
 end}_d

/BuildChar {
 1 index /Encoding get exch get
 1 index /BuildGlyph get exec
}_d

FontName currentdict end definefont pop
end
%%EndProlog
mpldict begin
46.186 183.415 translate
519.628 425.171 0 0 clipbox
100000 setmiterlimit
gsave
0 0 m
519.628125 0 l
519.628125 425.170625 l
0 425.170625 l
cl
1.000 setgray
fill
grestore
gsave
66.028125 39.45 m
512.428125 39.45 l
512.428125 385.05 l
66.028125 385.05 l
cl
1.000 setgray
fill
grestore
1.000 setlinewidth
1 setlinejoin
2 setlinecap
[] 0 setdash
0.000 0.000 1.000 setrgbcolor
gsave
446.4 345.6 66.03 39.45 clipbox
66.028125 965.575086 m
74.608313 426.170625 m
75.046307 391.997547 l
79.555398 391.997547 l
84.064489 391.997547 l
88.57358 287.514673 l
93.08267 287.514673 l
97.591761 286.330932 l
102.100852 286.330932 l
106.609943 247.295355 l
111.119034 247.295355 l
115.628125 247.295355 l
120.137216 247.295355 l
124.646307 247.295355 l
129.155398 247.295355 l
133.664489 246.098929 l
138.17358 241.788199 l
142.68267 241.339249 l
147.191761 241.339249 l
151.700852 241.339249 l
156.209943 241.339249 l
160.719034 239.026735 l
165.228125 239.026735 l
169.737216 239.026735 l
174.246307 229.475433 l
178.755398 229.475433 l
183.264489 229.475433 l
187.77358 204.297907 l
192.28267 204.297907 l
196.791761 204.297907 l
201.300852 181.958601 l
205.809943 181.958601 l
210.319034 176.127341 l
214.828125 176.127341 l
219.337216 176.127341 l
223.846307 176.127341 l
228.355398 176.127341 l
232.864489 176.127341 l
237.37358 176.127341 l
241.88267 176.127341 l
246.391761 176.127341 l
250.900852 176.127341 l
255.409943 176.127341 l
259.919034 176.127341 l
264.428125 176.127341 l
268.937216 176.127341 l
273.446307 176.127341 l
277.955398 176.127341 l
282.464489 176.127341 l
286.97358 176.127341 l
291.48267 176.127341 l
295.991761 176.127341 l
300.500852 176.127341 l
305.009943 176.127341 l
309.519034 176.127341 l
314.028125 176.127341 l
318.537216 176.127341 l
323.046307 176.127341 l
327.555398 173.189255 l
332.064489 173.189255 l
336.57358 173.189255 l
341.08267 173.189255 l
345.591761 173.189255 l
350.100852 173.189255 l
354.609943 173.160486 l
359.119034 173.160486 l
363.628125 173.160486 l
368.137216 173.160486 l
372.646307 173.160486 l
377.155398 173.160486 l
381.664489 171.830684 l
386.17358 171.830684 l
390.68267 171.830684 l
395.191761 171.830684 l
399.700852 171.830684 l
404.209943 171.830684 l
408.719034 171.830684 l
413.228125 171.830684 l
417.737216 171.830684 l
422.246307 171.830684 l
426.755398 171.830684 l
431.264489 171.830684 l
435.77358 171.830684 l
440.28267 160.24081 l
444.791761 160.24081 l
449.300852 160.24081 l
453.809943 145.255986 l
458.319034 140.384399 l
462.828125 140.384399 l
467.337216 140.384399 l
471.846307 140.384399 l
476.355398 140.384399 l
480.864489 140.384399 l
485.37358 140.384399 l
489.88267 140.384399 l
494.391761 140.384399 l
498.900852 140.384399 l
503.409943 139.833979 l
507.919034 139.833979 l
512.428125 139.833979 l
stroke
grestore
0.000 0.500 0.000 setrgbcolor
gsave
446.4 345.6 66.03 39.45 clipbox
66.028125 1130.201735 m
70.096762 426.170625 m
70.537216 349.955185 l
75.046307 349.955185 l
79.555398 347.144496 l
84.064489 347.144496 l
88.57358 347.144496 l
93.08267 347.144496 l
97.591761 345.799247 l
102.100852 345.799247 l
106.609943 260.058412 l
111.119034 172.751097 l
115.628125 172.751097 l
120.137216 162.191509 l
124.646307 162.191509 l
129.155398 162.191509 l
133.664489 162.191509 l
138.17358 162.191509 l
142.68267 157.712279 l
147.191761 157.712279 l
151.700852 157.712279 l
156.209943 157.712279 l
160.719034 157.712279 l
165.228125 157.712279 l
169.737216 148.901723 l
174.246307 148.901723 l
178.755398 148.901723 l
183.264489 148.901723 l
187.77358 148.901723 l
192.28267 148.901723 l
196.791761 148.886702 l
201.300852 148.780026 l
205.809943 148.735199 l
210.319034 145.635194 l
214.828125 144.803438 l
219.337216 144.803438 l
223.846307 144.803438 l
228.355398 144.803438 l
232.864489 144.803438 l
237.37358 144.803438 l
241.88267 144.803438 l
246.391761 144.803438 l
250.900852 144.757586 l
255.409943 144.757586 l
259.919034 144.757586 l
264.428125 144.757586 l
268.937216 144.757586 l
273.446307 144.757586 l
277.955398 144.757586 l
282.464489 144.757586 l
286.97358 144.757586 l
291.48267 144.757586 l
295.991761 144.756066 l
300.500852 144.622819 l
305.009943 144.621915 l
309.519034 144.621915 l
314.028125 144.621915 l
318.537216 141.834358 l
323.046307 141.834358 l
327.555398 141.834358 l
332.064489 141.834358 l
336.57358 140.600177 l
341.08267 139.968033 l
345.591761 139.968033 l
350.100852 138.98846 l
354.609943 138.98846 l
359.119034 138.98846 l
363.628125 138.98846 l
368.137216 135.808351 l
372.646307 135.808351 l
377.155398 134.906338 l
381.664489 134.906338 l
386.17358 134.906338 l
390.68267 134.906338 l
395.191761 134.906338 l
399.700852 134.906338 l
404.209943 134.906338 l
408.719034 134.906338 l
413.228125 134.906338 l
417.737216 134.906338 l
422.246307 134.906338 l
426.755398 134.906338 l
431.264489 134.906338 l
435.77358 134.906338 l
440.28267 134.906338 l
444.791761 134.906338 l
449.300852 134.906338 l
453.809943 134.906338 l
458.319034 134.906338 l
462.828125 134.906338 l
467.337216 134.906338 l
471.846307 134.906338 l
476.355398 134.906338 l
480.864489 134.906338 l
485.37358 134.906338 l
489.88267 134.839625 l
494.391761 134.839625 l
498.900852 134.839625 l
503.409943 134.839625 l
507.919034 134.839625 l
512.428125 134.839625 l
stroke
grestore
1.000 0.000 0.000 setrgbcolor
gsave
446.4 345.6 66.03 39.45 clipbox
66.028125 493.825288 m
85.979355 426.170625 m
88.57358 334.513361 l
93.08267 334.513361 l
97.591761 334.513361 l
102.100852 334.513361 l
106.609943 334.513361 l
111.119034 334.513361 l
115.628125 334.513361 l
120.137216 334.513361 l
124.646307 315.16541 l
129.155398 286.832306 l
133.664489 286.832306 l
138.17358 286.832306 l
142.68267 267.611933 l
147.191761 267.611933 l
151.700852 252.075428 l
156.209943 252.075428 l
160.719034 242.413808 l
165.228125 242.413808 l
169.737216 242.413808 l
174.246307 242.413808 l
178.755398 242.413808 l
183.264489 242.410445 l
187.77358 225.976384 l
192.28267 225.738765 l
196.791761 225.738765 l
201.300852 225.738765 l
205.809943 225.738765 l
210.319034 225.738765 l
214.828125 225.738765 l
219.337216 225.738765 l
223.846307 205.334815 l
228.355398 205.334815 l
232.864489 205.334815 l
237.37358 204.340776 l
241.88267 163.861902 l
246.391761 163.861902 l
250.900852 163.861902 l
255.409943 163.861902 l
259.919034 163.861902 l
264.428125 163.861902 l
268.937216 161.95878 l
273.446307 160.661981 l
277.955398 156.453504 l
282.464489 156.453504 l
286.97358 155.658127 l
291.48267 155.658127 l
295.991761 154.832596 l
300.500852 154.832596 l
305.009943 154.832596 l
309.519034 150.020316 l
314.028125 149.264742 l
318.537216 149.264742 l
323.046307 142.640496 l
327.555398 142.640496 l
332.064489 142.640496 l
336.57358 142.640496 l
341.08267 142.640496 l
345.591761 142.640496 l
350.100852 142.640496 l
354.609943 142.640496 l
359.119034 130.233359 l
363.628125 130.233359 l
368.137216 130.233359 l
372.646307 130.233359 l
377.155398 130.233359 l
381.664489 130.233359 l
386.17358 130.233359 l
390.68267 130.233359 l
395.191761 119.578733 l
399.700852 119.578733 l
404.209943 119.578733 l
408.719034 119.578733 l
413.228125 115.740576 l
417.737216 102.553106 l
422.246307 102.553106 l
426.755398 102.553106 l
431.264489 102.553106 l
435.77358 102.052012 l
440.28267 102.052012 l
444.791761 102.052012 l
449.300852 102.052012 l
453.809943 102.052012 l
458.319034 102.052012 l
462.828125 102.052012 l
467.337216 102.052012 l
471.846307 102.052012 l
476.355398 102.052012 l
480.864489 101.680008 l
485.37358 101.680008 l
489.88267 101.680008 l
494.391761 100.333415 l
498.900852 100.333415 l
503.409943 99.501919 l
507.919034 91.761902 l
512.428125 91.761902 l
stroke
grestore
0.000 0.750 0.750 setrgbcolor
gsave
446.4 345.6 66.03 39.45 clipbox
66.028125 1488.092578 m
70.108875 426.170625 m
70.537216 314.704821 l
75.046307 314.704821 l
79.555398 314.704821 l
84.064489 314.704821 l
88.57358 314.704821 l
93.08267 314.704821 l
97.591761 314.704821 l
102.100852 314.704821 l
106.609943 313.948381 l
111.119034 165.385585 l
115.628125 165.385585 l
120.137216 165.385585 l
124.646307 165.385585 l
129.155398 165.385585 l
133.664489 165.385585 l
138.17358 165.385585 l
142.68267 165.385585 l
147.191761 161.605579 l
151.700852 161.605579 l
156.209943 161.605579 l
160.719034 161.605579 l
165.228125 161.605579 l
169.737216 161.605579 l
174.246307 161.605579 l
178.755398 160.892753 l
183.264489 146.539587 l
187.77358 138.846409 l
192.28267 138.846409 l
196.791761 138.846409 l
201.300852 138.846409 l
205.809943 138.846409 l
210.319034 138.846409 l
214.828125 138.846409 l
219.337216 134.063223 l
223.846307 134.063223 l
228.355398 134.063223 l
232.864489 132.576585 l
237.37358 132.576585 l
241.88267 132.576585 l
246.391761 132.576585 l
250.900852 129.195929 l
255.409943 126.995867 l
259.919034 126.995867 l
264.428125 126.995867 l
268.937216 126.995867 l
273.446307 126.995867 l
277.955398 126.995867 l
282.464489 126.254559 l
286.97358 123.42687 l
291.48267 123.42687 l
295.991761 121.504862 l
300.500852 121.504862 l
305.009943 120.295585 l
309.519034 120.295585 l
314.028125 120.250369 l
318.537216 119.724673 l
323.046307 117.755165 l
327.555398 117.318103 l
332.064489 116.006143 l
336.57358 116.006143 l
341.08267 115.675447 l
345.591761 115.675447 l
350.100852 115.675447 l
354.609943 115.675447 l
359.119034 115.675447 l
363.628125 115.675447 l
368.137216 115.675447 l
372.646307 115.675447 l
377.155398 115.675447 l
381.664489 115.675447 l
386.17358 115.675447 l
390.68267 115.675447 l
395.191761 115.675447 l
399.700852 115.675447 l
404.209943 115.675447 l
408.719034 115.675447 l
413.228125 115.675447 l
417.737216 115.675447 l
422.246307 115.675447 l
426.755398 115.675447 l
431.264489 115.108351 l
435.77358 115.108351 l
440.28267 115.108351 l
444.791761 115.108351 l
449.300852 115.108351 l
453.809943 115.108351 l
458.319034 115.108351 l
462.828125 114.829606 l
467.337216 114.212802 l
471.846307 114.212802 l
476.355398 114.212802 l
480.864489 114.212802 l
485.37358 113.313829 l
489.88267 113.313829 l
494.391761 113.112007 l
498.900852 113.112007 l
503.409943 113.112007 l
507.919034 113.112007 l
512.428125 113.112007 l
stroke
grestore
0.750 0.000 0.750 setrgbcolor
gsave
446.4 345.6 66.03 39.45 clipbox
66.028125 319.246762 m
70.537216 319.246762 l
75.046307 319.246762 l
79.555398 279.462013 l
84.064489 265.922177 l
88.57358 265.922177 l
93.08267 265.922177 l
97.591761 265.922177 l
102.100852 265.922177 l
106.609943 265.922177 l
111.119034 265.922177 l
115.628125 265.922177 l
120.137216 265.152164 l
124.646307 258.587278 l
129.155398 244.910722 l
133.664489 203.378219 l
138.17358 138.259871 l
142.68267 138.259871 l
147.191761 132.950419 l
151.700852 132.950419 l
156.209943 132.950419 l
160.719034 132.950419 l
165.228125 132.950419 l
169.737216 132.950419 l
174.246307 132.950419 l
178.755398 132.950419 l
183.264489 132.950419 l
187.77358 132.950419 l
192.28267 132.950419 l
196.791761 119.728624 l
201.300852 119.728624 l
205.809943 119.728624 l
210.319034 119.728624 l
214.828125 119.728624 l
219.337216 119.728624 l
223.846307 119.728624 l
228.355398 119.728624 l
232.864489 119.728624 l
237.37358 119.728624 l
241.88267 119.728624 l
246.391761 119.728624 l
250.900852 119.728624 l
255.409943 119.728624 l
259.919034 119.728624 l
264.428125 119.728624 l
268.937216 119.728624 l
273.446307 119.728624 l
277.955398 115.111222 l
282.464489 115.111222 l
286.97358 115.111222 l
291.48267 115.111222 l
295.991761 115.111222 l
300.500852 115.111222 l
305.009943 115.111222 l
309.519034 115.111222 l
314.028125 115.111222 l
318.537216 115.111222 l
323.046307 115.111222 l
327.555398 115.111222 l
332.064489 115.111222 l
336.57358 114.639383 l
341.08267 114.639383 l
345.591761 114.639383 l
350.100852 114.639383 l
354.609943 114.639383 l
359.119034 114.639383 l
363.628125 114.639383 l
368.137216 113.859953 l
372.646307 113.859953 l
377.155398 113.859953 l
381.664489 113.859953 l
386.17358 108.818601 l
390.68267 108.818601 l
395.191761 108.818601 l
399.700852 108.818601 l
404.209943 108.818601 l
408.719034 108.818601 l
413.228125 108.818601 l
417.737216 108.818601 l
422.246307 108.818601 l
426.755398 108.818601 l
431.264489 108.818601 l
435.77358 108.818601 l
440.28267 108.818601 l
444.791761 108.818601 l
449.300852 108.818601 l
453.809943 108.818601 l
458.319034 108.818601 l
462.828125 108.818601 l
467.337216 108.818601 l
471.846307 108.818601 l
476.355398 108.818601 l
480.864489 108.818601 l
485.37358 108.818601 l
489.88267 108.818601 l
494.391761 106.29266 l
498.900852 106.29266 l
503.409943 106.29266 l
507.919034 106.29266 l
512.428125 106.29266 l
stroke
grestore
0.750 0.750 0.000 setrgbcolor
gsave
446.4 345.6 66.03 39.45 clipbox
66.028125 293.814731 m
70.537216 293.814731 l
75.046307 247.743446 l
79.555398 247.743446 l
84.064489 247.743446 l
88.57358 247.265365 l
93.08267 234.655733 l
97.591761 234.655733 l
102.100852 234.655733 l
106.609943 230.890503 l
111.119034 230.890503 l
115.628125 230.890503 l
120.137216 204.316402 l
124.646307 204.316402 l
129.155398 204.316402 l
133.664489 204.316402 l
138.17358 204.316402 l
142.68267 204.316402 l
147.191761 204.316402 l
151.700852 197.508736 l
156.209943 197.508736 l
160.719034 197.508736 l
165.228125 197.508736 l
169.737216 197.508736 l
174.246307 194.958523 l
178.755398 194.958523 l
183.264489 181.801992 l
187.77358 170.764418 l
192.28267 170.764418 l
196.791761 158.796625 l
201.300852 158.796625 l
205.809943 155.083418 l
210.319034 155.083418 l
214.828125 155.083418 l
219.337216 155.083418 l
223.846307 155.083418 l
228.355398 155.083418 l
232.864489 155.083418 l
237.37358 155.083418 l
241.88267 155.083418 l
246.391761 146.940972 l
250.900852 146.940972 l
255.409943 146.940972 l
259.919034 146.940972 l
264.428125 146.940972 l
268.937216 146.940972 l
273.446307 146.940972 l
277.955398 146.940972 l
282.464489 145.796023 l
286.97358 145.796023 l
291.48267 145.796023 l
295.991761 145.796023 l
300.500852 145.796023 l
305.009943 134.576714 l
309.519034 134.576714 l
314.028125 134.576714 l
318.537216 124.515334 l
323.046307 124.515334 l
327.555398 124.515334 l
332.064489 124.515334 l
336.57358 124.399832 l
341.08267 124.399832 l
345.591761 124.399832 l
350.100852 124.399832 l
354.609943 124.399832 l
359.119034 124.399832 l
363.628125 124.399832 l
368.137216 124.399832 l
372.646307 119.241427 l
377.155398 119.241427 l
381.664489 119.241427 l
386.17358 119.241427 l
390.68267 116.11782 l
395.191761 116.11782 l
399.700852 116.11782 l
404.209943 116.11782 l
408.719034 116.11782 l
413.228125 116.11782 l
417.737216 112.64255 l
422.246307 112.64255 l
426.755398 112.64255 l
431.264489 112.64255 l
435.77358 112.64255 l
440.28267 112.64255 l
444.791761 112.64255 l
449.300852 112.64255 l
453.809943 112.64255 l
458.319034 112.64255 l
462.828125 105.050301 l
467.337216 105.050301 l
471.846307 105.050301 l
476.355398 104.613347 l
480.864489 104.613347 l
485.37358 104.613347 l
489.88267 101.066469 l
494.391761 101.066469 l
498.900852 101.066469 l
503.409943 101.066469 l
507.919034 100.345915 l
512.428125 99.65908 l
stroke
grestore
0.000 setgray
gsave
446.4 345.6 66.03 39.45 clipbox
66.028125 656.754727 m
73.221985 426.170625 m
75.046307 269.486966 l
79.555398 232.988492 l
84.064489 232.988492 l
88.57358 232.988492 l
93.08267 232.988492 l
97.591761 232.988492 l
102.100852 184.569693 l
106.609943 184.569693 l
111.119034 184.569693 l
115.628125 184.569693 l
120.137216 184.569693 l
124.646307 184.569693 l
129.155398 184.569693 l
133.664489 184.569693 l
138.17358 184.569693 l
142.68267 184.569693 l
147.191761 184.569693 l
151.700852 184.569693 l
156.209943 184.569693 l
160.719034 184.569693 l
165.228125 184.569693 l
169.737216 184.569693 l
174.246307 184.569693 l
178.755398 184.569693 l
183.264489 149.049148 l
187.77358 149.049148 l
192.28267 149.049148 l
196.791761 149.049148 l
201.300852 149.049148 l
205.809943 149.049148 l
210.319034 149.049148 l
214.828125 149.049148 l
219.337216 149.049148 l
223.846307 149.049148 l
228.355398 148.950341 l
232.864489 148.950341 l
237.37358 148.950341 l
241.88267 148.950341 l
246.391761 146.319783 l
250.900852 146.319783 l
255.409943 144.153529 l
259.919034 143.028309 l
264.428125 143.028309 l
268.937216 137.575464 l
273.446307 137.575464 l
277.955398 137.575464 l
282.464489 137.575464 l
286.97358 137.575464 l
291.48267 135.543586 l
295.991761 135.543586 l
300.500852 135.543586 l
305.009943 135.378297 l
309.519034 112.749212 l
314.028125 111.544935 l
318.537216 111.544935 l
323.046307 111.544935 l
327.555398 111.544935 l
332.064489 111.544935 l
336.57358 111.544935 l
341.08267 111.544935 l
345.591761 111.544935 l
350.100852 111.544935 l
354.609943 111.544935 l
359.119034 111.544935 l
363.628125 99.089204 l
368.137216 99.089204 l
372.646307 99.089204 l
377.155398 99.089204 l
381.664489 99.089204 l
386.17358 99.089204 l
390.68267 99.089204 l
395.191761 99.089204 l
399.700852 99.089204 l
404.209943 99.089204 l
408.719034 99.089204 l
413.228125 99.089204 l
417.737216 99.089204 l
422.246307 99.089204 l
426.755398 99.089204 l
431.264489 99.089204 l
435.77358 99.089204 l
440.28267 99.089204 l
444.791761 99.089204 l
449.300852 99.089204 l
453.809943 99.089204 l
458.319034 99.089204 l
462.828125 99.089204 l
467.337216 99.089204 l
471.846307 99.089204 l
476.355398 99.089204 l
480.864489 99.089204 l
485.37358 99.089204 l
489.88267 99.089204 l
494.391761 98.518228 l
498.900852 98.518228 l
503.409943 89.166642 l
507.919034 89.166642 l
512.428125 89.166642 l
stroke
grestore
0.000 0.000 1.000 setrgbcolor
gsave
446.4 345.6 66.03 39.45 clipbox
66.028125 203.269914 m
70.537216 203.269914 l
75.046307 203.269914 l
79.555398 203.269914 l
84.064489 203.269914 l
88.57358 203.269914 l
93.08267 193.019371 l
97.591761 192.778159 l
102.100852 192.778159 l
106.609943 192.778159 l
111.119034 192.778159 l
115.628125 192.778159 l
120.137216 192.778159 l
124.646307 192.778159 l
129.155398 192.778159 l
133.664489 192.778159 l
138.17358 192.778159 l
142.68267 192.778159 l
147.191761 192.778159 l
151.700852 192.778159 l
156.209943 192.778159 l
160.719034 190.569094 l
165.228125 190.569094 l
169.737216 190.569094 l
174.246307 190.569094 l
178.755398 190.569094 l
183.264489 190.569094 l
187.77358 190.569094 l
192.28267 187.3161 l
196.791761 187.3161 l
201.300852 187.3161 l
205.809943 187.3161 l
210.319034 187.3161 l
214.828125 179.736705 l
219.337216 179.736705 l
223.846307 179.736705 l
228.355398 179.736705 l
232.864489 179.736705 l
237.37358 179.736705 l
241.88267 179.736705 l
246.391761 179.203476 l
250.900852 179.203476 l
255.409943 176.249807 l
259.919034 176.249807 l
264.428125 176.249807 l
268.937216 176.249807 l
273.446307 176.249807 l
277.955398 176.249807 l
282.464489 176.249807 l
286.97358 170.038695 l
291.48267 168.160797 l
295.991761 168.160797 l
300.500852 168.160797 l
305.009943 158.3541 l
309.519034 158.3541 l
314.028125 158.3541 l
318.537216 158.126611 l
323.046307 156.041272 l
327.555398 138.614655 l
332.064489 138.614655 l
336.57358 138.614655 l
341.08267 138.614655 l
345.591761 138.614655 l
350.100852 138.614655 l
354.609943 138.614655 l
359.119034 136.654853 l
363.628125 136.604869 l
368.137216 134.679411 l
372.646307 134.679411 l
377.155398 134.679411 l
381.664489 132.789727 l
386.17358 132.789727 l
390.68267 118.044696 l
395.191761 115.267295 l
399.700852 115.267295 l
404.209943 115.267295 l
408.719034 115.267295 l
413.228125 111.324284 l
417.737216 108.890203 l
422.246307 108.890203 l
426.755398 108.890203 l
431.264489 108.890203 l
435.77358 105.714101 l
440.28267 105.714101 l
444.791761 105.1131 l
449.300852 97.623755 l
453.809943 97.623755 l
458.319034 97.623755 l
462.828125 97.623755 l
467.337216 97.354727 l
471.846307 97.354727 l
476.355398 96.219817 l
480.864489 96.219817 l
485.37358 96.219817 l
489.88267 96.219817 l
494.391761 96.219817 l
498.900852 96.219817 l
503.409943 96.219817 l
507.919034 96.219817 l
512.428125 96.219817 l
stroke
grestore
0.000 0.500 0.000 setrgbcolor
gsave
446.4 345.6 66.03 39.45 clipbox
66.028125 762.174048 m
81.415746 426.170625 m
84.064489 318.960254 l
88.57358 318.960254 l
93.08267 318.960254 l
97.591761 318.960254 l
102.100852 318.960254 l
106.609943 318.960254 l
111.119034 318.960254 l
115.628125 318.960254 l
120.137216 318.960254 l
124.646307 318.960254 l
129.155398 318.960254 l
133.664489 318.960254 l
138.17358 318.960254 l
142.68267 293.121393 l
147.191761 293.121393 l
151.700852 277.445832 l
156.209943 277.445832 l
160.719034 263.685353 l
165.228125 263.685353 l
169.737216 263.685353 l
174.246307 263.685353 l
178.755398 263.685353 l
183.264489 263.685353 l
187.77358 259.985855 l
192.28267 259.985855 l
196.791761 259.04363 l
201.300852 250.465274 l
205.809943 250.465274 l
210.319034 250.465274 l
214.828125 232.079541 l
219.337216 232.079541 l
223.846307 232.079541 l
228.355398 232.079541 l
232.864489 232.079541 l
237.37358 219.812972 l
241.88267 219.812972 l
246.391761 219.812972 l
250.900852 219.812972 l
255.409943 219.812972 l
259.919034 219.812972 l
264.428125 219.812972 l
268.937216 219.812972 l
273.446307 219.812972 l
277.955398 219.812972 l
282.464489 219.098763 l
286.97358 219.098763 l
291.48267 203.891642 l
295.991761 203.891642 l
300.500852 203.891642 l
305.009943 187.770559 l
309.519034 187.770559 l
314.028125 187.770559 l
318.537216 187.770559 l
323.046307 187.770559 l
327.555398 177.182475 l
332.064489 177.182475 l
336.57358 177.182475 l
341.08267 169.618542 l
345.591761 165.484247 l
350.100852 165.484247 l
354.609943 165.484247 l
359.119034 160.651003 l
363.628125 158.5124 l
368.137216 158.5124 l
372.646307 158.5124 l
377.155398 158.5124 l
381.664489 152.385782 l
386.17358 152.385782 l
390.68267 128.449027 l
395.191761 128.449027 l
399.700852 121.194641 l
404.209943 121.194641 l
408.719034 121.194641 l
413.228125 121.194641 l
417.737216 121.194641 l
422.246307 121.194641 l
426.755398 120.180037 l
431.264489 120.180037 l
435.77358 120.180037 l
440.28267 115.046302 l
444.791761 115.046302 l
449.300852 110.282498 l
453.809943 109.667403 l
458.319034 109.667403 l
462.828125 101.418412 l
467.337216 101.377131 l
471.846307 101.377131 l
476.355398 101.377131 l
480.864489 101.377131 l
485.37358 101.377131 l
489.88267 101.377131 l
494.391761 101.377131 l
498.900852 99.770961 l
503.409943 99.770961 l
507.919034 99.769688 l
512.428125 99.280602 l
stroke
grestore
1.000 0.000 0.000 setrgbcolor
gsave
446.4 345.6 66.03 39.45 clipbox
66.028125 351.760199 m
70.537216 351.760199 l
75.046307 351.760199 l
79.555398 341.887612 l
84.064489 224.239678 l
88.57358 224.239678 l
93.08267 224.239678 l
97.591761 224.239678 l
102.100852 224.239678 l
106.609943 224.239678 l
111.119034 224.239678 l
115.628125 224.239678 l
120.137216 224.239678 l
124.646307 224.239678 l
129.155398 224.239678 l
133.664489 210.921145 l
138.17358 198.670782 l
142.68267 198.670782 l
147.191761 198.670782 l
151.700852 198.670782 l
156.209943 198.670782 l
160.719034 198.670782 l
165.228125 198.670782 l
169.737216 198.670782 l
174.246307 198.670782 l
178.755398 198.670782 l
183.264489 198.670782 l
187.77358 198.670782 l
192.28267 198.670782 l
196.791761 164.671402 l
201.300852 164.671402 l
205.809943 164.671402 l
210.319034 164.671402 l
214.828125 164.671402 l
219.337216 164.671402 l
223.846307 164.671402 l
228.355398 164.671402 l
232.864489 164.405133 l
237.37358 164.405133 l
241.88267 155.954061 l
246.391761 155.954061 l
250.900852 155.954061 l
255.409943 155.954061 l
259.919034 155.954061 l
264.428125 155.885102 l
268.937216 149.259411 l
273.446307 149.259411 l
277.955398 149.259411 l
282.464489 149.259411 l
286.97358 149.259411 l
291.48267 149.259411 l
295.991761 149.259411 l
300.500852 149.259411 l
305.009943 149.259411 l
309.519034 149.259411 l
314.028125 149.259411 l
318.537216 149.259411 l
323.046307 141.940285 l
327.555398 141.940285 l
332.064489 132.151765 l
336.57358 132.151765 l
341.08267 132.151765 l
345.591761 132.151765 l
350.100852 132.151765 l
354.609943 132.151765 l
359.119034 132.151765 l
363.628125 132.151765 l
368.137216 132.151765 l
372.646307 132.151765 l
377.155398 132.151765 l
381.664489 132.151765 l
386.17358 132.151765 l
390.68267 132.151765 l
395.191761 132.151765 l
399.700852 102.538391 l
404.209943 102.538391 l
408.719034 102.538391 l
413.228125 102.538391 l
417.737216 102.538391 l
422.246307 99.075715 l
426.755398 99.075715 l
431.264489 99.075715 l
435.77358 98.521134 l
440.28267 98.521134 l
444.791761 98.521134 l
449.300852 93.196185 l
453.809943 93.196185 l
458.319034 93.196185 l
462.828125 93.196185 l
467.337216 93.196185 l
471.846307 93.196185 l
476.355398 90.241912 l
480.864489 90.241912 l
485.37358 90.241912 l
489.88267 90.241912 l
494.391761 90.241912 l
498.900852 90.241912 l
503.409943 90.241912 l
507.919034 90.241912 l
512.428125 90.241912 l
stroke
grestore
0 setlinecap
[6 6] 0 setdash
gsave
446.4 345.6 66.03 39.45 clipbox
66.028125 89.166642 m
512.428125 89.166642 l
stroke
grestore
0 setlinejoin
2 setlinecap
[] 0 setdash
0.000 setgray
gsave
66.028125 385.05 m
512.428125 385.05 l
stroke
grestore
gsave
512.428125 39.45 m
512.428125 385.05 l
stroke
grestore
gsave
66.028125 39.45 m
512.428125 39.45 l
stroke
grestore
gsave
66.028125 39.45 m
66.028125 385.05 l
stroke
grestore
0.500 setlinewidth
1 setlinejoin
0 setlinecap
gsave
/o {
gsave
newpath
translate
0.5 setlinewidth
1 setlinejoin
0 setlinecap
0 0 m
0 4 l

gsave
0.000 setgray
fill
grestore
stroke
grestore
} bind def
66.0281 39.45 o
grestore
gsave
/o {
gsave
newpath
translate
0.5 setlinewidth
1 setlinejoin
0 setlinecap
0 0 m
0 -4 l

gsave
0.000 setgray
fill
grestore
stroke
grestore
} bind def
66.0281 385.05 o
grestore
/BitstreamVeraSans-Roman findfont
12.000 scalefont
setfont
gsave
62.207813 26.325000 translate
0.000000 rotate
0.000000 0.000000 m /zero glyphshow
grestore
gsave
/o {
gsave
newpath
translate
0.5 setlinewidth
1 setlinejoin
0 setlinecap
0 0 m
0 4 l

gsave
0.000 setgray
fill
grestore
stroke
grestore
} bind def
156.21 39.45 o
grestore
gsave
/o {
gsave
newpath
translate
0.5 setlinewidth
1 setlinejoin
0 setlinecap
0 0 m
0 -4 l

gsave
0.000 setgray
fill
grestore
stroke
grestore
} bind def
156.21 385.05 o
grestore
gsave
148.569318 26.325000 translate
0.000000 rotate
0.000000 0.000000 m /two glyphshow
7.634766 0.000000 m /zero glyphshow
grestore
gsave
/o {
gsave
newpath
translate
0.5 setlinewidth
1 setlinejoin
0 setlinecap
0 0 m
0 4 l

gsave
0.000 setgray
fill
grestore
stroke
grestore
} bind def
246.392 39.45 o
grestore
gsave
/o {
gsave
newpath
translate
0.5 setlinewidth
1 setlinejoin
0 setlinecap
0 0 m
0 -4 l

gsave
0.000 setgray
fill
grestore
stroke
grestore
} bind def
246.392 385.05 o
grestore
gsave
238.751136 26.325000 translate
0.000000 rotate
0.000000 0.000000 m /four glyphshow
7.634766 0.000000 m /zero glyphshow
grestore
gsave
/o {
gsave
newpath
translate
0.5 setlinewidth
1 setlinejoin
0 setlinecap
0 0 m
0 4 l

gsave
0.000 setgray
fill
grestore
stroke
grestore
} bind def
336.574 39.45 o
grestore
gsave
/o {
gsave
newpath
translate
0.5 setlinewidth
1 setlinejoin
0 setlinecap
0 0 m
0 -4 l

gsave
0.000 setgray
fill
grestore
stroke
grestore
} bind def
336.574 385.05 o
grestore
gsave
328.932955 26.325000 translate
0.000000 rotate
0.000000 0.000000 m /six glyphshow
7.634766 0.000000 m /zero glyphshow
grestore
gsave
/o {
gsave
newpath
translate
0.5 setlinewidth
1 setlinejoin
0 setlinecap
0 0 m
0 4 l

gsave
0.000 setgray
fill
grestore
stroke
grestore
} bind def
426.755 39.45 o
grestore
gsave
/o {
gsave
newpath
translate
0.5 setlinewidth
1 setlinejoin
0 setlinecap
0 0 m
0 -4 l

gsave
0.000 setgray
fill
grestore
stroke
grestore
} bind def
426.755 385.05 o
grestore
gsave
419.114773 26.325000 translate
0.000000 rotate
0.000000 0.000000 m /eight glyphshow
7.634766 0.000000 m /zero glyphshow
grestore
gsave
263.767188 9.700000 translate
0.000000 rotate
0.000000 0.000000 m /I glyphshow
3.539062 0.000000 m /t glyphshow
8.244141 0.000000 m /e glyphshow
15.626953 0.000000 m /r glyphshow
20.560547 0.000000 m /a glyphshow
27.914062 0.000000 m /t glyphshow
32.619141 0.000000 m /i glyphshow
35.953125 0.000000 m /o glyphshow
43.294922 0.000000 m /n glyphshow
grestore
gsave
/o {
gsave
newpath
translate
0.5 setlinewidth
1 setlinejoin
0 setlinecap
0 0 m
4 0 l

gsave
0.000 setgray
fill
grestore
stroke
grestore
} bind def
66.0281 102.928 o
grestore
gsave
/o {
gsave
newpath
translate
0.5 setlinewidth
1 setlinejoin
0 setlinecap
0 0 m
-4 0 l

gsave
0.000 setgray
fill
grestore
stroke
grestore
} bind def
512.428 102.928 o
grestore
gsave
23.825000 99.615051 translate
0.000000 rotate
0.000000 0.000000 m /one glyphshow
7.634766 0.000000 m /zero glyphshow
15.269531 0.000000 m /zero glyphshow
22.904297 0.000000 m /zero glyphshow
30.539062 0.000000 m /zero glyphshow
grestore
gsave
/o {
gsave
newpath
translate
0.5 setlinewidth
1 setlinejoin
0 setlinecap
0 0 m
4 0 l

gsave
0.000 setgray
fill
grestore
stroke
grestore
} bind def
66.0281 173.458 o
grestore
gsave
/o {
gsave
newpath
translate
0.5 setlinewidth
1 setlinejoin
0 setlinecap
0 0 m
-4 0 l

gsave
0.000 setgray
fill
grestore
stroke
grestore
} bind def
512.428 173.458 o
grestore
gsave
23.825000 170.145663 translate
0.000000 rotate
0.000000 0.000000 m /two glyphshow
7.634766 0.000000 m /zero glyphshow
15.269531 0.000000 m /zero glyphshow
22.904297 0.000000 m /zero glyphshow
30.539062 0.000000 m /zero glyphshow
grestore
gsave
/o {
gsave
newpath
translate
0.5 setlinewidth
1 setlinejoin
0 setlinecap
0 0 m
4 0 l

gsave
0.000 setgray
fill
grestore
stroke
grestore
} bind def
66.0281 243.989 o
grestore
gsave
/o {
gsave
newpath
translate
0.5 setlinewidth
1 setlinejoin
0 setlinecap
0 0 m
-4 0 l

gsave
0.000 setgray
fill
grestore
stroke
grestore
} bind def
512.428 243.989 o
grestore
gsave
23.825000 240.676276 translate
0.000000 rotate
0.000000 0.000000 m /three glyphshow
7.634766 0.000000 m /zero glyphshow
15.269531 0.000000 m /zero glyphshow
22.904297 0.000000 m /zero glyphshow
30.539062 0.000000 m /zero glyphshow
grestore
gsave
/o {
gsave
newpath
translate
0.5 setlinewidth
1 setlinejoin
0 setlinecap
0 0 m
4 0 l

gsave
0.000 setgray
fill
grestore
stroke
grestore
} bind def
66.0281 314.519 o
grestore
gsave
/o {
gsave
newpath
translate
0.5 setlinewidth
1 setlinejoin
0 setlinecap
0 0 m
-4 0 l

gsave
0.000 setgray
fill
grestore
stroke
grestore
} bind def
512.428 314.519 o
grestore
gsave
23.825000 311.206888 translate
0.000000 rotate
0.000000 0.000000 m /four glyphshow
7.634766 0.000000 m /zero glyphshow
15.269531 0.000000 m /zero glyphshow
22.904297 0.000000 m /zero glyphshow
30.539062 0.000000 m /zero glyphshow
grestore
gsave
/o {
gsave
newpath
translate
0.5 setlinewidth
1 setlinejoin
0 setlinecap
0 0 m
4 0 l

gsave
0.000 setgray
fill
grestore
stroke
grestore
} bind def
66.0281 385.05 o
grestore
gsave
/o {
gsave
newpath
translate
0.5 setlinewidth
1 setlinejoin
0 setlinecap
0 0 m
-4 0 l

gsave
0.000 setgray
fill
grestore
stroke
grestore
} bind def
512.428 385.05 o
grestore
gsave
23.825000 381.737500 translate
0.000000 rotate
0.000000 0.000000 m /five glyphshow
7.634766 0.000000 m /zero glyphshow
15.269531 0.000000 m /zero glyphshow
22.904297 0.000000 m /zero glyphshow
30.539062 0.000000 m /zero glyphshow
grestore
gsave
16.325000 191.031250 translate
90.000000 rotate
0.000000 0.000000 m /F glyphshow
6.902344 0.000000 m /i glyphshow
10.236328 0.000000 m /t glyphshow
14.941406 0.000000 m /n glyphshow
22.546875 0.000000 m /e glyphshow
29.929688 0.000000 m /s glyphshow
36.181641 0.000000 m /s glyphshow
grestore
gsave
70.537216 89.131376 translate
0.000000 rotate
0.000000 0.000000 m /eight glyphshow
7.634766 0.000000 m /zero glyphshow
15.269531 0.000000 m /four glyphshow
22.904297 0.000000 m /eight glyphshow
30.539062 0.000000 m /period glyphshow
34.353516 0.000000 m /nine glyphshow
41.988281 0.000000 m /five glyphshow
grestore
/BitstreamVeraSans-Roman findfont
14.400 scalefont
setfont
gsave
120.532813 407.330000 translate
0.000000 rotate
0.000000 0.000000 m /C glyphshow
10.037231 0.000000 m /o glyphshow
18.832092 0.000000 m /n glyphshow
27.942810 0.000000 m /v glyphshow
36.449890 0.000000 m /e glyphshow
45.293884 0.000000 m /r glyphshow
51.203918 0.000000 m /g glyphshow
60.328674 0.000000 m /e glyphshow
69.172668 0.000000 m /n glyphshow
78.283386 0.000000 m /c glyphshow
86.186829 0.000000 m /e glyphshow
95.030823 0.000000 m /space glyphshow
99.600220 0.000000 m /f glyphshow
104.660950 0.000000 m /o glyphshow
113.455811 0.000000 m /r glyphshow
119.365845 0.000000 m /space glyphshow
123.935242 0.000000 m /G glyphshow
135.074463 0.000000 m /A glyphshow
144.908142 0.000000 m /comma glyphshow
149.477539 0.000000 m /space glyphshow
154.046936 0.000000 m /t glyphshow
159.683228 0.000000 m /e glyphshow
168.527222 0.000000 m /r glyphshow
174.437256 0.000000 m /r glyphshow
180.347290 0.000000 m /a glyphshow
189.156189 0.000000 m /i glyphshow
193.150024 0.000000 m /n glyphshow
202.260742 0.000000 m /comma glyphshow
206.830139 0.000000 m /space glyphshow
211.399536 0.000000 m /w glyphshow
223.156433 0.000000 m /o glyphshow
231.951294 0.000000 m /r glyphshow
237.861328 0.000000 m /k glyphshow
246.185913 0.000000 m /comma glyphshow
250.755310 0.000000 m /space glyphshow
255.324707 0.000000 m /a glyphshow
264.133606 0.000000 m /n glyphshow
273.244324 0.000000 m /d glyphshow
282.369080 0.000000 m /space glyphshow
286.938477 0.000000 m /r glyphshow
292.848511 0.000000 m /e glyphshow
301.692505 0.000000 m /w glyphshow
313.449402 0.000000 m /a glyphshow
322.258301 0.000000 m /r glyphshow
328.168335 0.000000 m /d glyphshow
grestore

end
showpage
