%!PS-Adobe-3.0 EPSF-3.0
%%Title: conv_DE_b.eps
%%Creator: matplotlib version 1.5.1, http://matplotlib.org/
%%CreationDate: Sun Nov 11 19:45:51 2018
%%Orientation: portrait
%%BoundingBox: 46 183 565 608
%%EndComments
%%BeginProlog
/mpldict 8 dict def
mpldict begin
/m { moveto } bind def
/l { lineto } bind def
/r { rlineto } bind def
/c { curveto } bind def
/cl { closepath } bind def
/box {
m
1 index 0 r
0 exch r
neg 0 r
cl
} bind def
/clipbox {
box
clip
newpath
} bind def
%!PS-Adobe-3.0 Resource-Font
%%Title: Bitstream Vera Sans
%%Copyright: Copyright (c) 2003 by Bitstream, Inc. All Rights Reserved.
%%Creator: Converted from TrueType to type 3 by PPR
25 dict begin
/_d{bind def}bind def
/_m{moveto}_d
/_l{lineto}_d
/_cl{closepath eofill}_d
/_c{curveto}_d
/_sc{7 -1 roll{setcachedevice}{pop pop pop pop pop pop}ifelse}_d
/_e{exec}_d
/FontName /BitstreamVeraSans-Roman def
/PaintType 0 def
/FontMatrix[.001 0 0 .001 0 0]def
/FontBBox[-183 -236 1287 928]def
/FontType 3 def
/Encoding [ /space /comma /period /zero /one /two /three /four /five /six /seven /eight /nine /C /D /E /F /I /a /c /d /e /f /g /i /k /n /o /r /s /t /v /w ] def
/FontInfo 10 dict dup begin
/FamilyName (Bitstream Vera Sans) def
/FullName (Bitstream Vera Sans) def
/Notice (Copyright (c) 2003 by Bitstream, Inc. All Rights Reserved. Bitstream Vera is a trademark of Bitstream, Inc.) def
/Weight (Roman) def
/Version (Release 1.10) def
/ItalicAngle 0.0 def
/isFixedPitch false def
/UnderlinePosition -213 def
/UnderlineThickness 143 def
end readonly def
/CharStrings 33 dict dup begin
/space{318 0 0 0 0 0 _sc
}_d
/comma{318 0 77 -115 220 124 _sc
117 124 _m
220 124 _l
220 40 _l
140 -115 _l
77 -115 _l
117 40 _l
117 124 _l
_cl}_d
/period{318 0 107 0 210 124 _sc
107 124 _m
210 124 _l
210 0 _l
107 0 _l
107 124 _l
_cl}_d
/zero{636 0 66 -13 570 742 _sc
318 664 _m
267 664 229 639 203 589 _c
177 539 165 464 165 364 _c
165 264 177 189 203 139 _c
229 89 267 64 318 64 _c
369 64 407 89 433 139 _c
458 189 471 264 471 364 _c
471 464 458 539 433 589 _c
407 639 369 664 318 664 _c
318 742 _m
399 742 461 709 505 645 _c
548 580 570 486 570 364 _c
570 241 548 147 505 83 _c
461 19 399 -13 318 -13 _c
236 -13 173 19 130 83 _c
87 147 66 241 66 364 _c
66 486 87 580 130 645 _c
173 709 236 742 318 742 _c
_cl}_d
/one{636 0 110 0 544 729 _sc
124 83 _m
285 83 _l
285 639 _l
110 604 _l
110 694 _l
284 729 _l
383 729 _l
383 83 _l
544 83 _l
544 0 _l
124 0 _l
124 83 _l
_cl}_d
/two{{636 0 73 0 536 742 _sc
192 83 _m
536 83 _l
536 0 _l
73 0 _l
73 83 _l
110 121 161 173 226 239 _c
290 304 331 346 348 365 _c
380 400 402 430 414 455 _c
426 479 433 504 433 528 _c
433 566 419 598 392 622 _c
365 646 330 659 286 659 _c
255 659 222 653 188 643 _c
154 632 117 616 78 594 _c
78 694 _l
118 710 155 722 189 730 _c
223 738 255 742 284 742 _c
}_e{359 742 419 723 464 685 _c
509 647 532 597 532 534 _c
532 504 526 475 515 449 _c
504 422 484 390 454 354 _c
446 344 420 317 376 272 _c
332 227 271 164 192 83 _c
_cl}_e}_d
/three{{636 0 76 -13 556 742 _sc
406 393 _m
453 383 490 362 516 330 _c
542 298 556 258 556 212 _c
556 140 531 84 482 45 _c
432 6 362 -13 271 -13 _c
240 -13 208 -10 176 -4 _c
144 1 110 10 76 22 _c
76 117 _l
103 101 133 89 166 81 _c
198 73 232 69 268 69 _c
330 69 377 81 409 105 _c
441 129 458 165 458 212 _c
458 254 443 288 413 312 _c
383 336 341 349 287 349 _c
}_e{202 349 _l
202 430 _l
291 430 _l
339 430 376 439 402 459 _c
428 478 441 506 441 543 _c
441 580 427 609 401 629 _c
374 649 336 659 287 659 _c
260 659 231 656 200 650 _c
169 644 135 635 98 623 _c
98 711 _l
135 721 170 729 203 734 _c
235 739 266 742 296 742 _c
370 742 429 725 473 691 _c
517 657 539 611 539 553 _c
539 513 527 479 504 451 _c
481 423 448 403 406 393 _c
_cl}_e}_d
/four{636 0 49 0 580 729 _sc
378 643 _m
129 254 _l
378 254 _l
378 643 _l
352 729 _m
476 729 _l
476 254 _l
580 254 _l
580 172 _l
476 172 _l
476 0 _l
378 0 _l
378 172 _l
49 172 _l
49 267 _l
352 729 _l
_cl}_d
/five{{636 0 77 -13 549 729 _sc
108 729 _m
495 729 _l
495 646 _l
198 646 _l
198 467 _l
212 472 227 476 241 478 _c
255 480 270 482 284 482 _c
365 482 429 459 477 415 _c
525 370 549 310 549 234 _c
549 155 524 94 475 51 _c
426 8 357 -13 269 -13 _c
238 -13 207 -10 175 -6 _c
143 -1 111 6 77 17 _c
77 116 _l
106 100 136 88 168 80 _c
199 72 232 69 267 69 _c
}_e{323 69 368 83 401 113 _c
433 143 450 183 450 234 _c
450 284 433 324 401 354 _c
368 384 323 399 267 399 _c
241 399 214 396 188 390 _c
162 384 135 375 108 363 _c
108 729 _l
_cl}_e}_d
/six{{636 0 70 -13 573 742 _sc
330 404 _m
286 404 251 388 225 358 _c
199 328 186 286 186 234 _c
186 181 199 139 225 109 _c
251 79 286 64 330 64 _c
374 64 409 79 435 109 _c
461 139 474 181 474 234 _c
474 286 461 328 435 358 _c
409 388 374 404 330 404 _c
526 713 _m
526 623 _l
501 635 476 644 451 650 _c
425 656 400 659 376 659 _c
310 659 260 637 226 593 _c
}_e{192 549 172 482 168 394 _c
187 422 211 444 240 459 _c
269 474 301 482 336 482 _c
409 482 467 459 509 415 _c
551 371 573 310 573 234 _c
573 159 550 99 506 54 _c
462 9 403 -13 330 -13 _c
246 -13 181 19 137 83 _c
92 147 70 241 70 364 _c
70 479 97 571 152 639 _c
206 707 280 742 372 742 _c
396 742 421 739 447 735 _c
472 730 498 723 526 713 _c
_cl}_e}_d
/seven{636 0 82 0 551 729 _sc
82 729 _m
551 729 _l
551 687 _l
286 0 _l
183 0 _l
432 646 _l
82 646 _l
82 729 _l
_cl}_d
/eight{{636 0 68 -13 568 742 _sc
318 346 _m
271 346 234 333 207 308 _c
180 283 167 249 167 205 _c
167 161 180 126 207 101 _c
234 76 271 64 318 64 _c
364 64 401 76 428 102 _c
455 127 469 161 469 205 _c
469 249 455 283 429 308 _c
402 333 365 346 318 346 _c
219 388 _m
177 398 144 418 120 447 _c
96 476 85 511 85 553 _c
85 611 105 657 147 691 _c
188 725 245 742 318 742 _c
}_e{390 742 447 725 489 691 _c
530 657 551 611 551 553 _c
551 511 539 476 515 447 _c
491 418 459 398 417 388 _c
464 377 501 355 528 323 _c
554 291 568 251 568 205 _c
568 134 546 80 503 43 _c
459 5 398 -13 318 -13 _c
237 -13 175 5 132 43 _c
89 80 68 134 68 205 _c
68 251 81 291 108 323 _c
134 355 171 377 219 388 _c
183 544 _m
183 506 194 476 218 455 _c
}_e{242 434 275 424 318 424 _c
360 424 393 434 417 455 _c
441 476 453 506 453 544 _c
453 582 441 611 417 632 _c
393 653 360 664 318 664 _c
275 664 242 653 218 632 _c
194 611 183 582 183 544 _c
_cl}_e}_d
/nine{{636 0 63 -13 566 742 _sc
110 15 _m
110 105 _l
134 93 159 84 185 78 _c
210 72 235 69 260 69 _c
324 69 374 90 408 134 _c
442 178 462 244 468 334 _c
448 306 424 284 396 269 _c
367 254 335 247 300 247 _c
226 247 168 269 126 313 _c
84 357 63 417 63 494 _c
63 568 85 628 129 674 _c
173 719 232 742 306 742 _c
390 742 455 709 499 645 _c
543 580 566 486 566 364 _c
}_e{566 248 538 157 484 89 _c
429 21 356 -13 264 -13 _c
239 -13 214 -10 189 -6 _c
163 -2 137 5 110 15 _c
306 324 _m
350 324 385 339 411 369 _c
437 399 450 441 450 494 _c
450 546 437 588 411 618 _c
385 648 350 664 306 664 _c
262 664 227 648 201 618 _c
175 588 162 546 162 494 _c
162 441 175 399 201 369 _c
227 339 262 324 306 324 _c
_cl}_e}_d
/C{{698 0 56 -13 644 742 _sc
644 673 _m
644 569 _l
610 599 575 622 537 638 _c
499 653 460 661 418 661 _c
334 661 270 635 226 584 _c
182 533 160 460 160 364 _c
160 268 182 194 226 143 _c
270 92 334 67 418 67 _c
460 67 499 74 537 90 _c
575 105 610 128 644 159 _c
644 56 _l
609 32 572 15 534 4 _c
496 -7 455 -13 412 -13 _c
302 -13 215 20 151 87 _c
}_e{87 154 56 246 56 364 _c
56 481 87 573 151 641 _c
215 708 302 742 412 742 _c
456 742 497 736 535 725 _c
573 713 610 696 644 673 _c
_cl}_e}_d
/D{770 0 98 0 711 729 _sc
197 648 _m
197 81 _l
316 81 _l
416 81 490 103 537 149 _c
583 195 607 267 607 365 _c
607 463 583 534 537 580 _c
490 625 416 648 316 648 _c
197 648 _l
98 729 _m
301 729 _l
442 729 546 699 612 641 _c
678 582 711 490 711 365 _c
711 239 677 147 611 88 _c
545 29 441 0 301 0 _c
98 0 _l
98 729 _l
_cl}_d
/E{632 0 98 0 568 729 _sc
98 729 _m
559 729 _l
559 646 _l
197 646 _l
197 430 _l
544 430 _l
544 347 _l
197 347 _l
197 83 _l
568 83 _l
568 0 _l
98 0 _l
98 729 _l
_cl}_d
/F{575 0 98 0 517 729 _sc
98 729 _m
517 729 _l
517 646 _l
197 646 _l
197 431 _l
486 431 _l
486 348 _l
197 348 _l
197 0 _l
98 0 _l
98 729 _l
_cl}_d
/I{295 0 98 0 197 729 _sc
98 729 _m
197 729 _l
197 0 _l
98 0 _l
98 729 _l
_cl}_d
/a{{613 0 60 -13 522 560 _sc
343 275 _m
270 275 220 266 192 250 _c
164 233 150 205 150 165 _c
150 133 160 107 181 89 _c
202 70 231 61 267 61 _c
317 61 357 78 387 114 _c
417 149 432 196 432 255 _c
432 275 _l
343 275 _l
522 312 _m
522 0 _l
432 0 _l
432 83 _l
411 49 385 25 355 10 _c
325 -5 287 -13 243 -13 _c
187 -13 142 2 109 33 _c
76 64 60 106 60 159 _c
}_e{60 220 80 266 122 298 _c
163 329 224 345 306 345 _c
432 345 _l
432 354 _l
432 395 418 427 391 450 _c
364 472 326 484 277 484 _c
245 484 215 480 185 472 _c
155 464 127 453 100 439 _c
100 522 _l
132 534 164 544 195 550 _c
226 556 256 560 286 560 _c
365 560 424 539 463 498 _c
502 457 522 395 522 312 _c
_cl}_e}_d
/c{{550 0 55 -13 488 560 _sc
488 526 _m
488 442 _l
462 456 437 466 411 473 _c
385 480 360 484 334 484 _c
276 484 230 465 198 428 _c
166 391 150 339 150 273 _c
150 206 166 154 198 117 _c
230 80 276 62 334 62 _c
360 62 385 65 411 72 _c
437 79 462 90 488 104 _c
488 21 _l
462 9 436 0 410 -5 _c
383 -10 354 -13 324 -13 _c
242 -13 176 12 128 64 _c
}_e{79 115 55 185 55 273 _c
55 362 79 432 128 483 _c
177 534 244 560 330 560 _c
358 560 385 557 411 551 _c
437 545 463 537 488 526 _c
_cl}_e}_d
/d{{635 0 55 -13 544 760 _sc
454 464 _m
454 760 _l
544 760 _l
544 0 _l
454 0 _l
454 82 _l
435 49 411 25 382 10 _c
353 -5 319 -13 279 -13 _c
213 -13 159 13 117 65 _c
75 117 55 187 55 273 _c
55 359 75 428 117 481 _c
159 533 213 560 279 560 _c
319 560 353 552 382 536 _c
411 520 435 496 454 464 _c
148 273 _m
148 207 161 155 188 117 _c
215 79 253 61 301 61 _c
}_e{348 61 385 79 413 117 _c
440 155 454 207 454 273 _c
454 339 440 390 413 428 _c
385 466 348 485 301 485 _c
253 485 215 466 188 428 _c
161 390 148 339 148 273 _c
_cl}_e}_d
/e{{615 0 55 -13 562 560 _sc
562 296 _m
562 252 _l
149 252 _l
153 190 171 142 205 110 _c
238 78 284 62 344 62 _c
378 62 412 66 444 74 _c
476 82 509 95 541 113 _c
541 28 _l
509 14 476 3 442 -3 _c
408 -9 373 -13 339 -13 _c
251 -13 182 12 131 62 _c
80 112 55 181 55 268 _c
55 357 79 428 127 481 _c
175 533 241 560 323 560 _c
397 560 455 536 498 489 _c
}_e{540 441 562 377 562 296 _c
472 322 _m
471 371 457 410 431 440 _c
404 469 368 484 324 484 _c
274 484 234 469 204 441 _c
174 413 156 373 152 322 _c
472 322 _l
_cl}_e}_d
/f{352 0 23 0 371 760 _sc
371 760 _m
371 685 _l
285 685 _l
253 685 230 678 218 665 _c
205 652 199 629 199 595 _c
199 547 _l
347 547 _l
347 477 _l
199 477 _l
199 0 _l
109 0 _l
109 477 _l
23 477 _l
23 547 _l
109 547 _l
109 585 _l
109 645 123 690 151 718 _c
179 746 224 760 286 760 _c
371 760 _l
_cl}_d
/g{{635 0 55 -207 544 560 _sc
454 280 _m
454 344 440 395 414 431 _c
387 467 349 485 301 485 _c
253 485 215 467 188 431 _c
161 395 148 344 148 280 _c
148 215 161 165 188 129 _c
215 93 253 75 301 75 _c
349 75 387 93 414 129 _c
440 165 454 215 454 280 _c
544 68 _m
544 -24 523 -93 482 -139 _c
440 -184 377 -207 292 -207 _c
260 -207 231 -204 203 -200 _c
175 -195 147 -188 121 -178 _c
}_e{121 -91 _l
147 -105 173 -115 199 -122 _c
225 -129 251 -133 278 -133 _c
336 -133 380 -117 410 -87 _c
439 -56 454 -10 454 52 _c
454 96 _l
435 64 411 40 382 24 _c
353 8 319 0 279 0 _c
211 0 157 25 116 76 _c
75 127 55 195 55 280 _c
55 364 75 432 116 483 _c
157 534 211 560 279 560 _c
319 560 353 552 382 536 _c
411 520 435 496 454 464 _c
454 547 _l
544 547 _l
}_e{544 68 _l
_cl}_e}_d
/i{278 0 94 0 184 760 _sc
94 547 _m
184 547 _l
184 0 _l
94 0 _l
94 547 _l
94 760 _m
184 760 _l
184 646 _l
94 646 _l
94 760 _l
_cl}_d
/k{579 0 91 0 576 760 _sc
91 760 _m
181 760 _l
181 311 _l
449 547 _l
564 547 _l
274 291 _l
576 0 _l
459 0 _l
181 267 _l
181 0 _l
91 0 _l
91 760 _l
_cl}_d
/n{634 0 91 0 549 560 _sc
549 330 _m
549 0 _l
459 0 _l
459 327 _l
459 379 448 417 428 443 _c
408 469 378 482 338 482 _c
289 482 251 466 223 435 _c
195 404 181 362 181 309 _c
181 0 _l
91 0 _l
91 547 _l
181 547 _l
181 462 _l
202 494 227 519 257 535 _c
286 551 320 560 358 560 _c
420 560 468 540 500 501 _c
532 462 549 405 549 330 _c
_cl}_d
/o{612 0 55 -13 557 560 _sc
306 484 _m
258 484 220 465 192 427 _c
164 389 150 338 150 273 _c
150 207 163 156 191 118 _c
219 80 257 62 306 62 _c
354 62 392 80 420 118 _c
448 156 462 207 462 273 _c
462 337 448 389 420 427 _c
392 465 354 484 306 484 _c
306 560 _m
384 560 445 534 490 484 _c
534 433 557 363 557 273 _c
557 183 534 113 490 63 _c
445 12 384 -13 306 -13 _c
227 -13 165 12 121 63 _c
77 113 55 183 55 273 _c
55 363 77 433 121 484 _c
165 534 227 560 306 560 _c
_cl}_d
/r{411 0 91 0 411 560 _sc
411 463 _m
401 469 390 473 378 476 _c
366 478 353 480 339 480 _c
288 480 249 463 222 430 _c
194 397 181 350 181 288 _c
181 0 _l
91 0 _l
91 547 _l
181 547 _l
181 462 _l
199 495 224 520 254 536 _c
284 552 321 560 365 560 _c
371 560 378 559 386 559 _c
393 558 401 557 411 555 _c
411 463 _l
_cl}_d
/s{{521 0 54 -13 472 560 _sc
443 531 _m
443 446 _l
417 458 391 468 364 475 _c
336 481 308 485 279 485 _c
234 485 200 478 178 464 _c
156 450 145 430 145 403 _c
145 382 153 366 169 354 _c
185 342 217 330 265 320 _c
296 313 _l
360 299 405 279 432 255 _c
458 230 472 195 472 151 _c
472 100 452 60 412 31 _c
372 1 316 -13 246 -13 _c
216 -13 186 -10 154 -5 _c
}_e{122 0 89 8 54 20 _c
54 113 _l
87 95 120 82 152 74 _c
184 65 216 61 248 61 _c
290 61 323 68 346 82 _c
368 96 380 117 380 144 _c
380 168 371 187 355 200 _c
339 213 303 226 247 238 _c
216 245 _l
160 257 119 275 95 299 _c
70 323 58 356 58 399 _c
58 450 76 490 112 518 _c
148 546 200 560 268 560 _c
301 560 332 557 362 552 _c
391 547 418 540 443 531 _c
}_e{_cl}_e}_d
/t{392 0 27 0 368 702 _sc
183 702 _m
183 547 _l
368 547 _l
368 477 _l
183 477 _l
183 180 _l
183 135 189 106 201 94 _c
213 81 238 75 276 75 _c
368 75 _l
368 0 _l
276 0 _l
206 0 158 13 132 39 _c
106 65 93 112 93 180 _c
93 477 _l
27 477 _l
27 547 _l
93 547 _l
93 702 _l
183 702 _l
_cl}_d
/v{592 0 30 0 562 547 _sc
30 547 _m
125 547 _l
296 88 _l
467 547 _l
562 547 _l
357 0 _l
235 0 _l
30 547 _l
_cl}_d
/w{818 0 42 0 776 547 _sc
42 547 _m
132 547 _l
244 120 _l
356 547 _l
462 547 _l
574 120 _l
686 547 _l
776 547 _l
633 0 _l
527 0 _l
409 448 _l
291 0 _l
185 0 _l
42 547 _l
_cl}_d
end readonly def

/BuildGlyph
 {exch begin
 CharStrings exch
 2 copy known not{pop /.notdef}if
 true 3 1 roll get exec
 end}_d

/BuildChar {
 1 index /Encoding get exch get
 1 index /BuildGlyph get exec
}_d

FontName currentdict end definefont pop
end
%%EndProlog
mpldict begin
46.186 183.415 translate
519.628 425.171 0 0 clipbox
100000 setmiterlimit
gsave
0 0 m
519.628125 0 l
519.628125 425.170625 l
0 425.170625 l
cl
1.000 setgray
fill
grestore
gsave
66.028125 39.45 m
512.428125 39.45 l
512.428125 385.05 l
66.028125 385.05 l
cl
1.000 setgray
fill
grestore
1.000 setlinewidth
1 setlinejoin
2 setlinecap
[] 0 setdash
0.000 0.000 1.000 setrgbcolor
gsave
446.4 345.6 66.03 39.45 clipbox
66.028125 666.126827 m
72.965901 426.170625 m
75.046307 292.362845 l
79.555398 292.362845 l
84.064489 284.37628 l
88.57358 284.37628 l
93.08267 266.91315 l
97.591761 266.91315 l
102.100852 202.6006 l
106.609943 202.6006 l
111.119034 193.086542 l
115.628125 193.086542 l
120.137216 182.723548 l
124.646307 182.723548 l
129.155398 182.723548 l
133.664489 182.723548 l
138.17358 168.484141 l
142.68267 168.484141 l
147.191761 157.45708 l
151.700852 157.45708 l
156.209943 157.45708 l
160.719034 157.45708 l
165.228125 157.45708 l
169.737216 157.45708 l
174.246307 157.45708 l
178.755398 157.45708 l
183.264489 157.45708 l
187.77358 157.45708 l
192.28267 157.45708 l
196.791761 157.45708 l
201.300852 157.45708 l
205.809943 157.45708 l
210.319034 157.45708 l
214.828125 157.45708 l
219.337216 157.45708 l
223.846307 157.45708 l
228.355398 157.45708 l
232.864489 157.45708 l
237.37358 157.45708 l
241.88267 157.45708 l
246.391761 157.45708 l
250.900852 157.45708 l
255.409943 131.891389 l
259.919034 131.891389 l
264.428125 131.891389 l
268.937216 131.891389 l
273.446307 131.891389 l
277.955398 131.891389 l
282.464489 131.891389 l
286.97358 131.891389 l
291.48267 125.246944 l
295.991761 125.246944 l
300.500852 125.246944 l
305.009943 125.246944 l
309.519034 125.246944 l
314.028125 125.246944 l
318.537216 125.246944 l
323.046307 125.246944 l
327.555398 125.246944 l
332.064489 125.246944 l
336.57358 125.246944 l
341.08267 125.246944 l
345.591761 125.246944 l
350.100852 125.246944 l
354.609943 125.246944 l
359.119034 125.246944 l
363.628125 125.246944 l
368.137216 125.246944 l
372.646307 125.246944 l
377.155398 125.246944 l
381.664489 125.246944 l
386.17358 125.246944 l
390.68267 125.246944 l
395.191761 125.246944 l
399.700852 125.246944 l
404.209943 125.246944 l
408.719034 125.246944 l
413.228125 125.246944 l
417.737216 125.246944 l
422.246307 125.246944 l
426.755398 117.315288 l
431.264489 117.315288 l
435.77358 104.035868 l
440.28267 104.035868 l
444.791761 104.035868 l
449.300852 104.035868 l
453.809943 104.035868 l
458.319034 104.035868 l
462.828125 104.035868 l
467.337216 104.035868 l
471.846307 104.035868 l
476.355398 104.035868 l
480.864489 104.035868 l
485.37358 104.035868 l
489.88267 100.825889 l
494.391761 100.825889 l
498.900852 100.825889 l
503.409943 100.825889 l
507.919034 100.825889 l
512.428125 100.825889 l
stroke
grestore
0.000 0.500 0.000 setrgbcolor
gsave
446.4 345.6 66.03 39.45 clipbox
66.028125 523.098496 m
67.498816 426.170625 m
70.537216 225.920858 l
75.046307 225.920858 l
79.555398 225.920858 l
84.064489 225.920858 l
88.57358 225.920858 l
93.08267 225.920858 l
97.591761 225.920858 l
102.100852 225.920858 l
106.609943 225.920858 l
111.119034 208.88278 l
115.628125 208.88278 l
120.137216 208.88278 l
124.646307 208.88278 l
129.155398 208.88278 l
133.664489 208.88278 l
138.17358 208.88278 l
142.68267 208.88278 l
147.191761 208.88278 l
151.700852 184.656842 l
156.209943 184.656842 l
160.719034 180.836835 l
165.228125 180.836835 l
169.737216 180.836835 l
174.246307 180.836835 l
178.755398 180.836835 l
183.264489 180.836835 l
187.77358 180.836835 l
192.28267 180.836835 l
196.791761 180.836835 l
201.300852 174.973478 l
205.809943 174.973478 l
210.319034 174.973478 l
214.828125 174.973478 l
219.337216 174.973478 l
223.846307 174.973478 l
228.355398 174.973478 l
232.864489 174.973478 l
237.37358 171.965171 l
241.88267 171.965171 l
246.391761 143.679165 l
250.900852 143.679165 l
255.409943 143.124761 l
259.919034 143.124761 l
264.428125 143.124761 l
268.937216 143.124761 l
273.446307 143.124761 l
277.955398 143.124761 l
282.464489 130.598277 l
286.97358 130.598277 l
291.48267 130.598277 l
295.991761 130.598277 l
300.500852 130.598277 l
305.009943 130.598277 l
309.519034 129.38795 l
314.028125 129.38795 l
318.537216 129.38795 l
323.046307 129.38795 l
327.555398 129.38795 l
332.064489 129.38795 l
336.57358 129.38795 l
341.08267 129.38795 l
345.591761 129.38795 l
350.100852 129.38795 l
354.609943 129.38795 l
359.119034 116.114728 l
363.628125 116.114728 l
368.137216 116.114728 l
372.646307 111.745897 l
377.155398 111.745897 l
381.664489 111.745897 l
386.17358 111.745897 l
390.68267 102.259024 l
395.191761 102.259024 l
399.700852 97.128302 l
404.209943 97.128302 l
408.719034 97.128302 l
413.228125 97.128302 l
417.737216 97.128302 l
422.246307 97.128302 l
426.755398 97.128302 l
431.264489 97.128302 l
435.77358 97.128302 l
440.28267 97.128302 l
444.791761 97.128302 l
449.300852 97.128302 l
453.809943 97.128302 l
458.319034 97.128302 l
462.828125 97.128302 l
467.337216 97.128302 l
471.846307 97.128302 l
476.355398 97.128302 l
480.864489 97.128302 l
485.37358 97.128302 l
489.88267 97.128302 l
494.391761 97.128302 l
498.900852 97.128302 l
503.409943 97.128302 l
507.919034 97.128302 l
512.428125 97.128302 l
stroke
grestore
1.000 0.000 0.000 setrgbcolor
gsave
446.4 345.6 66.03 39.45 clipbox
66.028125 689.762067 m
74.398863 426.170625 m
75.046307 381.976899 l
79.555398 371.336413 l
84.064489 343.379894 l
88.57358 341.201832 l
93.08267 341.201832 l
97.591761 278.005411 l
102.100852 278.005411 l
106.609943 278.005411 l
111.119034 278.005411 l
115.628125 266.335179 l
120.137216 266.335179 l
124.646307 221.297673 l
129.155398 190.078877 l
133.664489 190.078877 l
138.17358 182.637262 l
142.68267 182.637262 l
147.191761 182.637262 l
151.700852 182.637262 l
156.209943 182.637262 l
160.719034 182.637262 l
165.228125 182.637262 l
169.737216 182.637262 l
174.246307 182.637262 l
178.755398 161.59129 l
183.264489 161.59129 l
187.77358 161.59129 l
192.28267 161.59129 l
196.791761 161.59129 l
201.300852 161.59129 l
205.809943 161.59129 l
210.319034 161.59129 l
214.828125 161.59129 l
219.337216 161.59129 l
223.846307 161.59129 l
228.355398 161.59129 l
232.864489 161.59129 l
237.37358 161.59129 l
241.88267 161.59129 l
246.391761 161.59129 l
250.900852 161.59129 l
255.409943 161.59129 l
259.919034 161.59129 l
264.428125 161.59129 l
268.937216 161.59129 l
273.446307 161.59129 l
277.955398 129.346573 l
282.464489 129.346573 l
286.97358 129.346573 l
291.48267 129.346573 l
295.991761 129.346573 l
300.500852 129.346573 l
305.009943 129.346573 l
309.519034 129.346573 l
314.028125 129.346573 l
318.537216 129.346573 l
323.046307 129.346573 l
327.555398 129.346573 l
332.064489 129.346573 l
336.57358 129.346573 l
341.08267 129.346573 l
345.591761 129.346573 l
350.100852 129.346573 l
354.609943 129.346573 l
359.119034 129.346573 l
363.628125 129.346573 l
368.137216 129.346573 l
372.646307 129.346573 l
377.155398 129.346573 l
381.664489 129.346573 l
386.17358 129.346573 l
390.68267 129.346573 l
395.191761 129.346573 l
399.700852 129.346573 l
404.209943 129.346573 l
408.719034 129.346573 l
413.228125 129.346573 l
417.737216 129.346573 l
422.246307 129.346573 l
426.755398 129.346573 l
431.264489 125.783629 l
435.77358 125.783629 l
440.28267 125.783629 l
444.791761 125.783629 l
449.300852 125.783629 l
453.809943 125.783629 l
458.319034 125.783629 l
462.828125 125.783629 l
467.337216 125.783629 l
471.846307 125.783629 l
476.355398 125.783629 l
480.864489 125.783629 l
485.37358 120.28565 l
489.88267 120.28565 l
494.391761 114.250547 l
498.900852 114.250547 l
503.409943 114.250547 l
507.919034 114.250547 l
512.428125 114.250547 l
stroke
grestore
0.000 0.750 0.750 setrgbcolor
gsave
446.4 345.6 66.03 39.45 clipbox
66.028125 302.386723 m
70.537216 271.820435 l
75.046307 271.820435 l
79.555398 271.820435 l
84.064489 271.820435 l
88.57358 271.820435 l
93.08267 271.820435 l
97.591761 271.820435 l
102.100852 242.275585 l
106.609943 242.275585 l
111.119034 242.275585 l
115.628125 235.039507 l
120.137216 235.039507 l
124.646307 184.723313 l
129.155398 184.723313 l
133.664489 184.723313 l
138.17358 184.723313 l
142.68267 184.723313 l
147.191761 184.723313 l
151.700852 184.723313 l
156.209943 184.723313 l
160.719034 184.723313 l
165.228125 184.723313 l
169.737216 184.107645 l
174.246307 184.107645 l
178.755398 184.107645 l
183.264489 184.107645 l
187.77358 184.107645 l
192.28267 184.107645 l
196.791761 184.107645 l
201.300852 184.107645 l
205.809943 184.107645 l
210.319034 184.107645 l
214.828125 181.523982 l
219.337216 181.523982 l
223.846307 156.119597 l
228.355398 156.119597 l
232.864489 156.119597 l
237.37358 156.119597 l
241.88267 156.119597 l
246.391761 156.119597 l
250.900852 156.119597 l
255.409943 156.119597 l
259.919034 156.119597 l
264.428125 156.119597 l
268.937216 154.618802 l
273.446307 154.618802 l
277.955398 150.825303 l
282.464489 150.825303 l
286.97358 150.825303 l
291.48267 150.825303 l
295.991761 150.825303 l
300.500852 149.860408 l
305.009943 149.860408 l
309.519034 149.860408 l
314.028125 146.129734 l
318.537216 146.129734 l
323.046307 146.129734 l
327.555398 146.129734 l
332.064489 146.129734 l
336.57358 137.278374 l
341.08267 137.278374 l
345.591761 137.278374 l
350.100852 137.278374 l
354.609943 125.447782 l
359.119034 125.447782 l
363.628125 125.447782 l
368.137216 119.551536 l
372.646307 119.551536 l
377.155398 119.551536 l
381.664489 119.551536 l
386.17358 119.551536 l
390.68267 119.551536 l
395.191761 119.551536 l
399.700852 119.551536 l
404.209943 119.551536 l
408.719034 119.551536 l
413.228125 119.551536 l
417.737216 119.551536 l
422.246307 119.551536 l
426.755398 119.551536 l
431.264489 119.551536 l
435.77358 119.551536 l
440.28267 119.551536 l
444.791761 119.551536 l
449.300852 119.551536 l
453.809943 118.327351 l
458.319034 118.327351 l
462.828125 118.327351 l
467.337216 118.327351 l
471.846307 118.327351 l
476.355398 118.327351 l
480.864489 118.327351 l
485.37358 118.327351 l
489.88267 107.371905 l
494.391761 107.371905 l
498.900852 107.371905 l
503.409943 107.371905 l
507.919034 107.371905 l
512.428125 107.371905 l
stroke
grestore
0.750 0.000 0.750 setrgbcolor
gsave
446.4 345.6 66.03 39.45 clipbox
66.028125 367.733825 m
70.537216 367.733825 l
75.046307 329.073937 l
79.555398 234.583591 l
84.064489 234.583591 l
88.57358 234.583591 l
93.08267 234.583591 l
97.591761 234.583591 l
102.100852 234.583591 l
106.609943 196.598329 l
111.119034 196.598329 l
115.628125 196.598329 l
120.137216 196.598329 l
124.646307 196.598329 l
129.155398 196.598329 l
133.664489 192.844271 l
138.17358 192.844271 l
142.68267 157.140026 l
147.191761 157.140026 l
151.700852 157.140026 l
156.209943 157.140026 l
160.719034 157.140026 l
165.228125 157.140026 l
169.737216 157.140026 l
174.246307 157.140026 l
178.755398 157.140026 l
183.264489 157.140026 l
187.77358 157.140026 l
192.28267 157.140026 l
196.791761 155.883428 l
201.300852 155.883428 l
205.809943 155.883428 l
210.319034 155.883428 l
214.828125 155.883428 l
219.337216 141.336166 l
223.846307 141.336166 l
228.355398 141.336166 l
232.864489 141.336166 l
237.37358 141.336166 l
241.88267 141.336166 l
246.391761 141.336166 l
250.900852 134.422862 l
255.409943 134.422862 l
259.919034 134.422862 l
264.428125 134.422862 l
268.937216 134.422862 l
273.446307 134.422862 l
277.955398 134.422862 l
282.464489 134.422862 l
286.97358 134.422862 l
291.48267 134.422862 l
295.991761 134.422862 l
300.500852 134.422862 l
305.009943 134.422862 l
309.519034 129.311959 l
314.028125 129.311959 l
318.537216 129.311959 l
323.046307 129.311959 l
327.555398 129.311959 l
332.064489 129.311959 l
336.57358 129.311959 l
341.08267 127.40145 l
345.591761 127.40145 l
350.100852 127.40145 l
354.609943 127.40145 l
359.119034 127.40145 l
363.628125 127.40145 l
368.137216 127.40145 l
372.646307 127.40145 l
377.155398 127.40145 l
381.664489 127.40145 l
386.17358 127.40145 l
390.68267 127.40145 l
395.191761 125.590119 l
399.700852 125.590119 l
404.209943 125.590119 l
408.719034 125.590119 l
413.228125 125.590119 l
417.737216 125.045094 l
422.246307 125.045094 l
426.755398 125.045094 l
431.264489 125.045094 l
435.77358 96.514641 l
440.28267 96.514641 l
444.791761 96.514641 l
449.300852 96.514641 l
453.809943 96.514641 l
458.319034 96.514641 l
462.828125 96.514641 l
467.337216 96.514641 l
471.846307 96.514641 l
476.355398 96.514641 l
480.864489 96.514641 l
485.37358 96.514641 l
489.88267 96.514641 l
494.391761 96.514641 l
498.900852 96.514641 l
503.409943 96.514641 l
507.919034 96.514641 l
512.428125 96.514641 l
stroke
grestore
0.750 0.750 0.000 setrgbcolor
gsave
446.4 345.6 66.03 39.45 clipbox
66.028125 387.337345 m
70.537216 387.337345 l
75.046307 379.042974 l
79.555398 379.042974 l
84.064489 363.798879 l
88.57358 363.798879 l
93.08267 363.798879 l
97.591761 245.410618 l
102.100852 245.410618 l
106.609943 171.092269 l
111.119034 171.092269 l
115.628125 171.092269 l
120.137216 171.092269 l
124.646307 171.092269 l
129.155398 171.092269 l
133.664489 171.092269 l
138.17358 171.092269 l
142.68267 171.092269 l
147.191761 171.092269 l
151.700852 168.778061 l
156.209943 168.778061 l
160.719034 168.778061 l
165.228125 168.778061 l
169.737216 168.778061 l
174.246307 154.047924 l
178.755398 154.047924 l
183.264489 154.047924 l
187.77358 147.395726 l
192.28267 147.395726 l
196.791761 147.395726 l
201.300852 147.395726 l
205.809943 147.395726 l
210.319034 147.395726 l
214.828125 135.587858 l
219.337216 135.587858 l
223.846307 135.587858 l
228.355398 135.587858 l
232.864489 135.587858 l
237.37358 135.587858 l
241.88267 135.587858 l
246.391761 135.587858 l
250.900852 135.587858 l
255.409943 135.587858 l
259.919034 135.587858 l
264.428125 135.587858 l
268.937216 135.587858 l
273.446307 135.587858 l
277.955398 135.587858 l
282.464489 135.587858 l
286.97358 135.406553 l
291.48267 135.406553 l
295.991761 135.406553 l
300.500852 135.406553 l
305.009943 135.406553 l
309.519034 135.406553 l
314.028125 135.406553 l
318.537216 127.887204 l
323.046307 127.887204 l
327.555398 127.887204 l
332.064489 127.887204 l
336.57358 127.887204 l
341.08267 127.887204 l
345.591761 127.887204 l
350.100852 127.887204 l
354.609943 127.887204 l
359.119034 113.796033 l
363.628125 113.796033 l
368.137216 113.796033 l
372.646307 113.796033 l
377.155398 113.796033 l
381.664489 113.796033 l
386.17358 113.796033 l
390.68267 113.796033 l
395.191761 113.796033 l
399.700852 113.796033 l
404.209943 113.796033 l
408.719034 113.796033 l
413.228125 113.796033 l
417.737216 113.796033 l
422.246307 113.796033 l
426.755398 113.796033 l
431.264489 113.796033 l
435.77358 113.796033 l
440.28267 113.796033 l
444.791761 113.796033 l
449.300852 113.796033 l
453.809943 113.796033 l
458.319034 113.796033 l
462.828125 113.796033 l
467.337216 113.796033 l
471.846307 113.796033 l
476.355398 113.796033 l
480.864489 113.796033 l
485.37358 113.796033 l
489.88267 113.796033 l
494.391761 113.796033 l
498.900852 113.796033 l
503.409943 113.796033 l
507.919034 113.796033 l
512.428125 105.960969 l
stroke
grestore
0.000 setgray
gsave
446.4 345.6 66.03 39.45 clipbox
66.028125 523.098496 m
67.498816 426.170625 m
70.537216 225.920858 l
75.046307 225.920858 l
79.555398 225.920858 l
84.064489 225.920858 l
88.57358 225.920858 l
93.08267 225.920858 l
97.591761 225.920858 l
102.100852 225.920858 l
106.609943 225.920858 l
111.119034 208.88278 l
115.628125 208.88278 l
120.137216 208.88278 l
124.646307 208.88278 l
129.155398 208.88278 l
133.664489 208.88278 l
138.17358 208.88278 l
142.68267 208.88278 l
147.191761 208.88278 l
151.700852 184.656842 l
156.209943 184.656842 l
160.719034 180.836835 l
165.228125 180.836835 l
169.737216 180.836835 l
174.246307 180.836835 l
178.755398 180.836835 l
183.264489 180.836835 l
187.77358 180.836835 l
192.28267 180.836835 l
196.791761 180.836835 l
201.300852 174.973478 l
205.809943 174.973478 l
210.319034 174.973478 l
214.828125 174.973478 l
219.337216 174.973478 l
223.846307 174.973478 l
228.355398 174.973478 l
232.864489 174.973478 l
237.37358 171.965171 l
241.88267 171.965171 l
246.391761 143.679165 l
250.900852 143.679165 l
255.409943 143.124761 l
259.919034 143.124761 l
264.428125 143.124761 l
268.937216 143.124761 l
273.446307 143.124761 l
277.955398 143.124761 l
282.464489 130.598277 l
286.97358 130.598277 l
291.48267 130.598277 l
295.991761 130.598277 l
300.500852 130.598277 l
305.009943 130.598277 l
309.519034 129.38795 l
314.028125 129.38795 l
318.537216 129.38795 l
323.046307 129.38795 l
327.555398 129.38795 l
332.064489 129.38795 l
336.57358 129.38795 l
341.08267 129.38795 l
345.591761 129.38795 l
350.100852 129.38795 l
354.609943 129.38795 l
359.119034 116.114728 l
363.628125 116.114728 l
368.137216 116.114728 l
372.646307 111.745897 l
377.155398 111.745897 l
381.664489 111.745897 l
386.17358 111.745897 l
390.68267 102.259024 l
395.191761 102.259024 l
399.700852 97.128302 l
404.209943 97.128302 l
408.719034 97.128302 l
413.228125 97.128302 l
417.737216 97.128302 l
422.246307 97.128302 l
426.755398 97.128302 l
431.264489 97.128302 l
435.77358 97.128302 l
440.28267 97.128302 l
444.791761 97.128302 l
449.300852 97.128302 l
453.809943 97.128302 l
458.319034 97.128302 l
462.828125 97.128302 l
467.337216 97.128302 l
471.846307 97.128302 l
476.355398 97.128302 l
480.864489 97.128302 l
485.37358 97.128302 l
489.88267 97.128302 l
494.391761 97.128302 l
498.900852 97.128302 l
503.409943 97.128302 l
507.919034 97.128302 l
512.428125 97.128302 l
stroke
grestore
0.000 0.000 1.000 setrgbcolor
gsave
446.4 345.6 66.03 39.45 clipbox
66.028125 485.406058 m
72.35341 426.170625 m
75.046307 338.341389 l
79.555398 311.307697 l
84.064489 311.307697 l
88.57358 300.379863 l
93.08267 217.852227 l
97.591761 217.852227 l
102.100852 217.852227 l
106.609943 217.852227 l
111.119034 217.852227 l
115.628125 217.852227 l
120.137216 214.102828 l
124.646307 214.102828 l
129.155398 214.102828 l
133.664489 214.102828 l
138.17358 199.661048 l
142.68267 178.576006 l
147.191761 178.576006 l
151.700852 178.576006 l
156.209943 178.576006 l
160.719034 178.576006 l
165.228125 178.576006 l
169.737216 178.576006 l
174.246307 178.576006 l
178.755398 178.576006 l
183.264489 178.576006 l
187.77358 178.576006 l
192.28267 178.576006 l
196.791761 171.322662 l
201.300852 171.322662 l
205.809943 170.790113 l
210.319034 170.790113 l
214.828125 170.790113 l
219.337216 170.790113 l
223.846307 170.790113 l
228.355398 170.790113 l
232.864489 170.790113 l
237.37358 170.790113 l
241.88267 170.790113 l
246.391761 170.790113 l
250.900852 164.853706 l
255.409943 159.458554 l
259.919034 159.458554 l
264.428125 159.458554 l
268.937216 159.458554 l
273.446307 159.458554 l
277.955398 151.019232 l
282.464489 151.019232 l
286.97358 130.684384 l
291.48267 130.684384 l
295.991761 129.955197 l
300.500852 129.955197 l
305.009943 129.955197 l
309.519034 129.955197 l
314.028125 129.955197 l
318.537216 129.955197 l
323.046307 129.955197 l
327.555398 129.955197 l
332.064489 129.955197 l
336.57358 129.955197 l
341.08267 129.955197 l
345.591761 129.955197 l
350.100852 129.955197 l
354.609943 129.955197 l
359.119034 129.955197 l
363.628125 129.955197 l
368.137216 129.955197 l
372.646307 129.955197 l
377.155398 129.955197 l
381.664489 110.722041 l
386.17358 110.722041 l
390.68267 110.722041 l
395.191761 110.722041 l
399.700852 110.722041 l
404.209943 110.722041 l
408.719034 110.722041 l
413.228125 110.722041 l
417.737216 110.722041 l
422.246307 110.722041 l
426.755398 110.722041 l
431.264489 110.722041 l
435.77358 109.24103 l
440.28267 109.24103 l
444.791761 109.24103 l
449.300852 107.082632 l
453.809943 107.082632 l
458.319034 107.082632 l
462.828125 107.082632 l
467.337216 107.082632 l
471.846307 107.082632 l
476.355398 107.082632 l
480.864489 107.082632 l
485.37358 107.082632 l
489.88267 107.082632 l
494.391761 107.082632 l
498.900852 107.082632 l
503.409943 107.082632 l
507.919034 107.082632 l
512.428125 107.082632 l
stroke
grestore
0.000 0.500 0.000 setrgbcolor
gsave
446.4 345.6 66.03 39.45 clipbox
66.028125 253.972179 m
70.537216 253.972179 l
75.046307 253.972179 l
79.555398 253.972179 l
84.064489 228.54344 l
88.57358 202.862747 l
93.08267 202.862747 l
97.591761 202.862747 l
102.100852 202.862747 l
106.609943 202.862747 l
111.119034 202.862747 l
115.628125 202.862747 l
120.137216 202.862747 l
124.646307 202.862747 l
129.155398 202.862747 l
133.664489 202.862747 l
138.17358 195.835735 l
142.68267 195.835735 l
147.191761 193.544323 l
151.700852 193.544323 l
156.209943 183.423553 l
160.719034 183.423553 l
165.228125 178.732908 l
169.737216 178.732908 l
174.246307 178.732908 l
178.755398 170.575621 l
183.264489 170.575621 l
187.77358 170.575621 l
192.28267 170.575621 l
196.791761 170.575621 l
201.300852 170.575621 l
205.809943 170.575621 l
210.319034 170.575621 l
214.828125 170.528059 l
219.337216 161.759366 l
223.846307 161.759366 l
228.355398 161.759366 l
232.864489 161.759366 l
237.37358 161.759366 l
241.88267 153.57085 l
246.391761 153.57085 l
250.900852 153.57085 l
255.409943 153.57085 l
259.919034 153.57085 l
264.428125 153.57085 l
268.937216 153.57085 l
273.446307 153.57085 l
277.955398 139.373201 l
282.464489 139.373201 l
286.97358 139.373201 l
291.48267 139.373201 l
295.991761 139.373201 l
300.500852 125.576167 l
305.009943 123.025528 l
309.519034 123.025528 l
314.028125 123.025528 l
318.537216 123.025528 l
323.046307 123.025528 l
327.555398 123.025528 l
332.064489 123.025528 l
336.57358 123.025528 l
341.08267 123.014425 l
345.591761 123.014425 l
350.100852 123.014425 l
354.609943 123.014425 l
359.119034 123.014425 l
363.628125 123.014425 l
368.137216 123.014425 l
372.646307 116.377155 l
377.155398 116.377155 l
381.664489 116.377155 l
386.17358 116.377155 l
390.68267 116.377155 l
395.191761 116.377155 l
399.700852 114.884498 l
404.209943 114.884498 l
408.719034 114.884498 l
413.228125 114.884498 l
417.737216 114.884498 l
422.246307 114.884498 l
426.755398 114.884498 l
431.264489 114.884498 l
435.77358 114.884498 l
440.28267 114.884498 l
444.791761 114.884498 l
449.300852 114.884498 l
453.809943 114.884498 l
458.319034 114.884498 l
462.828125 114.884498 l
467.337216 104.180177 l
471.846307 104.180177 l
476.355398 104.180177 l
480.864489 104.180177 l
485.37358 104.180177 l
489.88267 104.180177 l
494.391761 104.180177 l
498.900852 104.180177 l
503.409943 102.387511 l
507.919034 102.387511 l
512.428125 102.387511 l
stroke
grestore
1.000 0.000 0.000 setrgbcolor
gsave
446.4 345.6 66.03 39.45 clipbox
66.028125 389.749827 m
70.537216 389.749827 l
75.046307 346.08926 l
79.555398 321.894756 l
84.064489 321.894756 l
88.57358 292.735199 l
93.08267 273.242756 l
97.591761 273.242756 l
102.100852 273.242756 l
106.609943 273.242756 l
111.119034 273.242756 l
115.628125 250.684849 l
120.137216 250.684849 l
124.646307 250.684849 l
129.155398 250.684849 l
133.664489 204.075853 l
138.17358 204.075853 l
142.68267 204.075853 l
147.191761 204.075853 l
151.700852 154.809719 l
156.209943 134.706877 l
160.719034 134.706877 l
165.228125 134.706877 l
169.737216 134.706877 l
174.246307 134.706877 l
178.755398 134.706877 l
183.264489 134.706877 l
187.77358 134.706877 l
192.28267 134.706877 l
196.791761 134.706877 l
201.300852 134.706877 l
205.809943 134.706877 l
210.319034 134.706877 l
214.828125 134.706877 l
219.337216 134.706877 l
223.846307 134.706877 l
228.355398 134.706877 l
232.864489 134.706877 l
237.37358 134.706877 l
241.88267 134.706877 l
246.391761 134.706877 l
250.900852 133.779425 l
255.409943 133.779425 l
259.919034 133.779425 l
264.428125 133.779425 l
268.937216 133.779425 l
273.446307 133.779425 l
277.955398 133.779425 l
282.464489 133.779425 l
286.97358 133.779425 l
291.48267 133.779425 l
295.991761 133.779425 l
300.500852 133.779425 l
305.009943 133.779425 l
309.519034 133.779425 l
314.028125 133.779425 l
318.537216 133.779425 l
323.046307 133.779425 l
327.555398 133.779425 l
332.064489 133.779425 l
336.57358 133.779425 l
341.08267 133.779425 l
345.591761 133.779425 l
350.100852 133.779425 l
354.609943 133.779425 l
359.119034 133.779425 l
363.628125 126.497768 l
368.137216 126.497768 l
372.646307 126.497768 l
377.155398 126.497768 l
381.664489 126.497768 l
386.17358 126.497768 l
390.68267 126.497768 l
395.191761 126.497768 l
399.700852 126.497768 l
404.209943 126.497768 l
408.719034 126.497768 l
413.228125 126.497768 l
417.737216 122.30863 l
422.246307 122.30863 l
426.755398 122.30863 l
431.264489 122.30863 l
435.77358 122.30863 l
440.28267 122.30863 l
444.791761 122.30863 l
449.300852 119.839715 l
453.809943 116.163371 l
458.319034 116.163371 l
462.828125 116.163371 l
467.337216 116.163371 l
471.846307 116.163371 l
476.355398 116.163371 l
480.864489 116.163371 l
485.37358 116.163371 l
489.88267 116.163371 l
494.391761 116.163371 l
498.900852 112.609445 l
503.409943 112.609445 l
507.919034 112.609445 l
512.428125 112.609445 l
stroke
grestore
0 setlinecap
[6 6] 0 setdash
gsave
446.4 345.6 66.03 39.45 clipbox
66.028125 96.514641 m
512.428125 96.514641 l
stroke
grestore
0 setlinejoin
2 setlinecap
[] 0 setdash
0.000 setgray
gsave
66.028125 385.05 m
512.428125 385.05 l
stroke
grestore
gsave
512.428125 39.45 m
512.428125 385.05 l
stroke
grestore
gsave
66.028125 39.45 m
512.428125 39.45 l
stroke
grestore
gsave
66.028125 39.45 m
66.028125 385.05 l
stroke
grestore
0.500 setlinewidth
1 setlinejoin
0 setlinecap
gsave
/o {
gsave
newpath
translate
0.5 setlinewidth
1 setlinejoin
0 setlinecap
0 0 m
0 4 l

gsave
0.000 setgray
fill
grestore
stroke
grestore
} bind def
66.0281 39.45 o
grestore
gsave
/o {
gsave
newpath
translate
0.5 setlinewidth
1 setlinejoin
0 setlinecap
0 0 m
0 -4 l

gsave
0.000 setgray
fill
grestore
stroke
grestore
} bind def
66.0281 385.05 o
grestore
/BitstreamVeraSans-Roman findfont
12.000 scalefont
setfont
gsave
62.207813 26.325000 translate
0.000000 rotate
0.000000 0.000000 m /zero glyphshow
grestore
gsave
/o {
gsave
newpath
translate
0.5 setlinewidth
1 setlinejoin
0 setlinecap
0 0 m
0 4 l

gsave
0.000 setgray
fill
grestore
stroke
grestore
} bind def
156.21 39.45 o
grestore
gsave
/o {
gsave
newpath
translate
0.5 setlinewidth
1 setlinejoin
0 setlinecap
0 0 m
0 -4 l

gsave
0.000 setgray
fill
grestore
stroke
grestore
} bind def
156.21 385.05 o
grestore
gsave
148.569318 26.325000 translate
0.000000 rotate
0.000000 0.000000 m /two glyphshow
7.634766 0.000000 m /zero glyphshow
grestore
gsave
/o {
gsave
newpath
translate
0.5 setlinewidth
1 setlinejoin
0 setlinecap
0 0 m
0 4 l

gsave
0.000 setgray
fill
grestore
stroke
grestore
} bind def
246.392 39.45 o
grestore
gsave
/o {
gsave
newpath
translate
0.5 setlinewidth
1 setlinejoin
0 setlinecap
0 0 m
0 -4 l

gsave
0.000 setgray
fill
grestore
stroke
grestore
} bind def
246.392 385.05 o
grestore
gsave
238.751136 26.325000 translate
0.000000 rotate
0.000000 0.000000 m /four glyphshow
7.634766 0.000000 m /zero glyphshow
grestore
gsave
/o {
gsave
newpath
translate
0.5 setlinewidth
1 setlinejoin
0 setlinecap
0 0 m
0 4 l

gsave
0.000 setgray
fill
grestore
stroke
grestore
} bind def
336.574 39.45 o
grestore
gsave
/o {
gsave
newpath
translate
0.5 setlinewidth
1 setlinejoin
0 setlinecap
0 0 m
0 -4 l

gsave
0.000 setgray
fill
grestore
stroke
grestore
} bind def
336.574 385.05 o
grestore
gsave
328.932955 26.325000 translate
0.000000 rotate
0.000000 0.000000 m /six glyphshow
7.634766 0.000000 m /zero glyphshow
grestore
gsave
/o {
gsave
newpath
translate
0.5 setlinewidth
1 setlinejoin
0 setlinecap
0 0 m
0 4 l

gsave
0.000 setgray
fill
grestore
stroke
grestore
} bind def
426.755 39.45 o
grestore
gsave
/o {
gsave
newpath
translate
0.5 setlinewidth
1 setlinejoin
0 setlinecap
0 0 m
0 -4 l

gsave
0.000 setgray
fill
grestore
stroke
grestore
} bind def
426.755 385.05 o
grestore
gsave
419.114773 26.325000 translate
0.000000 rotate
0.000000 0.000000 m /eight glyphshow
7.634766 0.000000 m /zero glyphshow
grestore
gsave
263.767188 9.700000 translate
0.000000 rotate
0.000000 0.000000 m /I glyphshow
3.539062 0.000000 m /t glyphshow
8.244141 0.000000 m /e glyphshow
15.626953 0.000000 m /r glyphshow
20.560547 0.000000 m /a glyphshow
27.914062 0.000000 m /t glyphshow
32.619141 0.000000 m /i glyphshow
35.953125 0.000000 m /o glyphshow
43.294922 0.000000 m /n glyphshow
grestore
gsave
/o {
gsave
newpath
translate
0.5 setlinewidth
1 setlinejoin
0 setlinecap
0 0 m
4 0 l

gsave
0.000 setgray
fill
grestore
stroke
grestore
} bind def
66.0281 102.928 o
grestore
gsave
/o {
gsave
newpath
translate
0.5 setlinewidth
1 setlinejoin
0 setlinecap
0 0 m
-4 0 l

gsave
0.000 setgray
fill
grestore
stroke
grestore
} bind def
512.428 102.928 o
grestore
gsave
23.825000 99.615051 translate
0.000000 rotate
0.000000 0.000000 m /one glyphshow
7.634766 0.000000 m /zero glyphshow
15.269531 0.000000 m /zero glyphshow
22.904297 0.000000 m /zero glyphshow
30.539062 0.000000 m /zero glyphshow
grestore
gsave
/o {
gsave
newpath
translate
0.5 setlinewidth
1 setlinejoin
0 setlinecap
0 0 m
4 0 l

gsave
0.000 setgray
fill
grestore
stroke
grestore
} bind def
66.0281 173.458 o
grestore
gsave
/o {
gsave
newpath
translate
0.5 setlinewidth
1 setlinejoin
0 setlinecap
0 0 m
-4 0 l

gsave
0.000 setgray
fill
grestore
stroke
grestore
} bind def
512.428 173.458 o
grestore
gsave
23.825000 170.145663 translate
0.000000 rotate
0.000000 0.000000 m /two glyphshow
7.634766 0.000000 m /zero glyphshow
15.269531 0.000000 m /zero glyphshow
22.904297 0.000000 m /zero glyphshow
30.539062 0.000000 m /zero glyphshow
grestore
gsave
/o {
gsave
newpath
translate
0.5 setlinewidth
1 setlinejoin
0 setlinecap
0 0 m
4 0 l

gsave
0.000 setgray
fill
grestore
stroke
grestore
} bind def
66.0281 243.989 o
grestore
gsave
/o {
gsave
newpath
translate
0.5 setlinewidth
1 setlinejoin
0 setlinecap
0 0 m
-4 0 l

gsave
0.000 setgray
fill
grestore
stroke
grestore
} bind def
512.428 243.989 o
grestore
gsave
23.825000 240.676276 translate
0.000000 rotate
0.000000 0.000000 m /three glyphshow
7.634766 0.000000 m /zero glyphshow
15.269531 0.000000 m /zero glyphshow
22.904297 0.000000 m /zero glyphshow
30.539062 0.000000 m /zero glyphshow
grestore
gsave
/o {
gsave
newpath
translate
0.5 setlinewidth
1 setlinejoin
0 setlinecap
0 0 m
4 0 l

gsave
0.000 setgray
fill
grestore
stroke
grestore
} bind def
66.0281 314.519 o
grestore
gsave
/o {
gsave
newpath
translate
0.5 setlinewidth
1 setlinejoin
0 setlinecap
0 0 m
-4 0 l

gsave
0.000 setgray
fill
grestore
stroke
grestore
} bind def
512.428 314.519 o
grestore
gsave
23.825000 311.206888 translate
0.000000 rotate
0.000000 0.000000 m /four glyphshow
7.634766 0.000000 m /zero glyphshow
15.269531 0.000000 m /zero glyphshow
22.904297 0.000000 m /zero glyphshow
30.539062 0.000000 m /zero glyphshow
grestore
gsave
/o {
gsave
newpath
translate
0.5 setlinewidth
1 setlinejoin
0 setlinecap
0 0 m
4 0 l

gsave
0.000 setgray
fill
grestore
stroke
grestore
} bind def
66.0281 385.05 o
grestore
gsave
/o {
gsave
newpath
translate
0.5 setlinewidth
1 setlinejoin
0 setlinecap
0 0 m
-4 0 l

gsave
0.000 setgray
fill
grestore
stroke
grestore
} bind def
512.428 385.05 o
grestore
gsave
23.825000 381.737500 translate
0.000000 rotate
0.000000 0.000000 m /five glyphshow
7.634766 0.000000 m /zero glyphshow
15.269531 0.000000 m /zero glyphshow
22.904297 0.000000 m /zero glyphshow
30.539062 0.000000 m /zero glyphshow
grestore
gsave
16.325000 191.031250 translate
90.000000 rotate
0.000000 0.000000 m /F glyphshow
6.902344 0.000000 m /i glyphshow
10.236328 0.000000 m /t glyphshow
14.941406 0.000000 m /n glyphshow
22.546875 0.000000 m /e glyphshow
29.929688 0.000000 m /s glyphshow
36.181641 0.000000 m /s glyphshow
grestore
gsave
70.537216 96.479375 translate
0.000000 rotate
0.000000 0.000000 m /nine glyphshow
7.634766 0.000000 m /zero glyphshow
15.269531 0.000000 m /nine glyphshow
22.904297 0.000000 m /zero glyphshow
30.539062 0.000000 m /period glyphshow
34.353516 0.000000 m /seven glyphshow
41.988281 0.000000 m /six glyphshow
grestore
/BitstreamVeraSans-Roman findfont
14.400 scalefont
setfont
gsave
120.946875 407.330000 translate
0.000000 rotate
0.000000 0.000000 m /C glyphshow
10.037231 0.000000 m /o glyphshow
18.832092 0.000000 m /n glyphshow
27.942810 0.000000 m /v glyphshow
36.449890 0.000000 m /e glyphshow
45.293884 0.000000 m /r glyphshow
51.203918 0.000000 m /g glyphshow
60.328674 0.000000 m /e glyphshow
69.172668 0.000000 m /n glyphshow
78.283386 0.000000 m /c glyphshow
86.186829 0.000000 m /e glyphshow
95.030823 0.000000 m /space glyphshow
99.600220 0.000000 m /f glyphshow
104.660950 0.000000 m /o glyphshow
113.455811 0.000000 m /r glyphshow
119.365845 0.000000 m /space glyphshow
123.935242 0.000000 m /D glyphshow
135.004272 0.000000 m /E glyphshow
144.086914 0.000000 m /comma glyphshow
148.656311 0.000000 m /space glyphshow
153.225708 0.000000 m /t glyphshow
158.862000 0.000000 m /e glyphshow
167.705994 0.000000 m /r glyphshow
173.616028 0.000000 m /r glyphshow
179.526062 0.000000 m /a glyphshow
188.334961 0.000000 m /i glyphshow
192.328796 0.000000 m /n glyphshow
201.439514 0.000000 m /comma glyphshow
206.008911 0.000000 m /space glyphshow
210.578308 0.000000 m /w glyphshow
222.335205 0.000000 m /o glyphshow
231.130066 0.000000 m /r glyphshow
237.040100 0.000000 m /k glyphshow
245.364685 0.000000 m /comma glyphshow
249.934082 0.000000 m /space glyphshow
254.503479 0.000000 m /a glyphshow
263.312378 0.000000 m /n glyphshow
272.423096 0.000000 m /d glyphshow
281.547852 0.000000 m /space glyphshow
286.117249 0.000000 m /r glyphshow
292.027283 0.000000 m /e glyphshow
300.871277 0.000000 m /w glyphshow
312.628174 0.000000 m /a glyphshow
321.437073 0.000000 m /r glyphshow
327.347107 0.000000 m /d glyphshow
grestore

end
showpage
