ID,Score,Lon,Lat,Width,Length,Xpoints,Ypoints,Margin,Roam
1,100,-70.970,42.300,10,10,10,10,1,0
2,100,-70.881,42.327,50,50,50,50,1,0
3,100,-70.920,42.287,100,100,100,100,1,0
4,100,-70.976,42.340,150,150,150,150,1,0
5,100,-70.930,42.348,200,200,200,200,1,0

